[
    [
        "S S S L S L",
        "ἰοὺ ἰοὺ πόπαξ·",
        [
            "143a",
            "doc"
        ]
    ],
    [
        "S S S L S L",
        "ἐπάθομεν, φίλαι·",
        [
            "143b",
            "doc"
        ]
    ],
    [
        "L L S L S L S L S L S L",
        "ἦ πολλὰ δὴ παθοῦϲα καὶ μάτην ἐγώ·",
        [
            "144",
            "ia3",
            "",
            "H"
        ]
    ],
    [
        "S S S L S L S S S L S L",
        "ἐπάθομεν πάθοϲ δυϲακέϲ, ὢ πόποι,",
        [
            "145",
            "doc2"
        ]
    ],
    [
        "S L L S ⋂",
        "ἄφερτον κακόν·",
        [
            "146",
            "doc",
            "",
            "B"
        ]
    ],
    [
        "L L S L L L S L S L S L",
        "ἐξ ἀρκύων πέπτωκεν, οἴχεται δʼ ὁ θήρ·",
        [
            "147",
            "ia3"
        ]
    ],
    [
        "L L S L L S L L S ⋂",
        "ὕπνωι κρατηθεῖϲʼ ἄγραν ὤλεϲα.",
        [
            "148",
            "ia+cr2",
            "",
            "HB"
        ]
    ],
    [
        "S L L S ⋂",
        "ἰὼ παῖ Διόϲ,",
        [
            "149a",
            "doc"
        ]
    ],
    [
        "S S S L S L",
        "ἐπίκλοποϲ πέληι,",
        [
            "149b",
            "doc"
        ]
    ],
    [
        "S L S L L L S L S L S L",
        "νέοϲ δὲ γραίαϲ δαίμοναϲ καθιππάϲω",
        [
            "150",
            "ia3",
            "",
            "Hs"
        ]
    ],
    [
        "S S S L S L S S S L S L",
        "τὸν ἱκέταν ϲέβων, ἄθεον ἄνδρα καὶ",
        [
            "151",
            "doc2"
        ]
    ],
    [
        "S L L S L",
        "τοκεῦϲιν πικρόν,",
        [
            "152",
            "doc",
            "",
            "Bs"
        ]
    ],
    [
        "L L S L L L S L S L S L",
        "τὸν μητραλοίαν δʼ ἐξέκλεψαϲ ὢν θεόϲ.",
        [
            "153",
            "ia3"
        ]
    ],
    [
        "S L S L L S L L S L",
        "τί τῶνδʼ ἐρεῖ τιϲ δικαίωϲ ἔχειν;",
        [
            "154",
            "ia+cr2",
            "",
            "",
            "HsBs"
        ]
    ],
    [
        "S L S L S L S L S L S ⋂",
        "ἐμοὶ δʼ ὄνειδοϲ ἐξ ὀνειράτων μολὸν",
        [
            "155",
            "ia3",
            "",
            "B"
        ]
    ],
    [
        "S L L S L S L S L",
        "ἔτυψεν δίκαν διφρηλάτου",
        [
            "156",
            "doc+ia"
        ]
    ],
    [
        "S S S L L L",
        "μεϲολαβεῖ κέντρωι",
        [
            "157",
            "doc"
        ]
    ],
    [
        "S S S S S S S L",
        "ὑπὸ φρέναϲ, ὑπὸ λοβόν·",
        [
            "158",
            "kdoc"
        ]
    ],
    [
        "S L S L L S L",
        "πάρεϲτι μαϲτίκτοροϲ",
        [
            "159",
            "ia+cr"
        ]
    ],
    [
        "L S L L S L",
        "δαΐου δαμίου",
        [
            "160",
            "cr2"
        ]
    ],
    [
        "S S S S S S S S S S L",
        "βαρύ τι περίβαρυ κρύοϲ ἔχειν.",
        [
            "161",
            "ia2"
        ]
    ],
    [
        "S L S L S L S L S L S L",
        "τοιαῦτα δρῶϲιν οἱ νεώτεροι θεοί,",
        [
            "162",
            "ia3",
            "",
            "Bs"
        ]
    ],
    [
        "S L L S L S L S L",
        "κρατοῦντεϲ τὸ πᾶν δίκαϲ πλέον.",
        [
            "163",
            "doc+ia"
        ]
    ],
    [
        "S S S L S L",
        "φονολιβῆ θρόνον",
        [
            "164",
            "doc"
        ]
    ],
    [
        "S S S S S S S L",
        "περὶ πόδα, περὶ κάρα,",
        [
            "165",
            "kdoc"
        ]
    ],
    [
        "L S L L S L",
        "προϲδρακεῖν αἱμάτων",
        [
            "167",
            "cr2"
        ]
    ],
    [
        "S S S S S S S S S S L",
        "βλοϲυρὸν ἀρόμενον ἄγοϲ ἔχειν.",
        [
            "168",
            "ia2"
        ]
    ],
    [
        "S L S L S L S L S L S ⋂",
        "ἐφεϲτίωι δὲ μάντιϲ ὢν μιάϲματι",
        [
            "169",
            "ia3",
            "",
            "B"
        ]
    ],
    [
        "S S S L S L L S S L S L L",
        "μυχὸν ἔχραναϲ αὐτόϲϲυτοϲ, αὐτόκλητοϲ,",
        [
            "170-1",
            "doc+arist",
            "(=doc2+‒)"
        ]
    ],
    [
        "S S S L S L S S S L S L",
        "παρὰ νόμον θεῶν βρότεα μὲν τίων,",
        [
            "172",
            "doc2"
        ]
    ],
    [
        "S L S L S L L S L",
        "παλαιγενεῖϲ δὲ μοίραϲ φθίϲαϲ.",
        [
            "173",
            "ia+doc"
        ]
    ],
    [
        "L L S L L L S L L L S L",
        "κἀμοί γε λυπρόϲ, καὶ τὸν οὐκ ἐκλύϲεται,",
        [
            "174",
            "ia3"
        ]
    ],
    [
        "S S S L S L L S S L S L L",
        "ὑπὸ δὲ γᾶν φυγὼν οὔποτʼ ἐλευθεροῦται,",
        [
            "175-6",
            "doc+arist",
            "(=doc2+‒)"
        ]
    ],
    [
        "S S S L S L S S S L S L",
        "ποτιτρόπαιοϲ ὢν δʼ ἕτερον ἐν κάραι",
        [
            "177",
            "doc2"
        ]
    ],
    [
        "S L S L S L L S L [ ^ 1 ]",
        "μιάϲτορʼ ♱ἐκείνου♱ πάϲεται.",
        [
            "178",
            "ia+doc"
        ]
    ],
    [
        "S L S L L L S L",
        "ὁ δʼ †αὖτε γοῦν† ἀλκὰν ἔχων",
        [
            "258",
            "ia2"
        ]
    ],
    [
        "S S S L L L S L L S L",
        "περὶ βρέτει πλεχθεὶϲ θεᾶϲ ἀμβρότου",
        [
            "259",
            "doc2"
        ]
    ],
    [
        "S S S L S L S L L S L",
        "ὑπόδικοϲ θέλει γενέϲθαι χρεῶν.",
        [
            "260",
            "doc2"
        ]
    ],
    [
        "S L S L S L S L L L S L",
        "τὸ δʼ οὐ πάρεϲτιν. αἷμα μητρῶιον χαμαὶ",
        [
            "261",
            "ia3"
        ]
    ],
    [
        "S L S L L S L",
        "δυϲαγκόμιϲτον, παπαῖ·",
        [
            "262",
            "ia+cr"
        ]
    ],
    [
        "S S S L S L S S S L S L",
        "τὸ διερὸν πέδοι χύμενον οἴχεται.",
        [
            "263",
            "doc2"
        ]
    ],
    [
        "L L S L L L S L L L S L",
        "ἀλλʼ ἀντιδοῦναι δεῖ ϲʼ ἀπὸ ζῶντοϲ ῥοφεῖν",
        [
            "264",
            "ia3"
        ]
    ],
    [
        "S S S L S L S S S S S S L",
        "ἐρυθρὸν ἐκ μελέων πελανόν· ἀπὸ δὲ ϲοῦ",
        [
            "265",
            "doc2"
        ]
    ],
    [
        "L L S L L L S L L S L",
        "βοϲκὰν φεροίμαν πώματοϲ δυϲπότου·",
        [
            "266",
            "sp+ba+cr2"
        ]
    ],
    [
        "L L S L L L S L S L S L",
        "καὶ ζῶντά ϲʼ ἰϲχνάναϲʼ ἀπάξομαι κάτω,",
        [
            "267",
            "ia3"
        ]
    ],
    [
        "L S L L S L L S S L S L",
        "ἀντίποιν᾽ὡϲ τίνηιϲ μητροφόνου δύαϲ·",
        [
            "268",
            "cr2+doc"
        ]
    ],
    [
        "L L S L S L S L S L S L",
        "ὄψηι δὲ κεἴ τιϲ ἄλλοϲ ἤλιτεν βροτῶν",
        [
            "269",
            "ia3"
        ]
    ],
    [
        "L S S L S L",
        "ἢ θεὸν ἢ ξένον",
        [
            "270",
            "doc"
        ]
    ],
    [
        "S S S L L S S L S L",
        "τινʼ ἀϲεβῶν ἢ τοκέαϲ φίλουϲ,",
        [
            "271",
            "cr+doc"
        ]
    ],
    [
        "S L S L L L S L S L S ⋂",
        "ἔχονθʼ ἕκαϲτον τῆϲ δίκηϲ ἐπάξια.",
        [
            "272",
            "ia3",
            "",
            "B"
        ]
    ],
    [
        "S L S L L L S L L L S L",
        "μέγαϲ γὰρ Ἅιδηϲ ἐϲτὶν εὔθυνοϲ βροτῶν",
        [
            "273",
            "ia3"
        ]
    ],
    [
        "S L L S L",
        "ἔνερθε χθονόϲ,",
        [
            "274",
            "doc"
        ]
    ],
    [
        "L S S L S L S L L S ⋂",
        "δελτογράφωι δὲ πάντʼ ἐπωπᾶι φρενί.",
        [
            "275",
            "doc2",
            "",
            "",
            "B"
        ]
    ],
    [
        "S S L L S S L L S S L L L S S L",
        "ἄγε δὴ καὶ χορὸν ἅψωμεν, ἐπεὶ μοῦϲαν ϲτυγερὰν",
        [
            "307-8",
            "an3"
        ]
    ],
    [
        "S S L L L S S L L",
        "ἀποφαίνεϲθαι δεδόκηκεν,",
        [
            "309",
            "par"
        ]
    ],
    [
        "L L S S L S S L L L",
        "λέξαι τε λάχη τὰ κατʼ ἀνθρώπουϲ",
        [
            "310",
            "an2"
        ]
    ],
    [
        "L S S L L S S L L",
        "ὡϲ ἐπινωμᾶι ϲτάϲιϲ ἁμή.",
        [
            "311",
            "par"
        ]
    ],
    [
        "L L S S L L S S L L",
        "εὐθυδίκαιοι δʼ οἰόμεθʼ εἶναι·",
        [
            "312",
            "an2"
        ]
    ],
    [
        "L S S L L L S S L L",
        "οὔτιϲ ἐφέρπει μῆνιϲ ἀφʼ ἡμῶν,",
        [
            "314",
            "an2"
        ]
    ],
    [
        "S S L L L S S L L",
        "ἀϲινὴϲ δʼ αἰῶνα διοιχνεῖ·",
        [
            "315",
            "par"
        ]
    ],
    [
        "L L S S L L S S L L",
        "ὅϲτιϲ δʼ ἀλιτὼν ὥϲπερ ὅδʼ ἁνὴρ",
        [
            "316",
            "an2"
        ]
    ],
    [
        "L L S S L S S L L",
        "χεῖραϲ φονίαϲ ἐπικρύπτει,",
        [
            "317",
            "par"
        ]
    ],
    [
        "L S S L L L S S L L S S L S S L",
        "μάρτυρεϲ ὀρθαὶ τοῖϲι θανοῦϲιν παραγιγνόμεναι",
        [
            "318-19",
            "an3"
        ]
    ],
    [
        "L S S L S S L L S S L S S L L",
        "πράκτορεϲ αἵματοϲ αὐτῶι τελέωϲ ἐφάνημεν.",
        [
            "320",
            "an3\\^"
        ]
    ],
    [
        "L S L S L S L",
        "μᾶτερ ἅ μʼ ἔτικτεϲ, ὦ",
        [
            "321",
            "lek[^2]"
        ]
    ],
    [
        "L L L L S L S L S L S L L L",
        "μᾶτερ Νύξ, ἀλαοῖϲι καὶ δεδορκόϲιν ποινάν,",
        [
            "322",
            "gly+ia+sp[^3]"
        ]
    ],
    [
        "L S L L S L L S L L S L L",
        "κλῦθʼ· ὁ Λατοῦϲ γὰρ ἷνίϲ μ' ἄτιμον τίθηϲιν",
        [
            "323-4",
            "cr3+tr"
        ]
    ],
    [
        "L S L L S L L S L L S L",
        "τόνδʼ ἀφαιρούμενοϲ πτῶκα, ματρῶιον ἅγ-",
        [
            "325-6",
            "cr4∫"
        ]
    ],
    [
        "L S L S L S L",
        "νιϲμα κύριον φόνου.",
        [
            "327",
            "lek",
            "",
            "",
            "H"
        ]
    ],
    [
        "S S S L S S S L",
        "ἐπὶ δὲ τῶι τεθυμένωι",
        [
            "328",
            "cr2[^4]"
        ]
    ],
    [
        "S S S L S S S L",
        "τόδε μέλοϲ, παρακοπά,",
        [
            "329",
            "cr2"
        ]
    ],
    [
        "S S S L S S S L",
        "παραφορὰ φρενοδαλήϲ,",
        [
            "330",
            "cr2"
        ]
    ],
    [
        "L S L S L S L",
        "ὕμνοϲ ἐξ Ἐρινύων",
        [
            "331",
            "lek"
        ]
    ],
    [
        "L S L S L S L",
        "δέϲμιοϲ φρενῶν, ἀφόρ-",
        [
            "332",
            "lek∫"
        ]
    ],
    [
        "L S L S L S L",
        "μικτοϲ, αὐονὰ βροτοῖϲ.",
        [
            "333",
            "lek"
        ]
    ],
    [
        "L S L S L S L",
        "τοῦτο γὰρ λάχοϲ διαν-",
        [
            "334",
            "lek∫"
        ]
    ],
    [
        "L L L S S L S L S L S L L L",
        "ταία Μοῖρʼ ἐπέκλωϲεν ἐμπέδωϲ ἔχειν, θνατῶν",
        [
            "335",
            "gly+ia+sp"
        ]
    ],
    [
        "L S L L S L L S L L S L L",
        "τοῖϲιν αὐτουργίαι ξυμπαγῶϲιν μάταιοι,",
        [
            "336-7",
            "cr3+tr"
        ]
    ],
    [
        "L S L L S L L S L L S L",
        "τοῖϲ ὁμαρτεῖν ὄφρʼ ἂν γᾶν ὑπέλθηι· θανὼν δʼ",
        [
            "338-9",
            "cr4"
        ]
    ],
    [
        "L S L S L S ⋂",
        "οὐκ ἄγαν ἐλεύθεροϲ.",
        [
            "340",
            "lek"
        ]
    ],
    [
        "S S S L S S S L",
        "ἐπὶ δὲ τῶι τεθυμένωι",
        [
            "341",
            "cr2[^5]"
        ]
    ],
    [
        "S S S L S S S L",
        "τόδε μέλοϲ, παρακοπά,",
        [
            "342",
            "cr2"
        ]
    ],
    [
        "S S S L S S S L",
        "παραφορὰ φρενοδαλήϲ,",
        [
            "343",
            "cr2"
        ]
    ],
    [
        "L S L S L S L",
        "ὕμνοϲ ἐξ Ἐρινύων",
        [
            "344",
            "lek"
        ]
    ],
    [
        "L S L S L S L",
        "δέϲμιοϲ φρενῶν, ἀφόρ-",
        [
            "345",
            "lek∫"
        ]
    ],
    [
        "L S L S L S L",
        "μικτοϲ, αὐονὰ βροτοῖϲ.",
        [
            "346",
            "lek"
        ]
    ],
    [
        "L S S L S S L S S L S S L L",
        "γιγνομέναιϲι λάχη τάδʼ ἐφʼ ἁμὶν ἐκράνθη·",
        [
            "347-8",
            "dac5",
            "",
            "H"
        ]
    ],
    [
        "L S S L S S L S S L S S L ⋂",
        "ἀθανάτων δʼ ἀπέχειν χέραϲ, οὐδέ τιϲ ἐϲτὶ",
        [
            "349-50",
            "dac5B"
        ]
    ],
    [
        "L L L S S L L",
        "ϲυνδαίτωρ μετάκοινοϲ.",
        [
            "351",
            "dac3"
        ]
    ],
    [
        "L L L S S L S S L S S L S S L L",
        "παλλεύκων δὲ πέπλων ἀπόμοιροϲ ἄκληροϲ ἐτύχθην",
        [
            "352-3",
            "dac6"
        ]
    ],
    [
        "L S L S L S L",
        "δωμάτων γὰρ εἱλόμαν",
        [
            "354",
            "lek"
        ]
    ],
    [
        "S S S L S S S L",
        "ἀνατροπάϲ· ὅταν Ἄρηϲ",
        [
            "355",
            "cr2"
        ]
    ],
    [
        "S S S L S S S L",
        "τιθαϲὸϲ ὢν φίλον ἕληι,",
        [
            "356",
            "cr2"
        ]
    ],
    [
        "S S S L S S S L",
        "ἐπὶ τόν, ὤ, διόμεναι",
        [
            "357",
            "cr2"
        ]
    ],
    [
        "S S S L S L L",
        "κρατερὸν ὄνθʼ ♱ὁμοίωϲ",
        [
            "358",
            "cr+unknown"
        ]
    ],
    [
        "L L S S L S L S L",
        "μαυροῦμεν ἀφʼ αἵματοϲ νέου♱.",
        [
            "359",
            "unknown"
        ]
    ],
    [
        "L S S L S S L S S L S S L L",
        "ϲπευδόμενος δʼ ἀφελεῖν τινα τᾶϲδε μερίμναϲ",
        [
            "360-1",
            "dac5",
            "",
            "Hs"
        ]
    ],
    [
        "L S S L S S L S S L S S L L",
        "θεῶν δʼ ἀφέλεῖν ἐμαῖϲι λιταῖϲ ἐπικραίνειν",
        [
            "362-3",
            "dac5Bs"
        ]
    ],
    [
        "L L L S S L L",
        "μηδʼ εἰϲ ἄγκριϲιν ἐλθεῖν·",
        [
            "364",
            "dac3"
        ]
    ],
    [
        "L L L S S L S S L S S L S S L L",
        "Ζεὺϲ δʼ αἱμοϲταγὲϲ ἀξιόμιϲον ἔθνοϲ τόδε λέϲχαϲ",
        [
            "365-6",
            "dac6"
        ]
    ],
    [
        "L S L S L S ⋂",
        "ἇϲ ἀπηξιώϲατο.",
        [
            "367",
            "lek"
        ]
    ],
    [
        "L L L L L S S L S S L L",
        "δόξαι δʼ ἀνδρῶν καὶ μάλʼ ὑπʼ αἰθέρι ϲεμναὶ",
        [
            "368",
            "dac6"
        ]
    ],
    [
        "L S S L S S L S S L S S L L",
        "τακόμεναι κατὰ γᾶϲ μινύθουϲιν ἄτιμοι",
        [
            "369",
            "dac5",
            "",
            "H"
        ]
    ],
    [
        "L S S L S S L S S L S S",
        "ἁμετέραιϲ ἐφόδοιϲ μελανείμοϲιν",
        [
            "370",
            "dac4"
        ]
    ],
    [
        "L L L S L S L S L",
        "ὀρχηϲμοῖϲ τʼ ἐπιφθόνοιϲ ποδόϲ·",
        [
            "371",
            "sp+lek"
        ]
    ],
    [
        "S S S L S S S L",
        "μάλα γὰρ οὖν ἀλομένα",
        [
            "372",
            "cr2[^6]",
            "",
            "J"
        ]
    ],
    [
        "S S S L S S S L",
        "ἀνάκαθεν βαρυπετῆ",
        [
            "373",
            "cr2"
        ]
    ],
    [
        "S S S L S S S L",
        "καταφέρω ποδὸϲ ἀκμάν —",
        [
            "374",
            "cr2"
        ]
    ],
    [
        "L S L S S L L",
        "κῶλα — δύϲφορον ἄταν.",
        [
            "376",
            "pher"
        ]
    ],
    [
        "L L L L L S S L S S L L",
        "πίπτων δʼ οὐκ οἶδεν τόδʼ ὑπʼ ἄφρονι λύμαι·",
        [
            "377",
            "dac5"
        ]
    ],
    [
        "L S S L S S L S S L S S L L",
        "τοῖον ἐπὶ κνέφαϲ ἀνδρὶ μύϲοϲ πεπόταται,",
        [
            "378",
            "dac5",
            "",
            "Hs"
        ]
    ],
    [
        "L S S L S S L S S L S S",
        "καὶ δνοφεράν τινʼ ἀχλὺν κατὰ δώματοϲ",
        [
            "379",
            "dac4"
        ]
    ],
    [
        "L L L S L S L S L",
        "αὐδᾶται πολύϲτονοϲ φάτιϲ.",
        [
            "380",
            "sp+lek"
        ]
    ],
    [
        "S L S L L S L",
        "μέλει γὰρ εὐμήχανοι",
        [
            "381",
            "ia+cr"
        ]
    ],
    [
        "S L S L L S L",
        "δὲ καὶ τέλειοι, κακῶν",
        [
            "382",
            "ia+cr"
        ]
    ],
    [
        "L [ ^ 7 ] L S L L L",
        "τε μνήμονεϲ, ϲεμναὶ",
        [
            "383",
            "ia+sp"
        ]
    ],
    [
        "L L S L S L S L",
        "καὶ δυϲπαρήγοροι βροτοῖϲ,",
        [
            "384",
            "ia2"
        ]
    ],
    [
        "S L S L S L S L S L S L",
        "θεῶν διχοϲτατοῦντʼ ἀνηλίωι λάπαι,",
        [
            "386",
            "ia3"
        ]
    ],
    [
        "L S S L S S L S S L ⋂",
        "†δυϲοδοπαίπαλα† δερκομένοιϲι",
        [
            "387",
            "dac4"
        ]
    ],
    [
        "L S L S L S L",
        "καὶ δυϲομμάτοιϲ ὁμῶϲ·",
        [
            "388",
            "lek"
        ]
    ],
    [
        "S L S L L S L",
        "τίϲ οὖν τάδʼ οὐχ ἅζεταί",
        [
            "389",
            "ia+cr"
        ]
    ],
    [
        "S L S L L S L",
        "τε καὶ δέδοικεν βροτῶν,",
        [
            "390",
            "ia+cr"
        ]
    ],
    [
        "S L S L L L",
        "ἐμοῦ κλύων θεϲμόν,",
        [
            "391",
            "ia+sp"
        ]
    ],
    [
        "L L S L S L S L",
        "τὸν μοιρόκραντον ἐκ θεῶν",
        [
            "392",
            "ia2"
        ]
    ],
    [
        "S L S S S S S S S L",
        "δοθέντα τέλεον; ἔπι δέ μοι",
        [
            "393",
            "ia2"
        ]
    ],
    [
        "S L S L S L S L S L S L",
        "γέραϲ παλαιόν, οὐδʼ ἀτιμίαϲ κυρῶ,",
        [
            "394",
            "ia3"
        ]
    ],
    [
        "L S S L S S L S S L ⋂",
        "καίπερ ὑπὸ χθόνα τάξιν ἔχουϲα",
        [
            "395",
            "dac4",
            "",
            "B"
        ]
    ],
    [
        "L S L S L S L",
        "καὶ δυϲάλιον κνέφαϲ.",
        [
            "396",
            "lek"
        ]
    ],
    [
        "L S L S L S L",
        "νῦν καταϲτροφαὶ νέων",
        [
            "490",
            "lek"
        ]
    ],
    [
        "L S L L S L",
        "θεϲμίων, εἰ κρατή-",
        [
            "491",
            "cr2∫"
        ]
    ],
    [
        "L S L S L S L",
        "ϲει δίκα δίκαϲ βλάβα,",
        [
            "492",
            "lek"
        ]
    ],
    [
        "L S L L S L",
        "τοῦδε μητροκτόνου·",
        [
            "493",
            "cr2"
        ]
    ],
    [
        "L S L L S L S L S L",
        "πάνταϲ ἤδη τόδʼ ἔργον εὐχερεί-",
        [
            "494",
            "cr+lek∫"
        ]
    ],
    [
        "L S L S L S L",
        "αι ϲυναρμόϲει βροτούϲ·",
        [
            "495",
            "lek",
            "",
            "Ba"
        ]
    ],
    [
        "L S S S S L S L S",
        "πολλὰ δʼ ἔτυμα παιδότρωτα",
        [
            "496",
            "tr2"
        ]
    ],
    [
        "S S S L S L S L",
        "πάθεα προϲμένει τοκεῦ-",
        [
            "497",
            "lek∫"
        ]
    ],
    [
        "L S L S L S L",
        "ϲιν μεταῦθιϲ ἐν χρόνωι.",
        [
            "498",
            "lek"
        ]
    ],
    [
        "L S L S L S L",
        "οὐδὲ γὰρ βροτοϲκόπων",
        [
            "499",
            "lek"
        ]
    ],
    [
        "L S L L S L",
        "μαινάδων τῶνδʼ ἐφέρ-",
        [
            "500",
            "cr2∫"
        ]
    ],
    [
        "L S L S L S L",
        "ψει κότοϲ τιϲ ἐργμάτων·",
        [
            "501",
            "lek"
        ]
    ],
    [
        "L S L L S L",
        "πάντʼ ἐφήϲω μόρον,",
        [
            "502",
            "cr2"
        ]
    ],
    [
        "L S L S L S ⋂",
        "νῶν τὰ τῶν πέλαϲ κακά,",
        [
            "504",
            "lek",
            "",
            "B"
        ]
    ],
    [
        "L S S S S L S L L",
        "λῆξιν ὑπόδοϲίν τε μόχθων,",
        [
            "505",
            "tr2"
        ]
    ],
    [
        "S S S L S L S L",
        "ἄκεα δʼ οὐ βέβαια τέμ-",
        [
            "506",
            "lek∫"
        ]
    ],
    [
        "L S L S L S L",
        "μηδέ τιϲ κικληϲκέτω",
        [
            "508",
            "lek"
        ]
    ],
    [
        "L S L S L S L",
        "ξυμφορᾶι τετυμμένοϲ",
        [
            "509",
            "lek"
        ]
    ],
    [
        "L S L S L S L",
        "τοῦτʼ ἔποϲ θροούμενοϲ,",
        [
            "510",
            "lek"
        ]
    ],
    [
        "L S L",
        "\"ὦ Δίκα,",
        [
            "511",
            "cr",
            "",
            "H"
        ]
    ],
    [
        "L S L S L S L",
        "ὦ θρόνοι τʼ Ἐρινύων\"·",
        [
            "512",
            "lek"
        ]
    ],
    [
        "L S L S L S L",
        "ταῦτά τιϲ τάχʼ ἂν πατὴρ",
        [
            "513",
            "lek"
        ]
    ],
    [
        "L S L S S S S L",
        "ἢ τεκοῦϲα νεοπαθὴϲ",
        [
            "514",
            "lek"
        ]
    ],
    [
        "L S L S L S L",
        "οἶκτον οἰκτίϲαιτʼ, ἐπει-",
        [
            "515",
            "lek∫"
        ]
    ],
    [
        "L S L S L S L",
        "δὴ πίτνει δόμοϲ Δίκαϲ.",
        [
            "516",
            "lek"
        ]
    ],
    [
        "L S L S L S L",
        "ἔϲθʼ ὅπου τὸ δεινὸν εὖ",
        [
            "517",
            "lek"
        ]
    ],
    [
        "L S L S L S L",
        "καὶ φρενῶν ἐπίϲκοπον",
        [
            "518",
            "lek"
        ]
    ],
    [
        "L S L S L S L",
        "δεῖμ’ ἄνω καθήμενον·",
        [
            "519",
            "lek"
        ]
    ],
    [
        "L S L",
        "ξυμφέρει",
        [
            "520",
            "cr",
            "",
            "Hs"
        ]
    ],
    [
        "L S L S L S L",
        "ϲωφρονεῖν ὑπὸ ϲτένει.",
        [
            "521",
            "lek"
        ]
    ],
    [
        "L S L S L S L",
        "τίϲ δὲ μηδὲν ἐν φάει",
        [
            "522",
            "lek"
        ]
    ],
    [
        "L S L S L S L",
        "καρδίαϲ δέοϲ τρέφων —",
        [
            "523",
            "lek"
        ]
    ],
    [
        "L S L S L S L",
        "ἢ πόλιϲ βροτόϲ θʼ ὁμοί-",
        [
            "524",
            "lek∫"
        ]
    ],
    [
        "L S L S L S L",
        "ωϲ ἔτʼ ἂν ϲέβοι Δίκαν;",
        [
            "525",
            "lek"
        ]
    ],
    [
        "L S L L S L",
        "μήτʼ ἄναρκτον βίον",
        [
            "526",
            "cr2"
        ]
    ],
    [
        "L S L S L S L",
        "μήτε δεϲποτούμενον",
        [
            "527",
            "lek",
            "",
            "B"
        ]
    ],
    [
        "L S L",
        "αἰνέϲηιϲ·",
        [
            "528",
            "cr"
        ]
    ],
    [
        "L S S L S S L S S L S S",
        "παντὶ μέϲωι τὸ κράτοϲ θεὸϲ ὤπαϲεν,",
        [
            "529-30",
            "dac4"
        ]
    ],
    [
        "L L L S S L L",
        "ἄλλʼ ἄλλαι δ' ἐφορεύει.",
        [
            "531",
            "dac3",
            "",
            "[^8]"
        ]
    ],
    [
        "L S L S L S L",
        "ξύμμετρον δʼ ἔποϲ λέγω·",
        [
            "532",
            "lek"
        ]
    ],
    [
        "L S S L S S L S S L S S L",
        "δυϲϲεβίαϲ μὲν ὕβριϲ τέκοϲ ὡϲ ἐτύμωϲ,",
        [
            "533-4",
            "dac5\\^"
        ]
    ],
    [
        "L S S L L",
        "ἐκ δʼ ὑγιείαϲ",
        [
            "535",
            "dac2"
        ]
    ],
    [
        "S L S L L S L",
        "φρενῶν ὁ πᾶϲιν φίλοϲ",
        [
            "536",
            "ia+cr"
        ]
    ],
    [
        "L S S L S L ⋂",
        "καὶ πολύευκτοϲ ὄλβοϲ.",
        [
            "537",
            "arist",
            "",
            "",
            "B"
        ]
    ],
    [
        "L S L S L S L",
        "βωμὸν αἴδεϲαι Δίκαϲ,",
        [
            "539",
            "lek"
        ]
    ],
    [
        "L S L",
        "μηδέ νιν",
        [
            "540",
            "cr"
        ]
    ],
    [
        "L S S L S S L S S L S S",
        "κέρδοϲ ἰδὼν ἀθέωι ποδὶ λὰξ ἀτί-",
        [
            "541-2",
            "dac4∫"
        ]
    ],
    [
        "L L L S S L L",
        "ϲηιϲ· ποινὰ γὰρ ἐπέϲται.",
        [
            "543",
            "dac3"
        ]
    ],
    [
        "L S L S L S L",
        "κύριον μένει τέλοϲ.",
        [
            "544",
            "lek"
        ]
    ],
    [
        "L S S L S S L S S L S S L",
        "πρὸϲ τάδε τιϲ τοκέων ϲέβαϲ εὖ προτίων",
        [
            "545-6",
            "dac5\\^"
        ]
    ],
    [
        "L S S L L",
        "καὶ ξενοτίμουϲ",
        [
            "547",
            "dac2"
        ]
    ],
    [
        "S L S L L S L",
        "ἐπιϲτροφὰϲ δωμάτων",
        [
            "548",
            "ia+cr"
        ]
    ],
    [
        "L S S L S L L",
        "αἰδόμενόϲ τιϲ ἔϲτω.",
        [
            "549",
            "arist",
            "",
            "",
            "H"
        ]
    ],
    [
        "S L S L L S L S L S L",
        "ἑκὼν δʼ ἀνάγκαϲ ἄτερ δίκαιοϲ ὢν",
        [
            "550",
            "ia+lek"
        ]
    ],
    [
        "L S L S L L",
        "οὐκ ἄνολβοϲ ἔϲται,",
        [
            "551",
            "ith"
        ]
    ],
    [
        "S L S L L S L S L S L",
        "τὸν ἀντίτολμον δέ φαμι παρβάδαν",
        [
            "553",
            "ia+lek"
        ]
    ],
    [
        "S L L L S L S L L",
        "βιαίωϲ ξὺν χρόνωι καθήϲειν",
        [
            "555",
            "ba+ith",
            "",
            "Ba"
        ]
    ],
    [
        "L S S L S L S L",
        "λαῖφοϲ, ὅταν λάβηι πόνοϲ",
        [
            "556",
            "chor+ia"
        ]
    ],
    [
        "L S S L S L L",
        "θραυομέναϲ κεραίαϲ.",
        [
            "557",
            "arist"
        ]
    ],
    [
        "L S L S L L",
        "δυϲπαλεῖ τε δίναι·",
        [
            "559",
            "ith"
        ]
    ],
    [
        "S L S L L S L S L L",
        "γελᾶι δὲ δαίμων ἐπʼ ἀνδρὶ θερμῶι,",
        [
            "560",
            "ia+ith",
            "",
            "Bs"
        ]
    ],
    [
        "S L S L L S L S L S L",
        "τὸν οὔποτʼ αὐχοῦντʼ ἰδὼν ἀμηχάνοιϲ",
        [
            "561",
            "ia+lek"
        ]
    ],
    [
        "S L S L S L S L S L S L",
        "δύαιϲ λαπαδνὸν οὐδʼ ὑπερθέοντʼ ἄκραν·",
        [
            "562",
            "ia3"
        ]
    ],
    [
        "S L L L S L S L ⋂",
        "διʼ αἰῶνοϲ δὲ τὸν πρὶν ὄλβον",
        [
            "563",
            "ba+ith",
            "",
            "B"
        ]
    ],
    [
        "L S S L S L S L",
        "ἕρματι προϲβαλὼν Δίκαϲ",
        [
            "564",
            "chor+ia"
        ]
    ],
    [
        "L S S L S L L",
        "ὤλετʼ ἄκλαυτοϲ ἆιϲτοϲ.",
        [
            "565",
            "arist"
        ]
    ],
    [
        "S L S L S L S L S L L S L",
        "ἰὼ θεοὶ νεώτεροι, παλαιοὺϲ νόμουϲ",
        [
            "778",
            "ia2+doc"
        ]
    ],
    [
        "S L S L S L S L L L S L",
        "καθιππάϲαϲθε κἀκ χερῶν εἵλεϲθέ μου·",
        [
            "779",
            "ia3",
            "",
            "H"
        ]
    ],
    [
        "S L S L S L S L S S S S ⋂",
        "ἐγὼ δʼ ἄτιμοϲ ἁ τάλαινα βαρύκοτοϲ",
        [
            "780",
            "ia3",
            "",
            "B"
        ]
    ],
    [
        "L L L S L",
        "ἐν γᾶι τᾶιδε, φεῦ,",
        [
            "781",
            "doc",
            "",
            "H"
        ]
    ],
    [
        "L S L S L S L L S L S L S L",
        "ἰὸν ἰὸν ἀντιπενθῆ μεθεῖϲα καρδίαϲ",
        [
            "782",
            "lek2"
        ]
    ],
    [
        "S S S S S S L",
        "πέδον ἐπιϲύμενοϲ",
        [
            "786",
            "doc"
        ]
    ],
    [
        "S L S L L L S L L L S L",
        "βροτοφθόρουϲ κηλῖδαϲ ἐν χώραι βαλεῖ.",
        [
            "787",
            "ia3"
        ]
    ],
    [
        "S L L S L L",
        "ϲτενάζω· τί ῥέξω;",
        [
            "788",
            "ba2"
        ]
    ],
    [
        "S L L S L ⋂",
        "γελῶμαι· †δύϲοιϲτα",
        [
            "789",
            "ba?"
        ]
    ],
    [
        "S L L S S S",
        "πολίταιϲ ἔπαθον.",
        [
            "790",
            "?"
        ]
    ],
    [
        "S L S S L L",
        "ἰὼ μεγάλατοι†",
        [
            "791",
            "?"
        ]
    ],
    [
        "S L L S L",
        "κόραι δυϲτυχεῖϲ",
        [
            "792",
            "doc"
        ]
    ],
    [
        "L S S L S L L",
        "Νυκτὸϲ ἀτιμοπενθεῖϲ.",
        [
            "793",
            "arist"
        ]
    ],
    [
        "S L S L S L S L S L L S L",
        "ἰὼ θεοὶ νεώτεροι, παλαιοὺϲ νόμουϲ",
        [
            "808",
            "ia2+doc"
        ]
    ],
    [
        "S L S L S L S L L L S L",
        "καθιππάϲαϲθε κἀκ χερῶν εἵλεϲθέ μου·",
        [
            "809",
            "ia3",
            "",
            "H"
        ]
    ],
    [
        "S L S L S L S L S S S S ⋂",
        "ἐγὼ δʼ ἄτιμοϲ ἁ τάλαινα βαρύκοτοϲ",
        [
            "810",
            "ia3",
            "",
            "B"
        ]
    ],
    [
        "L L L S L",
        "ἐν γᾶι τᾶιδε, φεῦ,",
        [
            "811",
            "doc",
            "",
            "H"
        ]
    ],
    [
        "L S L S L S L L S L S L S L",
        "ἰὸν ἰὸν ἀντιπενθῆ μεθεῖϲα καρδίαϲ",
        [
            "812",
            "lek2"
        ]
    ],
    [
        "S S S S S S L",
        "πέδον ἐπιϲύμενοϲ",
        [
            "816",
            "doc"
        ]
    ],
    [
        "S L S L L L S L L L S L",
        "βροτοφθόρουϲ κηλῖδαϲ ἐν χώραι βαλεῖ.",
        [
            "817",
            "ia3"
        ]
    ],
    [
        "S L L S L L",
        "ϲτενάζω· τί ῥέξω;",
        [
            "818",
            "ba2"
        ]
    ],
    [
        "S L L S L ⋂",
        "γελῶμαι· †δύϲοιϲτα",
        [
            "819",
            "ba+?"
        ]
    ],
    [
        "S L L S S S",
        "πολίταιϲ ἔπαθον.",
        [
            "820",
            "?"
        ]
    ],
    [
        "S L S S L L",
        "ἰὼ μεγάλατοι†",
        [
            "821",
            "?"
        ]
    ],
    [
        "S L L S L",
        "κόραι δυϲτυχεῖϲ",
        [
            "822",
            "doc"
        ]
    ],
    [
        "L S S L S L L",
        "Νυκτὸϲ ἀτιμοπενθεῖϲ.",
        [
            "823",
            "arist"
        ]
    ],
    [
        "S S S L S ⋂ L",
        "ἐμὲ παθεῖν τάδε, φεῦ,",
        [
            "837",
            "doc",
            "",
            "B+extrametric",
            "",
            "H[^9]"
        ]
    ],
    [
        "S L L S ⋂",
        "πνέω τοι μένοϲ",
        [
            "840a",
            "doc",
            "",
            "B"
        ]
    ],
    [
        "S L S S S ⋂",
        "ἅπαντά τε κότον·",
        [
            "840b",
            "doc",
            "",
            "B"
        ]
    ],
    [
        "L S S L S L L L S S L",
        "τίϲ μʼ ὑποδύεται πλευρὰϲ ὀδύνα;",
        [
            "842/3",
            "doc+an",
            "",
            "H[^12]"
        ]
    ],
    [
        "S S S L L L L L L S L",
        "ἀπό με γὰρ τιμᾶν δαναιᾶν θεῶν",
        [
            "845",
            "doc2"
        ]
    ],
    [
        "L S S L S L S L L S L",
        "δυϲπάλαμοι παρʼ οὐδὲν ἦραν δόλοι.",
        [
            "846-7",
            "doc2",
            "",
            "",
            "H"
        ]
    ],
    [
        "S S S L S ⋂ L",
        "ἐμὲ παθεῖν τάδε, φεῦ,",
        [
            "870",
            "doc",
            "",
            "B+extrametric",
            "",
            "H[^13]"
        ]
    ],
    [
        "S L L S ⋂",
        "πνέω τοι μένοϲ",
        [
            "873a",
            "doc",
            "",
            "B"
        ]
    ],
    [
        "S L S S S ⋂",
        "ἅπαντά τε κότον·",
        [
            "873b",
            "doc",
            "",
            "B"
        ]
    ],
    [
        "L S S L S L L L S S L",
        "τίϲ μʼ ὑποδύεται πλευρὰϲ ὀδύνα;",
        [
            "875-6",
            "doc+an",
            "",
            "H[^16]"
        ]
    ],
    [
        "S S S L L L L L L S L",
        "ἀπό με γὰρ τιμᾶν δαναιᾶν θεῶν",
        [
            "878",
            "doc2"
        ]
    ],
    [
        "L S S L S L S L L S L",
        "δυϲπάλαμοι παρʼ οὐδὲν ἦραν δόλοι.",
        [
            "879-80",
            "doc2",
            "",
            "",
            "H"
        ]
    ],
    [
        "L S L L S L S L S L",
        "δέξομαι Παλλάδοϲ ξυνοικίαν,",
        [
            "916",
            "cr+lek"
        ]
    ],
    [
        "L S L S L S L",
        "οὐδʼ ἀτιμάϲω πόλιν",
        [
            "917",
            "lek"
        ]
    ],
    [
        "L L L S L S L S L",
        "τὰν καὶ Ζεὺϲ ὁ παγκρατὴϲ Ἄρηϲ",
        [
            "918",
            "sp+lek",
            "⏑",
            "‒",
            "⏑‒",
            "",
            "",
            "⏑",
            "‒",
            "⏑",
            "‒"
        ]
    ],
    [
        "τ ὰ ν κ α ὶ Ζ ε ὺ ϲ ὁ π α γ κ ρ α τ ὴ ϲ Ἄ ρ η ϲ 9 1 8 s p + l e k S L S L S L S L",
        "τε φρούριον θεῶν νέμει,",
        [
            "919",
            "ia2"
        ]
    ],
    [
        "L S L S L L L S L S L S L",
        "ῥυϲίβωμον Ἑλλάνων ἄγαλμα δαιμόνων·",
        [
            "920-1",
            "cr+ba+lek"
        ]
    ],
    [
        "L S L S L S L",
        "ἇιτʼ ἐγὼ κατεύχομαι",
        [
            "922",
            "lek"
        ]
    ],
    [
        "L S L S L S L",
        "θεϲπίϲαϲα πρευμενῶϲ",
        [
            "923",
            "lek"
        ]
    ],
    [
        "S L S L S L S L S L S L",
        "ἐπιϲϲύτουϲ βίου τύχαϲ ὀνηϲίμουϲ",
        [
            "924",
            "ia3"
        ]
    ],
    [
        "L S L S L S L",
        "φαιδρὸν ἁλίου ϲέλαϲ.",
        [
            "926",
            "lek"
        ]
    ],
    [
        "S S L S S L L S S L L",
        "τάδʼ ἐγὼ προφρόνωϲ τοῖϲδε πολίταιϲ",
        [
            "927",
            "an2"
        ]
    ],
    [
        "L L S S L L S S L L",
        "πράϲϲω, μεγάλαϲ καὶ δυϲαρέϲτουϲ",
        [
            "928",
            "an2"
        ]
    ],
    [
        "L S S L L S S L S S L",
        "δαίμοναϲ αὐτοῦ καταναϲϲαμένη·",
        [
            "929",
            "an2"
        ]
    ],
    [
        "L S S L L S S L L L S S L S S L",
        "πάντα γὰρ αὗται τὰ κατʼ ἀνθρώπουϲ ἔλαχον διέπειν.",
        [
            "930-1",
            "an3"
        ]
    ],
    [
        "L L S S L L L S S L",
        "οὐκ οἶδεν ὅθεν πληγαὶ βιότου·",
        [
            "933",
            "an2"
        ]
    ],
    [
        "S S L S S L S S L S S L",
        "τὰ γὰρ ἐκ προτέρων ἀπλακήματά νιν",
        [
            "934",
            "an2"
        ]
    ],
    [
        "L L S S L",
        "πρὸϲ τάϲδʼ ἀπάγει·",
        [
            "935",
            "an"
        ]
    ],
    [
        "L L L L S S L L",
        "ἐχθραῖϲ ὀργαῖϲ ἀμαθύνει.",
        [
            "937",
            "par"
        ]
    ],
    [
        "L S L L S L S L S L",
        "δενδροπήμων δὲ μὴ πνέοι βλάβα—",
        [
            "938",
            "cr+lek"
        ]
    ],
    [
        "L S L S L S L",
        "τὰν ἐμὰν χάριν λέγω—",
        [
            "939",
            "lek"
        ]
    ],
    [
        "L L L S L S L S L",
        "φλογμοὺϲ ὀμματοϲτερεῖϲ φυτῶν",
        [
            "940",
            "sp+lek"
        ]
    ],
    [
        "S L S L S L S L",
        "τὸ μὴ περᾶν ὅρον τόπων,",
        [
            "941",
            "ia2"
        ]
    ],
    [
        "L S L S L L L S L S L S L",
        "μηδʼ ἄκαρποϲ αἰανὴϲ ἐφερπέτω νόϲοϲ,",
        [
            "942-3",
            "cr+ba+lek"
        ]
    ],
    [
        "L S L S L S L",
        "μῆλά τʼ εὐθενοῦντα Πὰν",
        [
            "944",
            "lek"
        ]
    ],
    [
        "L S L S L S L",
        "ξὺν διπλοῖϲιν ἐμβρύοιϲ",
        [
            "945",
            "lek"
        ]
    ],
    [
        "L S L S L S L",
        "δαιμόνων δόϲιν πίοι.",
        [
            "948",
            "lek"
        ]
    ],
    [
        "L S S L S S S S L L S S L S S L L",
        "Αθ. ἦ τάδʼ ἀκούετε, πόλεωϲ φρούριον, οἷʼ ἐπικραίνει;",
        [
            "949-50",
            "an3"
        ]
    ],
    [
        "S S L S S L L S S L L",
        "μέγα γὰρ δύναται πότνιʼ Ἐρινὺϲ",
        [
            "951",
            "an2"
        ]
    ],
    [
        "S S L S S L L S S L L",
        "παρά τʼ ἀθανάτοιϲ τοῖϲ θʼ ὑπὸ γαῖαν,",
        [
            "952",
            "an2"
        ]
    ],
    [
        "S S L L L S S L S S L S S L L L",
        "περί τʼ ἀνθρώπων φανέρʼ ὡϲ τελέωϲ διαπράϲϲουϲιν,",
        [
            "953",
            "an3"
        ]
    ],
    [
        "S S L L L S S L L",
        "βίον ἀμβλωπὸν παρέχουϲαι.",
        [
            "955",
            "an2",
            "",
            "",
            "H"
        ]
    ],
    [
        "L S L L S L L S L S L S L",
        "ἀνδροκμῆταϲ δʼ ἀώρουϲ ἀπεννέπω τύχαϲ·",
        [
            "956-7",
            "cr2+lek"
        ]
    ],
    [
        "S S S L S L S L",
        "νεανίδων δʼ ἐπηράτων",
        [
            "958",
            "lek"
        ]
    ],
    [
        "L S S L S S L S S L S S L L",
        "ἀνδροτυχεῖϲ βιότουϲ δότε, κύριʼ ἔχοντεϲ,",
        [
            "959-60",
            "dac5"
        ]
    ],
    [
        "S L L L L",
        "θεαί τʼ, ὦ Μοῖραι",
        [
            "961",
            "doc"
        ]
    ],
    [
        "L S S L L L",
        "ματροκαϲιγνῆται,",
        [
            "962",
            "doc[^17]"
        ]
    ],
    [
        "L S S L S S L",
        "δαίμονεϲ ὀρθονόμοι,",
        [
            "963",
            "D"
        ]
    ],
    [
        "L S S L S S L L",
        "παντὶ δόμωι μετάκοινοι,",
        [
            "964",
            "D+‒"
        ]
    ],
    [
        "L S S L S S L L",
        "παντὶ χρόνωι δʼ ἐπιβριθεῖϲ,",
        [
            "965",
            "D+‒"
        ]
    ],
    [
        "L S L S L S L",
        "ἐνδίκοιϲ ὁμιλίαιϲ",
        [
            "966",
            "lek"
        ]
    ],
    [
        "L L L S L S L S L",
        "πάνται τιμιώταται θεῶν.",
        [
            "967",
            "sp+lek"
        ]
    ],
    [
        "S S L L L L L S S L S S L S S L",
        "Αθ. τάδε τοι χώραι τἠμῆι προφρόνωϲ ἐπικραινομένων",
        [
            "968-9",
            "an3"
        ]
    ],
    [
        "S S L L L L S S L L",
        "γάνυμαι. ϲτέργω δʼ ὄμματα Πειθοῦϲ,",
        [
            "970",
            "an2"
        ]
    ],
    [
        "S S L L L L S S L L",
        "ὅτι μοι γλῶϲϲαν καὶ ϲτόμʼ ἐπώπα",
        [
            "971",
            "an2"
        ]
    ],
    [
        "L L S S L S S L S S L",
        "πρὸϲ τάϲδʼ ἀγρίωϲ ἀπανηναμέναϲ.",
        [
            "972",
            "an2"
        ]
    ],
    [
        "L S S L L L S S L L",
        "ἀλλʼ ἐκράτηϲε Ζεὺϲ ἀγοραῖοϲ,",
        [
            "973",
            "an2"
        ]
    ],
    [
        "L L S S L S S L S S L S S L L",
        "νικᾶι δʼ ἀγαθῶν ἔριϲ ἡμετέρα διὰ παντόϲ.",
        [
            "974-5",
            "par"
        ]
    ],
    [
        "L S L L S L L S L S L S L",
        "τὰν δʼ ἄπληϲτον κακῶν μήποτʼ ἐν πόλει στάϲιν",
        [
            "976-7",
            "cr2+lek"
        ]
    ],
    [
        "L S L S L S L",
        "τᾶιδʼ ἐπεύχομαι βρέμειν,",
        [
            "978",
            "lek"
        ]
    ],
    [
        "L S S L S S L S S L S S L L",
        "μηδὲ πιοῦϲα κόνιϲ μέλαν αἷμα πολιτᾶν",
        [
            "979-80",
            "dac5"
        ]
    ],
    [
        "S L L L L",
        "διʼ ὀργὰν ποινὰϲ",
        [
            "981",
            "doc"
        ]
    ],
    [
        "L S S L L L",
        "ἀντιφόνουϲ Ἄταϲ",
        [
            "982",
            "doc[^18]"
        ]
    ],
    [
        "L S S L S S L",
        "ἁρπαλίϲαι πόλεωϲ,",
        [
            "983",
            "D"
        ]
    ],
    [
        "L S S L S S L L",
        "χάρματα δʼ ἀντιδιδοῖεν",
        [
            "984",
            "D+‒"
        ]
    ],
    [
        "L S S L S S L L",
        "κοινοφιλεῖ διανοίαι,",
        [
            "985",
            "D+‒"
        ]
    ],
    [
        "L S L S L S L",
        "καὶ ϲτυγεῖν μιᾶι φρενί·",
        [
            "986",
            "lek"
        ]
    ],
    [
        "L L L S L S L S L",
        "πολλῶν γὰρ τόδʼ ἐν βροτοῖϲ ἄκοϲ.",
        [
            "987",
            "sp+lek"
        ]
    ],
    [
        "L L S S L L S S L L",
        "ἐκ τῶν φοβερῶν τῶνδε προϲώπων",
        [
            "990",
            "an2"
        ]
    ],
    [
        "S S L S S L L S S L L",
        "μέγα κέρδοϲ ὁρῶ τοῖϲδε πολίταιϲ·",
        [
            "991",
            "an2"
        ]
    ],
    [
        "L S S L S S L S S L L S S L L L",
        "τάϲδε γὰρ εὔφροναϲ εὔφρονεϲ ἀεὶ μέγα τιμῶντεϲ",
        [
            "992-3",
            "an3"
        ]
    ],
    [
        "L L L S S L S S L L",
        "καὶ γῆν καὶ πόλιν ὀρθοδίκαιον",
        [
            "994",
            "an2"
        ]
    ],
    [
        "L S S L L S S L L",
        "πρέψετε πάντωϲ διάγοντεϲ.",
        [
            "995",
            "par"
        ]
    ],
    [
        "L S L S L S L",
        "χαίρετʼ, Ἀττικὸϲ λεώϲ,",
        [
            "997",
            "lek"
        ]
    ],
    [
        "L S L S L S L",
        "ἴκταρ ἡμέναϲ Διὸϲ",
        [
            "998",
            "lek"
        ]
    ],
    [
        "L S L S L S L",
        "παρθένου φίλαϲ φίλοι,",
        [
            "999",
            "lek"
        ]
    ],
    [
        "L S L S L S L",
        "ϲωφρονοῦντεϲ ἐν χρόνωι·",
        [
            "1000",
            "lek"
        ]
    ],
    [
        "L S L S L S L",
        "Παλλάδοϲ δʼ ὑπὸ πτεροῖϲ",
        [
            "1001",
            "lek"
        ]
    ],
    [
        "L S L S L S L",
        "ὄνταϲ ἅζεται πατήρ.",
        [
            "1002",
            "lek"
        ]
    ],
    [
        "L S S L L S S L S S L",
        "Αθ. χαίρετε χὐμεῖϲ, προτέραν δʼ ἐμὲ χρὴ",
        [
            "1003",
            "an2"
        ]
    ],
    [
        "L L S S L S S L L L",
        "ϲτείχειν θαλάμουϲ ἀποδείξουϲαν",
        [
            "1004",
            "an2"
        ]
    ],
    [
        "L L S S L L S S L L",
        "πρὸϲ φῶϲ ἱερὸν τῶνδε προπομπῶν.",
        [
            "1005",
            "an2"
        ]
    ],
    [
        "S S L S S L L S S L L S S L S S L",
        "ἴτε καὶ ϲφαγίων τῶνδʼ ὑπὸ ϲεμνῶν κατὰ γῆϲ ϲύμεναι",
        [
            "1006-7",
            "an3"
        ]
    ],
    [
        "S S L L L L L S S L",
        "τὸ μὲν ἀτηρὸν χώραϲ κατέχειν,",
        [
            "1008",
            "an2"
        ]
    ],
    [
        "S S L S S L L L S S L S S L L",
        "τὸ δὲ κερδαλέον πέμπειν πόλεωϲ ἐπὶ νίκηι.",
        [
            "1009",
            "an3\\^",
            "",
            "H"
        ]
    ],
    [
        "L L L L S S L L L",
        "ὑμεῖϲ δʼ ἡγεῖϲθε, πολιϲϲοῦχοι",
        [
            "1010",
            "an2"
        ]
    ],
    [
        "L L S S L S S L S S L S S L L",
        "εἴη δʼ ἀγαθῶν ἀγαθὴ διάνοια πολίταιϲ.",
        [
            "1012-3",
            "an3\\^"
        ]
    ],
    [
        "L S S L S S L S S L S L L",
        "χαίρετε, χαίρετε δʼ αὖθιϲ, ἐπανδιπλοίζω,",
        [
            "1014",
            "ar^2d^"
        ]
    ],
    [
        "L S L S L S L",
        "πάντεϲ οἱ κατὰ πτόλιν",
        [
            "1015",
            "lek"
        ]
    ],
    [
        "L S L S L S L",
        "δαίμονέϲ τε καὶ βροτοὶ",
        [
            "1016",
            "lek"
        ]
    ],
    [
        "L S L S L S L",
        "Παλλάδοϲ πόλιν νέμον-",
        [
            "1017",
            "lek∫"
        ]
    ],
    [
        "L S L S L S L",
        "τεϲ, μετοικίαν δʼ ἐμάν",
        [
            "1018",
            "lek"
        ]
    ],
    [
        "L S L S L S L",
        "εὐϲεβοῦντεϲ οὔτι μέμ-",
        [
            "1019",
            "lek∫"
        ]
    ],
    [
        "L S L S L S L",
        "ψεϲθε ϲυμφορὰϲ βίου.",
        [
            "1020",
            "lek"
        ]
    ],
    [
        "L L S L S S L S S L L",
        "βᾶτ’ †’εν δόμωι† μεγάλαι φιλότιμοι",
        [
            "1032",
            "dac4"
        ]
    ],
    [
        "L L L S S L S S L S S L L",
        "Νυκτὸϲ παῖδεϲ ἄπαιδεϲ ὑπʼ εὔφρονι πομπᾶι·",
        [
            "1033-4",
            "dac5",
            "",
            "H"
        ]
    ],
    [
        "L L L S S L L L",
        "—εὐφαμεῖτε δέ, χωρῖται.",
        [
            "1035",
            "D^2^",
            "",
            "",
            "Hs"
        ]
    ],
    [
        "L S S L S S L S S L L",
        "γᾶϲ ὑπὸ κεύθεϲιν ὠγυγίοιϲιν",
        [
            "1036",
            "dac4"
        ]
    ],
    [
        "L L L S S L L L",
        "—εὐφαμεῖτε δὲ πανδαμεί.",
        [
            "1039",
            "D^2^",
            "",
            "",
            "H"
        ]
    ],
    [
        "L L L S S L S S L L",
        "ἵλαοι δὲ καὶ εὐθύφρονεϲ γᾶι",
        [
            "1040",
            "dac4"
        ]
    ],
    [
        "S S L S S L S S L L",
        "—ὀλολύξατε νῦν ἐπὶ μολπαῖϲ.",
        [
            "1043",
            "par"
        ]
    ],
    [
        "L L L S S L S S L L",
        "ϲπουδᾶι δʼ ἐἴϲιτε πανδάιδ᾽ οἴκον·",
        [
            "1044",
            "dac4"
        ]
    ],
    [
        "L S S L L L L L L",
        "Παλλάδοϲ ἀϲτοῖϲ· Ζεὺϲ παντόπταϲ",
        [
            "1045",
            "dac4[^20]"
        ]
    ],
    [
        "L L L S S L S S L",
        "οὕτω Μοῖρά τε ϲυγκατέβα·",
        [
            "1046",
            "dac4\\^",
            "",
            "H"
        ]
    ],
    [
        "S S L S S L S S L L",
        "—ὀλολύξατε νῦν ἐπὶ μολπαῖϲ.",
        [
            "1047",
            "par"
        ]
    ]
]