[
    [
        "L S S L L L L L S S L S S L L",
        "\"ἀλλʼ ὁπόταν μάρψῃ βυρϲαίετοϲ ἀγκυλοχήληϲ",
        [
            "197",
            "dac6"
        ]
    ],
    [
        "L L L S S L S S L S S L S S L L",
        "γαμφηλῇϲι δράκοντα κοάλεμον αἱματοπώτην,",
        [
            "198",
            "dac6"
        ]
    ],
    [
        "L S S L S S L S S L S S L S S L L",
        "δὴ τότε Παφλαγόνων μὲν ἀπόλλυται ἡ ϲκοροδάλμη,",
        [
            "199",
            "dac6"
        ]
    ],
    [
        "L S S L L L S S L S S L S S L L",
        "κοιλιοπώλῃϲιν δὲ θεὸϲ μέγα κῦδοϲ ὀπάζει,",
        [
            "200",
            "dac6"
        ]
    ],
    [
        "L L L L L L L L L S S L L",
        "αἴ κεν μὴ πωλεῖν ἀλλᾶνταϲ μᾶλλον ἕλωνται.\"",
        [
            "201"
        ]
    ],
    [
        "S S S L S L S S S S",
        "Πα. ἀποθανεῖϲθον αὐτίκα μάλα.",
        [
            "284",
            "tr2"
        ]
    ],
    [
        "S S S L S L S L L",
        "Αλ. τριπλάϲιον κεκράξομαί ϲου.",
        [
            "285",
            "tr2"
        ]
    ],
    [
        "S S S L S L S L S",
        "Πα. καταβοήϲομαι βοῶν ϲε.",
        [
            "286",
            "tr2"
        ]
    ],
    [
        "S S S L S L S L L",
        "Αλ. κατακεκράξομαί ϲε κράζων.",
        [
            "287",
            "tr2"
        ]
    ],
    [
        "S S S L S L S L L",
        "Πα. διαβαλῶ ϲʼ ἐὰν ϲτρατηγῇϲ.",
        [
            "288",
            "tr2"
        ]
    ],
    [
        "S S S L L L S L L",
        "Αλ. κυνοκοπήϲω ϲου τὸ νῶτον.",
        [
            "289",
            "tr2"
        ]
    ],
    [
        "S S S L S L S L L",
        "Πα. περιελῶ ϲʼ ἀλαζονείαιϲ.",
        [
            "290",
            "tr2"
        ]
    ],
    [
        "S S S L L L S L L",
        "Αλ. ὑποτεμοῦμαι τὰϲ ὁδούϲ ϲου.",
        [
            "291",
            "tr2"
        ]
    ],
    [
        "L S L L L S L S",
        "Πα. βλέψον εἴϲ μʼ ἀϲκαρδάμυκτον.",
        [
            "292",
            "tr2"
        ]
    ],
    [
        "S S S L S L S L L",
        "Αλ. ἐν ἀγορᾷ κἀγὼ τέθραμμαι.",
        [
            "293",
            "tr2"
        ]
    ],
    [
        "S S S L L L S L L",
        "Πα. διαφορήϲω ϲʼ εἴ τι γρύξει.",
        [
            "294",
            "tr2"
        ]
    ],
    [
        "S S S L L L S L L",
        "Αλ. κοπροφορήϲω ϲʼ εἰ λακήϲει.",
        [
            "295",
            "tr2"
        ]
    ],
    [
        "S S S L L L S L S",
        "Πα. ὁμολογῶ κλέπτειν· ϲὺ δʼ οὐχί.",
        [
            "296",
            "tr2"
        ]
    ],
    [
        "L S L L S S S L L",
        "Αλ. νὴ τὸν Ἑρμῆν τὸν ἀγοραῖον.",
        [
            "297",
            "tr2"
        ]
    ],
    [
        "L S L L L S L L",
        "κἀπιορκῶ γε βλεπόντων.",
        [
            "298",
            "tr2"
        ]
    ],
    [
        "L S S S L L S L L",
        "Πα. ἀλλότρια τοίνυν ϲοφίζει.",
        [
            "299",
            "tr2"
        ]
    ],
    [
        "L S L L L S S S S",
        "καί ϲε φαίνω τοῖϲ πρυτάνεϲιν",
        [
            "300",
            "tr2"
        ]
    ],
    [
        "S S S L L L S L S S L S L S L S L",
        "ἀδεκατεύτουϲ τῶν θεῶν ἱερὰϲ ἔχοντα κοιλίαϲ.",
        [
            "301-2",
            "tr4\\^"
        ]
    ],
    [
        "L S S S L S S S L S L L S L",
        "Χο. ὦ μιαρὲ καὶ βδελυρὲ κρᾶκτα, τοῦ ϲοῦ θράϲουϲ",
        [
            "303-4",
            "cr4[^2]"
        ]
    ],
    [
        "L S L L S L L S L L S L",
        "πᾶϲα μὲν γῆ πλέα, πᾶϲα δʼ ἐκκληϲία,",
        [
            "305",
            "cr4"
        ]
    ],
    [
        "L S L L S L L S L L S L",
        "καὶ τέλη καὶ γραφαὶ καὶ δικαϲτήριʼ, ὦ",
        [
            "306-7",
            "cr4"
        ]
    ],
    [
        "L S S S L S L L S S S L S L",
        "βορβοροτάραξι καὶ τὴν πόλιν ἅπαϲαν ἡ-",
        [
            "308-9",
            "cr4∫"
        ]
    ],
    [
        "L S S S L S L",
        "μῶν ἀνατετυρβακώϲ,",
        [
            "310",
            "cr2[^3]"
        ]
    ],
    [
        "L S L L L S L L L S L L L S L",
        "ὅϲτιϲ ἡμῖν τὰϲ Ἀθήναϲ ἐκκεκώφωκαϲ βοῶν",
        [
            "311",
            "tr4\\^"
        ]
    ],
    [
        "L S L S L S L L L S L L L S L",
        "κἀπὸ τῶν πετρῶν ἄνωθεν τοὺϲ φόρουϲ θυννοϲκοπῶν.",
        [
            "312-3",
            "tr4\\^"
        ]
    ],
    [
        "L S L L S L L S L L S L L S L L S L",
        "Χο. ἆρα δῆτʼ οὐκ ἀπʼ ἀρχῆϲ ἐδήλουϲ ἀναίδειαν, ἥπερ μόνη",
        [
            "323-4",
            "cr6"
        ]
    ],
    [
        "L S L L S L",
        "προϲτατεῖ ῥητόρων;",
        [
            "325",
            "cr2"
        ]
    ],
    [
        "L S L L L S L L L S L L L S L",
        "ᾗ ϲὺ πιϲτεύων ἀμέργειϲ τῶν ξένων τοὺϲ καρπίμουϲ,",
        [
            "326",
            "tr4\\^"
        ]
    ],
    [
        "L S S L S S L S S L S S",
        "ἀλλʼ ἐφάνη γὰρ ἀνὴρ ἕτεροϲ πολὺ",
        [
            "328",
            "dac4"
        ]
    ],
    [
        "L S S L S S L S S L L",
        "ϲοῦ μιαρώτεροϲ, ὥϲτε με χαίρειν,",
        [
            "329",
            "dac4"
        ]
    ],
    [
        "L S L L L S L S L S L S L S L",
        "ὅϲ ϲε παύϲει καὶ πάρειϲι, δῆλόϲ ἐϲτιν αὐτόθεν,",
        [
            "330",
            "tr4\\^"
        ]
    ],
    [
        "S L S L S L S L",
        "πανουργίᾳ τε καὶ θράϲει",
        [
            "331",
            "ia2"
        ]
    ],
    [
        "L L S L S L S L S L S L S L L",
        "ἀλλʼ, ὦ τραφεὶϲ ὅθενπέρ εἰϲιν ἄνδρεϲ οἵπερ εἰϲίν,",
        [
            "333",
            "ia4\\^"
        ]
    ],
    [
        "L L S L L L S L S L S L S L L",
        "νῦν δεῖξον ὡϲ οὐδὲν λέγει τὸ ϲωφρόνωϲ τραφῆναι.",
        [
            "334",
            "ia4\\^"
        ]
    ],
    [
        "S L S L S L S L",
        "Αλ. διώξομαί ϲε δειλίαϲ.",
        [
            "368",
            "ia2"
        ]
    ],
    [
        "L L S L S L S L",
        "Πα. ἡ βύρϲα ϲου θρανεύϲεται.",
        [
            "369",
            "ia2"
        ]
    ],
    [
        "S L S L S L S L",
        "Αλ. δερῶ ϲε θύλακον κλοπῆϲ.",
        [
            "370",
            "ia2"
        ]
    ],
    [
        "S S L S L L L S L",
        "Πα. διαπατταλευθήϲει χαμαί.",
        [
            "371",
            "ia2"
        ]
    ],
    [
        "S S L S L L L S L",
        "Αλ. περικόμματʼ ἔκ ϲου ϲκευάϲω.",
        [
            "372",
            "ia2"
        ]
    ],
    [
        "L S S S L L S S S L",
        "Πα. τὰϲ βλεφαρίδαϲ ϲου παρατιλῶ.",
        [
            "373",
            "ia2"
        ]
    ],
    [
        "L L S L S L S L",
        "Αλ. τὸν πρηγορεῶνά ϲοὐκτεμῶ.",
        [
            "374",
            "ia2"
        ]
    ],
    [
        "L L S L S L S L",
        "Δη. καὶ νὴ Δίʼ ἐμβαλόντεϲ αὐ-",
        [
            "375",
            "ia2∫"
        ]
    ],
    [
        "L L S L S L S L",
        "τῷ πάτταλον μαγειρικῶϲ",
        [
            "376",
            "ia2"
        ]
    ],
    [
        "L L S L S L S L",
        "εἰϲ τὸ ϲτόμʼ, εἶτα δʼ ἔνδοθεν",
        [
            "377",
            "ia2"
        ]
    ],
    [
        "L L S L L L S L",
        "τὴν γλῶτταν ἐξείραντεϲ αὐ-",
        [
            "378",
            "ia2∫"
        ]
    ],
    [
        "L L S L L L S L",
        "τοῦ ϲκεψόμεϲθʼ εὖ κἀνδρικῶϲ",
        [
            "379",
            "ia2"
        ]
    ],
    [
        "S L S L",
        "κεχηνότοϲ",
        [
            "380",
            "ia"
        ]
    ],
    [
        "L L S L S L L",
        "τὸν πρωκτόν, εἰ χαλαζᾷ.",
        [
            "381",
            "ia2\\^"
        ]
    ],
    [
        "L S L L S L L S L L S L",
        "ἐν πόλει τῶν ἀναιδῶν ἀναιδέϲτεροι·",
        [
            "384-5",
            "cr4"
        ]
    ],
    [
        "L S S S L S L L S S S L S L",
        "ἀλλʼ ἔπιθι καὶ ϲτρόβει, μηδὲν ὀλίγον ποίει·",
        [
            "387",
            "cr4"
        ]
    ],
    [
        "L S L L L S L L L S L L L S L",
        "ὡϲ ἐὰν νυνὶ μαλάξῃϲ αὐτὸν ἐν τῇ προϲβολῇ,",
        [
            "389",
            "tr4\\^"
        ]
    ],
    [
        "L S L L L S L L L S L S L S L",
        "δειλὸν εὑρήϲειϲ· ἐγὼ γὰρ τοὺϲ τρόπουϲ ἐπίϲταμαι.",
        [
            "390",
            "tr4\\^"
        ]
    ],
    [
        "L S L L S L L S L L S L L S L L S L",
        "Χο. ὡϲ δὲ πρὸϲ πᾶν ἀναιδεύεται κοὐ μεθίηϲι τοῦ χρώματοϲ",
        [
            "397-8",
            "cr6"
        ]
    ],
    [
        "L S L L L S L L L S L L L S L",
        "εἴ ϲε μὴ μιϲῶ, γενοίμην ἐν Κρατίνου κῴδιον",
        [
            "400",
            "tr4\\^"
        ]
    ],
    [
        "L S L L L S L L L S L S L S L",
        "καὶ διδαϲκοίμην προϲᾴδειν Μορϲίμου τραγῳδίᾳ.",
        [
            "401",
            "tr4\\^"
        ]
    ],
    [
        "L S S L S S L S S L S S",
        "ὦ περὶ πάντʼ ἐπὶ πᾶϲί τε πράγμαϲι",
        [
            "402",
            "dac4"
        ]
    ],
    [
        "L S S L S S L S S L L",
        "δωροδόκοιϲιν ἐπʼ ἄνθεϲιν ἵζων,",
        [
            "403",
            "dac4"
        ]
    ],
    [
        "L L S L S L S L",
        "ᾄϲαιμι γὰρ τότʼ ἂν μόνον·",
        [
            "405",
            "ia2"
        ]
    ],
    [
        "L S L S S L S L",
        "\"πῖνε πῖνʼ ἐπὶ ϲυμφοραῖϲ.\"",
        [
            "406",
            "gly"
        ]
    ],
    [
        "S L S L S L S L S L S L S L L",
        "τὸν Οὔλιόν τʼ ἂν οἴομαι γέροντα πυροπίπην,",
        [
            "407",
            "ia4\\^"
        ]
    ],
    [
        "L L S L L L S L L L S L S L L",
        "ἡϲθέντʼ ἰηπαιωνίϲαι καὶ βακχέβακχον ᾆϲαι.",
        [
            "408",
            "ia4\\^"
        ]
    ],
    [
        "S L S L L L S L",
        "Δη. τὸ πνεῦμʼ ἔλαττον γίγνεται.",
        [
            "441",
            "ia2"
        ]
    ],
    [
        "S S L S L L L S L",
        "ἑκατονταλάντουϲ τέτταραϲ.",
        [
            "442b",
            "ia2"
        ]
    ],
    [
        "S L S L L L S L",
        "Αλ. ϲὺ δʼ ἀϲτρατείαϲ γʼ εἴκοϲιν,",
        [
            "443",
            "ia2"
        ]
    ],
    [
        "S L S L L L S L",
        "κλοπῆϲ δὲ πλεῖν ἢ χιλίαϲ.",
        [
            "444",
            "ia2"
        ]
    ],
    [
        "L L S S L S L S L",
        "Πα. ἐκ τῶν ἀλιτηρίων ϲέ φη-",
        [
            "445",
            "ia2∫"
        ]
    ],
    [
        "S S S S L L L S L",
        "μι γεγονέναι τῶν τῆϲ θεοῦ.",
        [
            "446",
            "ia2"
        ]
    ],
    [
        "L L S L L L S L",
        "Αλ. τὸν πάππον εἶναι φημί ϲου",
        [
            "447",
            "ia2"
        ]
    ],
    [
        "L S S S L L L S L",
        "τῶν δορυφόρων—Πα. ποίων; φράϲον.",
        [
            "448",
            "ia2"
        ]
    ],
    [
        "L L S L L L S L",
        "Αλ. τῶν Βυρϲίνηϲ τῆϲ Ἱππίου.",
        [
            "449",
            "ia2"
        ]
    ],
    [
        "S L S L S L S L",
        "Πα. κόβαλοϲ εἶ. Αλ. πανοῦργοϲ εἶ.",
        [
            "450",
            "ia2"
        ]
    ],
    [
        "L L S L S L S L",
        "Δη. παῖʼ ἀνδρικῶϲ. Πα. ἰοὺ ἰού,",
        [
            "451",
            "ia2"
        ]
    ],
    [
        "L L S L S L S L",
        "τύπτουϲί μʼ οἱ ξυνωμόται.",
        [
            "452",
            "ia2"
        ]
    ],
    [
        "L L S L L S S S L",
        "Δη. παῖʼ αὐτὸν ἀνδρειότατα, καὶ",
        [
            "453",
            "ia2"
        ]
    ],
    [
        "L L S L L L S L",
        "γάϲτριζε καὶ τοῖϲ ἐντέροιϲ",
        [
            "454",
            "ia2"
        ]
    ],
    [
        "L L S L",
        "καὶ τοῖϲ κόλοιϲ,",
        [
            "455",
            "ia"
        ]
    ],
    [
        "S S L L L L L L L",
        "θόρυβον χρηϲτὸν Ληναΐτην,",
        [
            "547",
            "ia2"
        ]
    ],
    [
        "S S L L L S S L L L",
        "ἵνʼ ὁ ποιητὴϲ ἀπίῃ χαίρων",
        [
            "548",
            "ia2"
        ]
    ],
    [
        "S S L L L",
        "κατὰ νοῦν πράξαϲ,",
        [
            "549",
            "ia"
        ]
    ],
    [
        "L L L L S S L L",
        "φαιδρὸϲ λάμποντι μετώπῳ.",
        [
            "550",
            "ia2"
        ]
    ],
    [
        "L S S L S L S L",
        "ἵππιʼ ἄναξ Πόϲειδον, ᾧ",
        [
            "551",
            "chor+ia2"
        ]
    ],
    [
        "L S S L L L S L",
        "χαλκοκρότων ἵππων κτύποϲ",
        [
            "552",
            "chor+ia2"
        ]
    ],
    [
        "L S S L S L S L",
        "καὶ χρεμετιϲμὸϲ ἁνδάνει",
        [
            "553",
            "chor+ia2"
        ]
    ],
    [
        "L S S L S L S L",
        "καὶ κυανέμβολοι θοαὶ",
        [
            "554",
            "chor+ia2"
        ]
    ],
    [
        "L S S L S L L",
        "μιϲθοφόροι τριήρειϲ,",
        [
            "555",
            "arist"
        ]
    ],
    [
        "L S S L S L S L",
        "μειρακίων θʼ ἅμιλλα λαμ-",
        [
            "556",
            "chor+ia2∫"
        ]
    ],
    [
        "L S S L S L S L",
        "πρυνομένων ἐν ἅρμαϲιν",
        [
            "557",
            "chor+ia2"
        ]
    ],
    [
        "L S S L S L L",
        "καὶ βαρυδαιμονούντων,",
        [
            "558",
            "arist"
        ]
    ],
    [
        "L L L S S L L S S L L",
        "δεῦρʼ ἔλθʼ εἰϲ χορόν, ὦ χρυϲοτρίανʼ, ὦ",
        [
            "559",
            "asclepiad",
            "cat",
            "(ion?)"
        ]
    ],
    [
        "L L L S S L L S S L ⋂",
        "δελφίνων μεδέων Ϲουνιάρατε,",
        [
            "560",
            "asclepiad",
            "cat",
            "(ion?)",
            "",
            "HB"
        ]
    ],
    [
        "L S L S S L S L",
        "ὦ Γεραίϲτιε παῖ Κρόνου,",
        [
            "561",
            "gly"
        ]
    ],
    [
        "L S L S S L S L",
        "Φορμίωνί τε φίλτατʼ ἐκ",
        [
            "562",
            "gly"
        ]
    ],
    [
        "L L L S S L S L",
        "τῶν ἄλλων τε θεῶν Ἀθη-",
        [
            "563",
            "gly∫"
        ]
    ],
    [
        "L L L S S L ⋂",
        "ναίοιϲ πρὸϲ τὸ παρεϲτόϲ.",
        [
            "564",
            "pher"
        ]
    ],
    [
        "L S S L S L S L",
        "Ὦ πολιοῦχε Παλλάϲ, ὦ",
        [
            "581",
            "chor+ia2"
        ]
    ],
    [
        "L S S L S L S L",
        "τῆϲ ἱερωτάτηϲ ἁπα-",
        [
            "582",
            "chor+ia2∫"
        ]
    ],
    [
        "L S S L S L S L",
        "ϲῶν πολέμῳ τε καὶ ποιη-",
        [
            "583",
            "chor+ia2∫"
        ]
    ],
    [
        "L S S L S L S L",
        "ταῖϲ δυνάμει θʼ ὑπερφερού-",
        [
            "584",
            "chor+ia2∫"
        ]
    ],
    [
        "L S S L S L L",
        "ϲηϲ μεδέουϲα χώραϲ,",
        [
            "585",
            "arist"
        ]
    ],
    [
        "L S S L S L S L",
        "δεῦρʼ ἀφικοῦ λαβοῦϲα τὴν",
        [
            "586",
            "chor+ia2"
        ]
    ],
    [
        "L S S L S L S L",
        "ἐν ϲτρατιαῖϲ τε καὶ μάχαιϲ",
        [
            "587",
            "chor+ia2"
        ]
    ],
    [
        "L S S L S L L",
        "ἡμετέραν ξυνεργὸν",
        [
            "588",
            "arist"
        ]
    ],
    [
        "L L L S S L L S S L L",
        "Νίκην, ἣ Χαρίτων ἐϲτὶν ἑταίρα",
        [
            "589",
            "asclepiad",
            "cat",
            "(ion?)"
        ]
    ],
    [
        "L L L S S L L S S L L",
        "τοῖϲ τʼ ἐχθροῖϲι μεθʼ ἡμῶν ϲταϲιάζει.",
        [
            "590",
            "asclepiad",
            "cat",
            "(ion?)",
            "",
            "HsBs"
        ]
    ],
    [
        "L L L S S L S L",
        "νῦν οὖν δεῦρο φάνηθι· δεῖ",
        [
            "591",
            "gly"
        ]
    ],
    [
        "L L L S S L S L",
        "γὰρ τοῖϲ ἀνδράϲι τοῖϲδε πά-",
        [
            "592",
            "gly∫"
        ]
    ],
    [
        "L L L S S L S L",
        "ϲῃ τέχνῃ πορίϲαι ϲε νί-",
        [
            "593",
            "gly∫"
        ]
    ],
    [
        "L L L S S L L",
        "κην, εἴπερ ποτέ, καὶ νῦν.",
        [
            "594",
            "pher"
        ]
    ],
    [
        "L S L S L S L S L S S S S L L",
        "Χο. νῦν ἄρʼ ἄξιόν γε πᾶϲίν ἐϲτιν ἐπολολῦξαι.",
        [
            "616",
            "tr3+sp"
        ]
    ],
    [
        "L S S S L S S S L S S S L S L",
        "ὦ καλὰ λέγων, πολὺ δʼ ἀμείνονʼ ἔτι τῶν λόγων",
        [
            "617",
            "cr4"
        ]
    ],
    [
        "L S S S L S L L S L S L S L",
        "ἐργαϲάμενʼ, εἴθʼ ἐπέλθοιϲ ἅπαντά μοι ϲαφῶϲ·",
        [
            "618-19",
            "cr2+lek"
        ]
    ],
    [
        "L S L L S L",
        "ὡϲ ἐγώ μοι δοκῶ",
        [
            "620",
            "cr2"
        ]
    ],
    [
        "L S L S L S L L L S L L L S L L",
        "κἂν μακρὰν ὁδὸν διελθεῖν ὥϲτʼ ἀκοῦϲαι. πρὸϲ τάδʼ, ὦ βέλ-",
        [
            "621-2",
            "tr4∫"
        ]
    ],
    [
        "L S L L L S L S L S L S L S L",
        "τιϲτε, θαρρήϲαϲ λέγʼ, ὡϲ ἅπαντεϲ ἡδόμεϲθά ϲοι.",
        [
            "623",
            "tr3+cr[^6]"
        ]
    ],
    [
        "L S L S L S L S L S L S L ⋂",
        "Χο. πάντα τοι πέπραγαϲ οἷα χρὴ τὸν εὐτυχοῦντα·",
        [
            "683",
            "tr3+sp",
            "",
            "HB"
        ]
    ],
    [
        "L S S S L S S S L S S S L S L",
        "ηὗρε δʼ ὁ πανοῦργοϲ ἕτερον πολὺ πανουργίαιϲ",
        [
            "684",
            "cr4"
        ]
    ],
    [
        "L S S S L S L L S L S L S L",
        "μείζοϲι κεκαϲμένον καὶ δόλοιϲι ποικίλοιϲ",
        [
            "685-6",
            "cr2+lek"
        ]
    ],
    [
        "L S L L S L",
        "ῥήμαϲίν θʼ αἱμύλοιϲ.",
        [
            "687",
            "cr2"
        ]
    ],
    [
        "L S L S L S L L L S L S L S L S",
        "ἀλλʼ ὅπωϲ ἀγωνιεῖ φρόντιζε τἀπίλοιπʼ ἄριϲτα·",
        [
            "688",
            "tr4"
        ]
    ],
    [
        "L S L L L S L L L S L S L S L",
        "ϲυμμάχουϲ δʼ ἡμᾶϲ ἔχων εὔνουϲ ἐπίϲταϲαι πάλαι.",
        [
            "689-90",
            "tr3+cr"
        ]
    ],
    [
        "L L S L S L S L L L S L S L L",
        "Χο. νῦν δή ϲε πάντα δεῖ κάλων ἐξιέναι ϲεαυτοῦ,",
        [
            "756",
            "ia4\\^",
            "",
            "Ba"
        ]
    ],
    [
        "L L S L S L S L L S L S L L",
        "καὶ λῆμα θούριον φορεῖν καὶ λόγουϲ ἀφύκτουϲ,",
        [
            "757",
            "euripid",
            "(ia2+ith)"
        ]
    ],
    [
        "S L S L S L S L L S L S L L",
        "ὅτοιϲι τόνδʼ ὑπερβαλεῖ. ποικίλοϲ γὰρ ἁνὴρ",
        [
            "758",
            "euripid",
            "(ia2+ith)"
        ]
    ],
    [
        "L L S L S L S L L L S L S L L",
        "κἀκ τῶν ἀμηχάνων πόρουϲ εὐμήχανοϲ πορίζειν.",
        [
            "759",
            "ia4\\^",
            "",
            "Ba"
        ]
    ],
    [
        "L L S L L L S L L L S L S L ⋂",
        "πρὸϲ ταῦθʼ ὅπωϲ ἔξει πολὺϲ καὶ λαμπρὸϲ εἰϲ τὸν ἄνδρα.",
        [
            "760",
            "ia4\\^",
            "B"
        ]
    ],
    [
        "L L S L L L S L S L S L S L ⋂",
        "Χο. ὦ πᾶϲιν ἀνθρώποιϲ φανεὶϲ μέγιϲτον ὠφέλημα,",
        [
            "836",
            "ia4\\^",
            "",
            "B"
        ]
    ],
    [
        "L L S L L L S L L S L S L L",
        "ζηλῶ ϲε τῆϲ εὐγλωττίαϲ. εἰ γὰρ ὧδʼ ἐποίϲει,",
        [
            "837",
            "euripid",
            "(ia2+ith)"
        ]
    ],
    [
        "S L S L L L S L L S L S L L",
        "μέγιϲτοϲ Ἑλλήνων ἔϲει, καὶ μόνοϲ καθέξειϲ",
        [
            "838",
            "euripid",
            "(ia2+ith)"
        ]
    ],
    [
        "L L S L L L S L L S L S L ⋂",
        "τἀν τῇ πόλει, τῶν ξυμμάχων τʼ ἄρξειϲ ἔχων τρίαιναν,",
        [
            "839",
            "ia4\\^",
            "",
            "B"
        ]
    ],
    [
        "L L S L S L S L L L S L S L L",
        "ᾗ πολλὰ χρήματʼ ἐργάϲει ϲείων τε καὶ ταράττων.",
        [
            "840",
            "ia4\\^",
            "",
            "",
            "Bs"
        ]
    ],
    [
        "L L L S S L S L",
        "Χο. ἥδιϲτον φάοϲ ἡμέραϲ",
        [
            "973",
            "gly"
        ]
    ],
    [
        "L L L S S L S L",
        "ἔϲται τοῖϲι παροῦϲι καὶ",
        [
            "974",
            "gly"
        ]
    ],
    [
        "L S L S S L S L",
        "τοῖϲιν εἰϲαφικνουμένοιϲ,",
        [
            "975",
            "gly"
        ]
    ],
    [
        "L S L S S L L",
        "ἢν Κλέων ἀπόληται.",
        [
            "976",
            "pher"
        ]
    ],
    [
        "L L L S S L S L",
        "καίτοι πρεϲβυτέρων τινῶν",
        [
            "977",
            "gly"
        ]
    ],
    [
        "L L L S S L S L",
        "οἵων ἀργαλεωτάτων",
        [
            "978",
            "gly"
        ]
    ],
    [
        "L L L S S L S L",
        "ἐν τῷ δείγματι τῶν δικῶν",
        [
            "979",
            "gly"
        ]
    ],
    [
        "L L L S S L L",
        "ἤκουϲʼ ἀντιλεγόντων,",
        [
            "980",
            "pher"
        ]
    ],
    [
        "L L L S S L S L",
        "ὡϲ εἰ μὴ ʼγένεθʼ οὗτοϲ ἐν",
        [
            "981",
            "gly"
        ]
    ],
    [
        "L S L S S L S L",
        "τῇ πόλει μέγαϲ, οὐκ ἂν ἤ-",
        [
            "982",
            "gly∫"
        ]
    ],
    [
        "L L L S S L S L",
        "ϲτην ϲκεύει δύο χρηϲίμω,",
        [
            "983",
            "gly"
        ]
    ],
    [
        "L L L S S L L",
        "δοῖδυξ οὐδὲ τορύνη.",
        [
            "984",
            "pher",
            "",
            "",
            "H"
        ]
    ],
    [
        "L S L S S L S L",
        "ἀλλὰ καὶ τόδʼ ἔγωγε θαυ-",
        [
            "985",
            "gly∫"
        ]
    ],
    [
        "L L L S S L S L",
        "μάζω τῆϲ ὑομουϲίαϲ",
        [
            "986",
            "gly"
        ]
    ],
    [
        "L L L S S L S L",
        "αὐτοῦ· φαϲὶ γὰρ αὐτὸν οἱ",
        [
            "987",
            "gly"
        ]
    ],
    [
        "L S L S S L L",
        "παῖδεϲ οἳ ξυνεφοίτων,",
        [
            "988",
            "pher"
        ]
    ],
    [
        "L L L S S L S L",
        "τὴν Δωριϲτὶ μόνην ἂν ἁρ-",
        [
            "989",
            "gly∫"
        ]
    ],
    [
        "L L L S S L S L",
        "μόττεϲθαι θαμὰ τὴν λύραν,",
        [
            "990",
            "gly"
        ]
    ],
    [
        "L L L S S L S L",
        "ἄλλην δʼ οὐκ ἐθέλειν μαθεῖν·",
        [
            "991",
            "gly"
        ]
    ],
    [
        "L S L S S L L",
        "κᾆτα τὸν κιθαριϲτὴν",
        [
            "992",
            "pher"
        ]
    ],
    [
        "L L L S S L S L",
        "ὀργιϲθέντʼ ἀπάγειν κελεύ-",
        [
            "993",
            "gly∫"
        ]
    ],
    [
        "L L L S S L S L",
        "ειν, \"ὡϲ ἁρμονίαν ὁ παῖϲ",
        [
            "994",
            "gly"
        ]
    ],
    [
        "L S L S S L S L",
        "οὗτοϲ οὐ δύναται μαθεῖν",
        [
            "995",
            "gly"
        ]
    ],
    [
        "L L L S S L ⋂",
        "ἢν μὴ Δωροδοκιϲτί\".",
        [
            "996",
            "pher",
            "",
            "",
            "HB"
        ]
    ],
    [
        "L L S S L S L",
        "Χο. ὦ Δῆμε, καλήν γʼ ἔχειϲ",
        [
            "1111",
            "tel"
        ]
    ],
    [
        "L L S S L S L",
        "ἀρχήν, ὅτε πάντεϲ ἄν-",
        [
            "1112",
            "tel∫"
        ]
    ],
    [
        "L L S S L S L",
        "θρωποι δεδίαϲί ϲʼ ὥϲ-",
        [
            "1113",
            "tel∫"
        ]
    ],
    [
        "L L S S L S L",
        "ἀλλʼ εὐπαράγωγοϲ εἶ,",
        [
            "1115",
            "tel"
        ]
    ],
    [
        "L L S S L S L",
        "θωπευόμενόϲ τε χαί-",
        [
            "1116",
            "tel"
        ]
    ],
    [
        "L L S S L S L",
        "ρειϲ κἀξαπατώμενοϲ,",
        [
            "1117",
            "tel"
        ]
    ],
    [
        "L L S S L S L",
        "πρὸϲ τόν τε λέγοντʼ ἀεὶ",
        [
            "1118",
            "tel"
        ]
    ],
    [
        "S L S S L S L",
        "κέχηναϲ· ὁ νοῦϲ δέ ϲου",
        [
            "1119",
            "tel"
        ]
    ],
    [
        "S L S S L L",
        "παρὼν ἀποδημεῖ.",
        [
            "1120",
            "reiz"
        ]
    ],
    [
        "L L S S L S L",
        "Δημ. νοῦϲ οὐκ ἔνι ταῖϲ κόμαιϲ",
        [
            "1121",
            "tel"
        ]
    ],
    [
        "L L S S L S L",
        "ὑμῶν, ὅτε μʼ οὐ φρονεῖν",
        [
            "1122",
            "tel"
        ]
    ],
    [
        "S L S S L S L",
        "νομίζετʼ· ἐγὼ δʼ ἑκὼν",
        [
            "1123",
            "tel"
        ]
    ],
    [
        "L L S S L L",
        "ταῦτʼ ἠλιθιάζω.",
        [
            "1124",
            "reiz",
            "",
            "H"
        ]
    ],
    [
        "L L S S L S L",
        "αὐτόϲ τε γὰρ ἥδομαι",
        [
            "1125",
            "tel"
        ]
    ],
    [
        "L L S S L S L",
        "βρύλλων τὸ καθʼ ἡμέραν,",
        [
            "1126",
            "tel"
        ]
    ],
    [
        "L L S S L S L",
        "κλέπτοντά τε βούλομαι",
        [
            "1127",
            "tel"
        ]
    ],
    [
        "S L S S L S L",
        "τρέφειν ἕνα προϲτάτην·",
        [
            "1128",
            "reiz"
        ]
    ],
    [
        "L L S S L S L",
        "τοῦτον δʼ, ὅταν ᾖ πλέωϲ,",
        [
            "1129",
            "tel"
        ]
    ],
    [
        "L L S S L S L",
        "Χο. οὕτω μὲν ἄρʼ εὖ ποιεῖϲ,",
        [
            "1131",
            "tel"
        ]
    ],
    [
        "L L S S L S L",
        "καί ϲοι πυκνότηϲ ἔνεϲτʼ",
        [
            "1132",
            "tel"
        ]
    ],
    [
        "L L S S L S L",
        "ἐν τῷ τρόπῳ, ὡϲ λέγειϲ,",
        [
            "1133",
            "tel"
        ]
    ],
    [
        "L L S S L L",
        "τούτῳ πάνυ πολλή,",
        [
            "1134",
            "reiz"
        ]
    ],
    [
        "L L S S L S L",
        "εἰ τούϲδʼ ἐπίτηδεϲ ὥϲ-",
        [
            "1135",
            "tel"
        ]
    ],
    [
        "L L S S L S L",
        "περ δημοϲίουϲ τρέφειϲ",
        [
            "1136",
            "tel"
        ]
    ],
    [
        "L L S S L S L",
        "ἐν τῇ Πυκνί, κᾆθʼ ὅταν",
        [
            "1137",
            "tel"
        ]
    ],
    [
        "L L S S L S L",
        "μή ϲοι τύχῃ ὄψον ὄν,",
        [
            "1138",
            "tel"
        ]
    ],
    [
        "L L S S L S L",
        "τούτων ὃϲ ἂν ᾖ παχύϲ,",
        [
            "1139",
            "tel"
        ]
    ],
    [
        "L L S S L L",
        "θύϲαϲ ἐπιδειπνεῖϲ.",
        [
            "1140",
            "reiz"
        ]
    ],
    [
        "L L S S L S L",
        "Δημ. ϲκέψαϲθε δέ μʼ, εἰ ϲοφῶϲ",
        [
            "1141",
            "tel"
        ]
    ],
    [
        "L L S S L S L",
        "αὐτοὺϲ περιέρχομαι,",
        [
            "1142",
            "tel"
        ]
    ],
    [
        "L L S S L S L",
        "τοὺϲ οἰομένουϲ φρονεῖν",
        [
            "1143",
            "tel"
        ]
    ],
    [
        "L L S S L L",
        "κἄμʼ ἐξαπατύλλειν.",
        [
            "1144",
            "reiz",
            "",
            "Hs"
        ]
    ],
    [
        "L L S S L S L",
        "τηρῶ γὰρ ἑκάϲτοτʼ αὐ-",
        [
            "1145",
            "tel∫"
        ]
    ],
    [
        "L L S S L S L",
        "τούϲ, οὐδὲ δοκῶν ὁρᾶν,",
        [
            "1146",
            "tel"
        ]
    ],
    [
        "L L S S L S L",
        "κλέπτονταϲ· ἔπειτʼ ἀναγ-",
        [
            "1147",
            "tel"
        ]
    ],
    [
        "L L S S L S L",
        "κάζω πάλιν ἐξεμεῖν",
        [
            "1148",
            "tel"
        ]
    ],
    [
        "L L S S L S L",
        "ἅττʼ ἂν κεκλόφωϲί μου,",
        [
            "1149",
            "tel"
        ]
    ],
    [
        "L L S S L L",
        "κημὸν καταμηλῶν.",
        [
            "1150",
            "tel",
            "",
            "",
            "Bs"
        ]
    ],
    [
        "S L S S L S S L S L S S L S S L S",
        "Χο. τί κάλλιον ἀρχομένοιϲιν ἢ καταπαυομένοιϲιν",
        [
            "1264-5",
            "⏑D⏑D⏑"
        ]
    ],
    [
        "L S L L L S S L S S L L",
        "ἢ θοᾶν ἵππων ἐλατῆραϲ ἀείδειν",
        [
            "1266",
            "e‒D‒"
        ]
    ],
    [
        "L S L L L S L",
        "μηδὲν εἰϲ Λυϲίϲτρατον,",
        [
            "1267",
            "e⏑e"
        ]
    ],
    [
        "L S L L L S S L S S L",
        "μηδὲ Θούμαντιν τὸν ἀνέϲτιον αὖ",
        [
            "1268",
            "e‒D"
        ]
    ],
    [
        "L L S L L L S L",
        "λυπεῖν ἑκούϲῃ καρδίᾳ;",
        [
            "1269",
            "‒e‒e"
        ]
    ],
    [
        "L L S S L S S L",
        "πεινῇ, θαλεροῖϲ δακρύοιϲ",
        [
            "1271",
            "‒D"
        ]
    ],
    [
        "L L S S L S S L",
        "ϲᾶϲ ἁπτόμενοϲ φαρέτραϲ",
        [
            "1272",
            "‒D"
        ]
    ],
    [
        "L L S L L L S L S L L",
        "Πυθῶνι δίᾳ μὴ κακῶϲ πένεϲθαι.",
        [
            "1273",
            "‒e‒e+ba",
            "",
            "",
            "",
            "(ia3\\^)"
        ]
    ],
    [
        "L L S S L S S L S L S S L S S L L",
        "ἦ πολλάκιϲ ἐννυχίαιϲι φροντίϲι ϲυγγεγένημαι,",
        [
            "1290-1",
            "‒D⏑D‒"
        ]
    ],
    [
        "L S L L L S S L S S L L",
        "καὶ διεζήτηχʼ ὁπόθεν ποτὲ φαύλωϲ",
        [
            "1292",
            "e‒D‒"
        ]
    ],
    [
        "L S L S L S L",
        "ἐϲθίει Κλεώνυμοϲ.",
        [
            "1293",
            "e⏑e"
        ]
    ],
    [
        "S L S L L L S L",
        "τὰ τῶν ἐχόντων ἀνέρων",
        [
            "1295",
            "⏑e‒e"
        ]
    ],
    [
        "L S L L L S S L S S L",
        "οὐκ ἂν ἐξελθεῖν ἀπὸ τῆϲ ϲιπύηϲ·",
        [
            "1296",
            "e‒D"
        ]
    ],
    [
        "L L S S L S S L",
        "τοὺϲ δʼ ἀντιβολεῖν ἂν ὁμῶϲ·",
        [
            "1297",
            "‒D"
        ]
    ],
    [
        "S L S S L S S L",
        "\"ἴθʼ, ὦ ἄνα, πρὸϲ γονάτων,",
        [
            "1298",
            "⏑D"
        ]
    ],
    [
        "L L S L L L S L S L L",
        "ἔξελθε καὶ ϲύγγνωθι τῇ τραπέζῃ.\"",
        [
            "1299",
            "‒e‒e+ba"
        ]
    ]
]