[
    [
        "L S S L S S L",
        "τὰν Διὸϲ οὐρανίαν",
        [
            "59",
            "D"
        ]
    ],
    [
        "S S S S S S L S S L",
        "ΙΠ. ΚΑΙ ΘΕΡΑΠΟΝΤΕϹ πότνια πότνια ϲεμνοτάτα,",
        [
            "61",
            "ia+chor"
        ]
    ],
    [
        "L L S S L",
        "Ζηνὸϲ γένεθλον,",
        [
            "62",
            "‒d[^2]"
        ]
    ],
    [
        "L S L S S L S L",
        "χαῖρε χαῖρέ μοι, ὦ κόρα",
        [
            "63",
            "gly"
        ]
    ],
    [
        "L L L S S L S L",
        "Λατοῦϲ Ἄρτεμι καὶ Διόϲ,",
        [
            "64-5",
            "gly"
        ]
    ],
    [
        "L L L S S L S L",
        "καλλίϲτα πολὺ παρθένων,",
        [
            "66",
            "gly"
        ]
    ],
    [
        "L S L S L S L",
        "ἃ μέγαν κατʼ οὐρανὸν",
        [
            "67",
            "lek"
        ]
    ],
    [
        "L L L S S L S L",
        "ναίειϲ εὐπατέρειαν αὐ-",
        [
            "68",
            "gly∫"
        ]
    ],
    [
        "L L L S S L S L L",
        "λάν, Ζηνὸϲ πολύχρυϲον οἶκον.",
        [
            "69",
            "hipp"
        ]
    ],
    [
        "L S S L L L L",
        "χαῖρέ μοι, ὦ καλλίϲτα",
        [
            "70",
            "D‒"
        ]
    ],
    [
        "L L L L S S L L",
        "καλλίϲτα τῶν κατʼ Ὄλυμπον.",
        [
            "71-2",
            "oct"
        ]
    ],
    [
        "L S S L S S L L L S S L S S L",
        "Ὠκεανοῦ τιϲ ὕδωρ ϲτάζουϲα πέτρα λέγεται,",
        [
            "121",
            "D‒D"
        ]
    ],
    [
        "L L L S S L",
        "βαπτὰν κάλπιϲι πα-",
        [
            "122",
            "hex∫"
        ]
    ],
    [
        "L L L S S L S L L",
        "γὰν ῥυτὰν προιεῖϲα κρημνῶν.",
        [
            "123-4",
            "hipp"
        ]
    ],
    [
        "S S L S L S L",
        "τόθι μοί τιϲ ἦν φίλα",
        [
            "125",
            "enop"
        ]
    ],
    [
        "L S L S L",
        "πορφύρεα φάρεα",
        [
            "126",
            "‘hypodochmiac’"
        ]
    ],
    [
        "S S S L S L",
        "ποταμίαι δρόϲωι",
        [
            "127",
            "‘doc’"
        ]
    ],
    [
        "L L S L L S S L S L L",
        "τέγγουϲα, θερμᾶϲ δʼ ἐπὶ νῶτα πέτραϲ",
        [
            "128",
            "ia+arist"
        ]
    ],
    [
        "L L S L S S L S L L",
        "εὐαλίου κατέβαλλ᾽· ὅθεν μοι",
        [
            "129",
            "‒hipp"
        ]
    ],
    [
        "L L S S L S L L L",
        "πρώτα φάτιϲ ἦλθε δεϲποίναϲ,",
        [
            "130",
            "tel+sp"
        ]
    ],
    [
        "L S S L S S L L L S S L S S L",
        "τειρομέναν νοϲερᾶι κοίται δέμαϲ ἐντὸϲ ἔχειν",
        [
            "131",
            "D‒D"
        ]
    ],
    [
        "L L L S S L",
        "οἴκων, λεπτὰ δὲ φά-",
        [
            "132",
            "hex∫"
        ]
    ],
    [
        "L L L S S L S L L",
        "ρη ξανθὰν κεφαλὰν ϲκιάζειν·",
        [
            "133-4",
            "hipp"
        ]
    ],
    [
        "S S L S L S L",
        "τριτάταν δέ νιν κλύω",
        [
            "135",
            "enoplian"
        ]
    ],
    [
        "L S L S L",
        "τάνδʼ ἀβρωϲίαι",
        [
            "136",
            "‘hypodoc’"
        ]
    ],
    [
        "S S S L S L",
        "ϲτόματοϲ ἁμέραν",
        [
            "137",
            "‘doc’"
        ]
    ],
    [
        "L L S L L S S L S L L",
        "Δάματροϲ ἀκτᾶϲ δέμαϲ ἁγνὸν ἴϲχειν,",
        [
            "138",
            "ia+arist"
        ]
    ],
    [
        "L L S L S S L S L L",
        "κρυπτῶι πάθει θανάτου θέλουϲαν",
        [
            "139",
            "‒",
            "hipp"
        ]
    ],
    [
        "L L S S L S L L L",
        "κέλϲαι ποτὶ τέρμα δύϲτανον.",
        [
            "140",
            "tel+sp"
        ]
    ],
    [
        "S S L S S L L L",
        "†ϲὺ γὰρ† ἔνθεοϲ, ὦ κούρα,",
        [
            "141",
            "gly?",
            "",
            "H"
        ]
    ],
    [
        "L L L S L S S L",
        "εἴτʼ ἐκ Πανὸϲ εἴθʼ Ἑκάτας",
        [
            "142",
            "wil"
        ]
    ],
    [
        "L L L S S L L",
        "ἢ ϲεμνῶν Κορυβάντων",
        [
            "143",
            "pher"
        ]
    ],
    [
        "L L L L S S L L",
        "φοιτᾶιϲ ἢ ματρὸϲ ὀρείαϲ;",
        [
            "144",
            "oct"
        ]
    ],
    [
        "S L S L S S L",
        "†ϲὺ δ᾽† ἀμφὶ τὰν πολύθη-",
        [
            "145",
            "hept∫"
        ]
    ],
    [
        "L L L S L S S L",
        "ρον Δίκτυνναν ἀμπλακίαιϲ",
        [
            "146",
            "wil"
        ]
    ],
    [
        "S S S S S S L S S L S L",
        "ἀνίεροϲ ἀθύτων πελανῶν τρύχηι;",
        [
            "147",
            "ia+dod"
        ]
    ],
    [
        "L L L L S S L",
        "φοιτᾶι γὰρ καὶ διὰ Λί-",
        [
            "148",
            "hept∫"
        ]
    ],
    [
        "L L L S L S S L",
        "μναϲ χέρϲον θʼ ὕπερ πελάγουϲ",
        [
            "149",
            "wil"
        ]
    ],
    [
        "L L L S S L L L",
        "δίναιϲ ἐν νοτίαιϲ ἅλμαϲ.",
        [
            "150",
            "gly"
        ]
    ],
    [
        "L S L S S L L L",
        "ἢ πόϲιν, τὸν Ἐρεχθειδᾶν",
        [
            "151",
            "gly",
            "",
            "Hs"
        ]
    ],
    [
        "L L L S L S S L",
        "ἀρχαγόν, τὸν εὐπατρίδαν,",
        [
            "152",
            "wil"
        ]
    ],
    [
        "L L L S S L L",
        "ποιμαίνει τιϲ ἐν οἴκοιϲ",
        [
            "153",
            "pher"
        ]
    ],
    [
        "L L L L S S L L",
        "κρυπτᾶι κοίται λεχέων ϲῶν;",
        [
            "154",
            "oct"
        ]
    ],
    [
        "L L S L S S L",
        "ἢ ναυβάταϲ τιϲ ἔπλευ-",
        [
            "155",
            "hept∫"
        ]
    ],
    [
        "L L L L L S S L",
        "ϲεν Κρήταϲ ἔξορμοϲ ἀνὴρ",
        [
            "156",
            "wil"
        ]
    ],
    [
        "S S S S L L S S L L L",
        "λιμένα τὸν εὐξεινότατον ναύταιϲ",
        [
            "157",
            "ia+dod"
        ]
    ],
    [
        "L L L L S S L",
        "φήμαν πέμπων βαϲιλεί-",
        [
            "158",
            "hept∫"
        ]
    ],
    [
        "L L L S L S S L",
        "αι, λύπαι δʼ ὑπὲρ παθέων",
        [
            "159",
            "wil"
        ]
    ],
    [
        "L L L S S L L L",
        "εὐναία δέδεται ψυχά;",
        [
            "160",
            "gly"
        ]
    ],
    [
        "S L S L L S L S L L",
        "φιλεῖ δὲ τᾶι δυϲτρόπωι γυναικῶν",
        [
            "161",
            "ia+ith"
        ]
    ],
    [
        "L S S L S L",
        "ἁρμονίαι κακὰ",
        [
            "162",
            "dod"
        ]
    ],
    [
        "L L S S L S S L S L L",
        "δύϲτανοϲ ἀμηχανία ϲυνοικεῖν",
        [
            "163",
            "‒D+ba"
        ]
    ],
    [
        "L L L S S L S S L",
        "ὠδίνων τε καὶ ἀφροϲύναϲ.",
        [
            "164",
            "4da\\^"
        ]
    ],
    [
        "S S L L L S S L S S L",
        "δι᾽ ἐμᾶϲ ἦιξέν ποτε νηδύοϲ ἅδʼ",
        [
            "165",
            "A"
        ]
    ],
    [
        "L L L L S S L S S L",
        "αὔρα· τὰν δʼ εὔλοχον οὐρανίαν",
        [
            "166",
            "A"
        ]
    ],
    [
        "L L S S L S S L L",
        "τόξων μεδέουϲαν ἀύτευν",
        [
            "167",
            "erasmonidean"
        ]
    ],
    [
        "L S L L L S L L L S L L",
        "Ἄρτεμιν, καί μοι πολυζήλωτοϲ αἰεὶ",
        [
            "168",
            "3tr[^3]"
        ]
    ],
    [
        "L S L S L L",
        "ϲὺν θεοῖϲι φοιτᾶι.",
        [
            "169",
            "ith"
        ]
    ],
    [
        "* * L L S S L S S L S S L * *",
        "ἀλλʼ ἥδε τροφὸϲ γεραιὰ πρὸ θυρῶν",
        [
            "170",
            "an2"
        ]
    ],
    [
        "L S S L L L L S S L",
        "τήνδε κομίζουϲʼ ἔξω μελάθρων.",
        [
            "171",
            "an2"
        ]
    ],
    [
        "L L S S L S S L S S L",
        "ϲτυγνὸν δʼ ὀφρύων νέφοϲ αὐξάνεται·",
        [
            "172",
            "an2"
        ]
    ],
    [
        "S S L L L",
        "τί δεδήληται",
        [
            "174",
            "an"
        ]
    ],
    [
        "S S L S S L S S L L",
        "δέμαϲ ἀλλόχροον βαϲιλείαϲ.",
        [
            "175",
            "par"
        ]
    ],
    [
        "L S S L L S S L S S L",
        "ΤΡΟΦΟϹ ὦ κακὰ θνητῶν ϲτυγεραί τε νόϲοι·",
        [
            "176",
            "an2"
        ]
    ],
    [
        "S S L L L S S L L L",
        "τί ϲʼ ἐγὼ δράϲω, τί δὲ μὴ δράϲω;",
        [
            "177",
            "an2"
        ]
    ],
    [
        "S S L L L L S S L L",
        "τόδε ϲοι φέγγοϲ, λαμπρὸϲ ὅδʼ αἰθήρ,",
        [
            "178",
            "an2"
        ]
    ],
    [
        "L L S S L L L S S L",
        "ἔξω δὲ δόμων ἤδη νοϲερᾶϲ",
        [
            "179",
            "an2"
        ]
    ],
    [
        "L S S L L",
        "δέμνια κοίτηϲ.",
        [
            "180",
            "an"
        ]
    ],
    [
        "L S S L L L S S L L",
        "δεῦρο γὰρ ἐλθεῖν πᾶν ἔποϲ ἦν ϲοι,",
        [
            "181",
            "an2"
        ]
    ],
    [
        "S S L S S L L L S S L",
        "τάχα δʼ ἐϲ θαλάμουϲ ϲπεύϲειϲ τὸ πάλιν.",
        [
            "182",
            "an2"
        ]
    ],
    [
        "S S L L L L S S L L",
        "ταχὺ γὰρ ϲφάλληι κοὐδενὶ χαίρειϲ,",
        [
            "183",
            "an2"
        ]
    ],
    [
        "L S S L L S S L S S L",
        "οὐδέ ϲʼ ἀρέϲκει τὸ παρόν, τὸ δʼ ἀπὸν",
        [
            "184",
            "an2"
        ]
    ],
    [
        "L S S L L",
        "φίλτερον ἡγῆι.",
        [
            "185",
            "an"
        ]
    ],
    [
        "L L S S L L S S L L",
        "κρεῖϲϲον δὲ νοϲεῖν ἢ θεραπεύειν·",
        [
            "186",
            "an2"
        ]
    ],
    [
        "S S L S S L L S S L L",
        "τὸ μέν ἐϲτιν ἁπλοῦν, τῶι δὲ ϲυνάπτει",
        [
            "187",
            "an2"
        ]
    ],
    [
        "L L S S L L L S S L",
        "λύπη τε φρενῶν χερϲίν τε πόνοϲ.",
        [
            "188",
            "an2"
        ]
    ],
    [
        "L S S L L S S L L L",
        "πᾶϲ δʼ ὀδυνηρὸϲ βίοϲ ἀνθρώπων",
        [
            "189",
            "an2"
        ]
    ],
    [
        "L S S L L L S S L L",
        "ἀλλʼ ὅτι τοῦ ζῆν φίλτερον ἄλλο",
        [
            "191",
            "an2"
        ]
    ],
    [
        "S S L L L L L S S L",
        "ϲκότοϲ ἀμπίϲχων κρύπτει νεφέλαιϲ.",
        [
            "192",
            "an2"
        ]
    ],
    [
        "S S L L L L S S L L",
        "δυϲέρωτεϲ δὴ φαινόμεθʼ ὄντεϲ",
        [
            "193",
            "an2"
        ]
    ],
    [
        "L S S L L L L S S L",
        "τοῦδʼ ὅτι τοῦτο ϲτίλβει κατὰ γῆν",
        [
            "194",
            "an2"
        ]
    ],
    [
        "S S L S S L L L S S L",
        "δι᾽ ἀπειροϲύνην ἄλλου βιότου",
        [
            "195",
            "an2"
        ]
    ],
    [
        "L S S L L L S S L L",
        "κοὐκ ἀπόδειξιν τῶν ὑπὸ γαίαϲ,",
        [
            "196",
            "an2"
        ]
    ],
    [
        "L S S L S S L L S S L",
        "ΦΑΙΔΡΑ αἴρετέ μου δέμαϲ, ὀρθοῦτε κάρα·",
        [
            "198",
            "an2"
        ]
    ],
    [
        "S S L S S L L L S S L",
        "λέλυμαι μελέων ϲύνδεϲμα φίλων.",
        [
            "199",
            "an2"
        ]
    ],
    [
        "S S L L L L L S S L",
        "λάβετʼ εὐπήχειϲ χεῖραϲ, πρόπολοι.",
        [
            "200",
            "an2"
        ]
    ],
    [
        "S S L S S L S S L S S L",
        "βαρύ μοι κεφαλῆϲ ἐπίκρανον ἔχειν·",
        [
            "201",
            "an2"
        ]
    ],
    [
        "S S L S S L L S S L L",
        "ἄφελʼ, ἀμπέταϲον βόϲτρυχον ὤμοιϲ.",
        [
            "202",
            "an2"
        ]
    ],
    [
        "L L L L L L S S L",
        "ΤΡ. θάρϲει, τέκνον, καὶ μὴ χαλεπῶϲ",
        [
            "203",
            "an2"
        ]
    ],
    [
        "S S L S S L",
        "μετάβαλλε δέμαϲ·",
        [
            "204",
            "an"
        ]
    ],
    [
        "L L S S L S S L S S L",
        "ῥᾶιον δὲ νόϲον μετά θʼ ἡϲυχίαϲ",
        [
            "205",
            "an2"
        ]
    ],
    [
        "L L L L L S S L L",
        "καὶ γενναίου λήματοϲ οἴϲειϲ.",
        [
            "206",
            "an2"
        ]
    ],
    [
        "L L S S L S S L L",
        "μοχθεῖν δὲ βροτοῖϲιν ἀνάγκη.",
        [
            "207",
            "par"
        ]
    ],
    [
        "L L S S L S S L L L",
        "πῶϲ ἂν δροϲερᾶϲ ἀπὸ κρηνῖδοϲ",
        [
            "208",
            "an2"
        ]
    ],
    [
        "S S L S S L L S S L L",
        "καθαρῶν ὑδάτων πῶμʼ ἀρυϲαίμαν,",
        [
            "209",
            "an2"
        ]
    ],
    [
        "S S L L L L S S L L",
        "ὑπό τ' αἰγείροιϲ ἔν τε κομήτηι",
        [
            "210",
            "an2"
        ]
    ],
    [
        "L L S S L S S L L L",
        "λειμῶνι κλιθεῖϲ' ἀναπαυϲαίμαν;",
        [
            "211",
            "an2"
        ]
    ],
    [
        "L L S S L",
        "ΤΡ. ὦ παῖ, τί θροεῖϲ;",
        [
            "212",
            "an"
        ]
    ],
    [
        "L L S S L S S L L L",
        "οὐ μὴ παρ' ὄχλωι τάδε γηρύϲηι,",
        [
            "213",
            "an2"
        ]
    ],
    [
        "S S L S S L L L S S L",
        "μανίαϲ ἔποχον ῥίπτουϲα λόγον;",
        [
            "214",
            "an2"
        ]
    ],
    [
        "L S S L S S L S S L L",
        "ΦΑ. πέμπετέ μʼ εἰϲ ὄροϲ· εἶμι πρὸϲ ὕλαν",
        [
            "215",
            "an2"
        ]
    ],
    [
        "L S S L L S S L S S L",
        "καὶ παρὰ πεύκαϲ, ἵνα θηροφόνοι",
        [
            "216",
            "an2"
        ]
    ],
    [
        "L L S S L",
        "ϲτείβουϲι κύνεϲ",
        [
            "217",
            "an"
        ]
    ],
    [
        "S S L S S L L L S S L",
        "βαλιαῖϲ ἐλάφοιϲ ἐγχριμπτόμεναι.",
        [
            "218",
            "an2"
        ]
    ],
    [
        "L L S S L S S L L L",
        "πρὸϲ θεῶν· ἔραμαι κυϲὶ θωύξαι",
        [
            "219",
            "an2"
        ]
    ],
    [
        "L S S L L L L L L",
        "καὶ παρὰ χαίταν ξανθὰν ῥῖψαι",
        [
            "220",
            "an2"
        ]
    ],
    [
        "L S S L L S S L S S L",
        "Θεϲϲαλὸν ὅρπακʼ, ἐπίλογχον ἔχουϲʼ",
        [
            "221",
            "an2"
        ]
    ],
    [
        "L L S S L",
        "ἐν χειρὶ βέλοϲ.",
        [
            "222",
            "an"
        ]
    ],
    [
        "S S L L L S S L L L",
        "ΤΡ. τί ποτʼ, ὦ τέκνον, τάδε κηραίνειϲ;",
        [
            "223",
            "an2"
        ]
    ],
    [
        "S S L S S L L L S S L",
        "τί κυνηγεϲίων καὶ ϲοὶ μελέτη;",
        [
            "224",
            "an2"
        ]
    ],
    [
        "S S L L L L L S S L",
        "τί δὲ κρηναίων ναϲμῶν ἔραϲαι;",
        [
            "225",
            "an2"
        ]
    ],
    [
        "S S L S S L L L S S L",
        "πάρα γὰρ δροϲερὰ πύργοιϲ ϲυνεχὴϲ",
        [
            "226",
            "an2"
        ]
    ],
    [
        "L S S L L L S S L L",
        "κλειτύϲ, ὅθεν ϲοι πῶμα γένοιτʼ ἄν.",
        [
            "227",
            "an2"
        ]
    ],
    [
        "L L S S L L S S L L",
        "ΦΑ. δέϲποινʼ ἁλίαϲ Ἄρτεμι Λίμναϲ",
        [
            "228",
            "an2"
        ]
    ],
    [
        "L L S S L L L S S L",
        "καὶ γυμναϲίων τῶν ἱπποκρότων,",
        [
            "229",
            "an2"
        ]
    ],
    [
        "L S S L L L L S S L",
        "εἴθε γενοίμαν ἐν ϲοῖϲ δαπέδοιϲ",
        [
            "230",
            "an2"
        ]
    ],
    [
        "L L S S L S S L S S L",
        "πώλουϲ Ἐνετὰϲ δαμαλιζομένα.",
        [
            "231",
            "an2"
        ]
    ],
    [
        "S S L S S L L L S S L",
        "ΤΡ. τί τόδʼ αὖ παράφρων ἔρριψαϲ ἔποϲ;",
        [
            "232",
            "an2"
        ]
    ],
    [
        "L L S S L L S S L L",
        "νῦν δὴ μὲν ὄροϲ βᾶϲʼ ἐπὶ θήραϲ",
        [
            "233",
            "an2"
        ]
    ],
    [
        "S S L L L L L S S L",
        "πόθον ἐϲτέλλου, νῦν δʼ αὖ ψαμάθοιϲ",
        [
            "234",
            "an2"
        ]
    ],
    [
        "S S L L L L L S S L",
        "ἐπʼ ἀκυμάντοιϲ πώλων ἔραϲαι.",
        [
            "235",
            "an2"
        ]
    ],
    [
        "S S L L L L S S L L",
        "τάδε μαντείαϲ ἄξια πολλῆϲ,",
        [
            "236",
            "an2"
        ]
    ],
    [
        "L L S S L S S L L L",
        "ὅϲτιϲ ϲε θεῶν ἀναϲειράζει",
        [
            "237",
            "an2"
        ]
    ],
    [
        "L S S L L S S L L",
        "καὶ παρακόπτει φρέναϲ, ὦ παῖ.",
        [
            "238",
            "par"
        ]
    ],
    [
        "L L S S L S S L S S L",
        "ΦΑ. δύϲτηνοϲ ἐγώ, τί ποτʼ εἰργαϲάμην;",
        [
            "239",
            "an2"
        ]
    ],
    [
        "L S S L L L L S S L",
        "ποῖ παρεπλάγχθην γνώμηϲ ἀγαθῆϲ;",
        [
            "240",
            "an2"
        ]
    ],
    [
        "S S L S S L L S S L L",
        "ἐμάνην, ἔπεϲον δαίμονοϲ ἄτηι.",
        [
            "241",
            "an2"
        ]
    ],
    [
        "L S S L L L L S S L",
        "μαῖα, πάλιν μου κρύψον κεφαλήν,",
        [
            "243",
            "an2"
        ]
    ],
    [
        "L L S S L S S L S S L",
        "αἰδούμεθα γὰρ τὰ λελεγμένα μοι.",
        [
            "244",
            "an2"
        ]
    ],
    [
        "L S S L L S S L L L",
        "κρύπτε· κατʼ ὄϲϲων δάκρυ μοι βαίνει",
        [
            "245",
            "an2"
        ]
    ],
    [
        "S S L L L L S S L L",
        "καὶ ἐπʼ αἰϲχύνην ὄμμα τέτραπται.",
        [
            "246",
            "an2"
        ]
    ],
    [
        "S S L L L L L S S L",
        "τὸ γὰρ ὀρθοῦϲθαι γνώμην ὀδυνᾶι,",
        [
            "247",
            "an2"
        ]
    ],
    [
        "S S L S S L S S L S S L",
        "τὸ δὲ μαινόμενον κακόν· ἀλλὰ κρατεῖ",
        [
            "248",
            "an2"
        ]
    ],
    [
        "L L L L S S L L",
        "μὴ γιγνώϲκοντʼ ἀπολέϲθαι.",
        [
            "249",
            "par"
        ]
    ],
    [
        "L L S S L S S L S S L",
        "ΤΡ. κρύπτω· τὸ δʼ ἐμὸν πότε δὴ θάνατοϲ",
        [
            "250",
            "an2"
        ]
    ],
    [
        "L S S L L",
        "ϲῶμα καλύψει;",
        [
            "251",
            "an"
        ]
    ],
    [
        "L S S L L S S L S S L",
        "πολλὰ διδάϲκει μʼ ὁ πολὺϲ βίοτοϲ·",
        [
            "252",
            "an2"
        ]
    ],
    [
        "L L S S L L L L L",
        "χρῆν γὰρ μετρίαϲ εἰϲ ἀλλήλουϲ",
        [
            "253",
            "an2"
        ]
    ],
    [
        "S S L L L S S L L L",
        "φιλίαϲ θνητοὺϲ ἀνακίρναϲθαι",
        [
            "254",
            "an2"
        ]
    ],
    [
        "L L S S L S S L L L",
        "καὶ μὴ πρὸϲ ἄκρον μυελὸν ψυχῆϲ,",
        [
            "255",
            "an2"
        ]
    ],
    [
        "L S S L L L L S S L",
        "εὔλυτα δʼ εἶναι ϲτέργηθρα φρενῶν",
        [
            "256",
            "an2"
        ]
    ],
    [
        "S S L L L L L L L",
        "ἀπό τʼ ὤϲαϲθαι καὶ ξυντεῖναι·",
        [
            "257",
            "an2"
        ]
    ],
    [
        "S S L L L S S L L L",
        "τὸ δʼ ὑπὲρ διϲϲῶν μίαν ὠδίνειν",
        [
            "258",
            "an2"
        ]
    ],
    [
        "L L S S L S S L L L",
        "ψυχὴν χαλεπὸν βάροϲ, ὡϲ κἀγὼ",
        [
            "259",
            "an2"
        ]
    ],
    [
        "L S S L L",
        "τῆϲδʼ ὑπεραλγῶ.",
        [
            "260",
            "an"
        ]
    ],
    [
        "S S L S S L S S L L L",
        "βιότου δʼ ἀτρεκεῖϲ ἐπιτηδεύϲειϲ",
        [
            "261",
            "an2"
        ]
    ],
    [
        "L L L L S S L L L",
        "φαϲὶ ϲφάλλειν πλέον ἢ τέρπειν",
        [
            "262",
            "an2"
        ]
    ],
    [
        "L S S L L L L S S L",
        "τῆι θʼ ὑγιείαι μᾶλλον πολεμεῖν.",
        [
            "263",
            "an2"
        ]
    ],
    [
        "L L S S L L S S L L",
        "οὕτω τὸ λίαν ἧϲϲον ἐπαινῶ",
        [
            "264",
            "an2"
        ]
    ],
    [
        "L L S S L",
        "τοῦ μηδὲν ἄγαν·",
        [
            "265",
            "an"
        ]
    ],
    [
        "L L L L S S L L",
        "καὶ ξυμφήϲουϲι ϲοφοί μοι.",
        [
            "266",
            "par"
        ]
    ],
    [
        "S S S L S S S L",
        "ἄιεϲ ὤ, ἔκλυεϲ ὤ,",
        [
            "362a",
            "2cr",
            "",
            "H"
        ]
    ],
    [
        "S L L S L",
        "ἀνήκουϲτα τᾶϲ",
        [
            "362b",
            "doc"
        ]
    ],
    [
        "S L L S S S S S S S S S L",
        "τυράννου πάθεα μέλεα θρεομέναϲ;",
        [
            "363",
            "2doc"
        ]
    ],
    [
        "S L L S L S L L S L",
        "ὀλοίμαν ἔγωγε πρὶν ϲᾶν, φίλα,",
        [
            "364",
            "2doc",
            "",
            "Ha"
        ]
    ],
    [
        "S S S L S L S L L L L",
        "κατανύϲαι φρενῶν. ἰώ μοι, φεῦ φεῦ·",
        [
            "365",
            "2doc"
        ]
    ],
    [
        "L S L S L L S L",
        "ὦ τάλαινα τῶνδʼ ἀλγέων·",
        [
            "366",
            "cr+doc"
        ]
    ],
    [
        "L S L S L L S L",
        "ὦ πόνοι τρέφοντεϲ βροτούϲ.",
        [
            "367",
            "cr+doc"
        ]
    ],
    [
        "L S S L S S S S S S L S L",
        "τίϲ ϲε παναμέριοϲ ὅδε χρόνοϲ μένει;",
        [
            "369",
            "2doc"
        ]
    ],
    [
        "S L L S L S L L S L",
        "τελευτάϲεταί τι καινὸν δόμοιϲ·",
        [
            "370",
            "2doc"
        ]
    ],
    [
        "S L S L S L S L S L S L",
        "ἄϲημα δʼ οὐκέτʼ ἐϲτὶν οἷ φθίνει τύχα",
        [
            "371",
            "3ia"
        ]
    ],
    [
        "S S S L S L S L L S L",
        "Κύπριδοϲ, ὦ τάλαινα παῖ Κρηϲία.",
        [
            "372",
            "2doc"
        ]
    ],
    [
        "S L S L S S L S L",
        "Ἔρωϲ Ἔρωϲ, ὁ κατʼ ὀμμάτων",
        [
            "525",
            "⏑gly"
        ]
    ],
    [
        "L L S S L S L S L L",
        "ϲτάζων πόθον, εἰϲάγων γλυκεῖαν",
        [
            "526",
            "tel+ba[^5]"
        ]
    ],
    [
        "L L S S L S L S L L",
        "ψυχᾶι χάριν οὓϲ ἐπιϲτρατεύϲηι,",
        [
            "527",
            "tel+ba"
        ]
    ],
    [
        "L L S S L S L S L L",
        "μή μοί ποτε ϲὺν κακῶι φανείηϲ",
        [
            "528",
            "tel+ba"
        ]
    ],
    [
        "L L S S L L",
        "μηδʼ ἄρρυθμοϲ ἔλθοιϲ.",
        [
            "529",
            "reiz"
        ]
    ],
    [
        "L L S L S S L L S L S L S L",
        "οἷον τὸ τᾶϲ Ἀφροδίταϲ ἵηϲιν ἐκ χερῶν",
        [
            "532-3",
            "heptasyllable+lek"
        ]
    ],
    [
        "S L S S L L",
        "Ἔρωϲ ὁ Διὸϲ παῖϲ.",
        [
            "534",
            "reiz"
        ]
    ],
    [
        "L L L L S S L S L",
        "ἄλλωϲ ἄλλωϲ παρά τʼ Ἀλφεῶι",
        [
            "535",
            "‒gly"
        ]
    ],
    [
        "L L S S L S L S L L",
        "Φοίβου τʼ ἐπὶ Πυθίοιϲ τεράμνοιϲ",
        [
            "536",
            "tel+ba"
        ]
    ],
    [
        "S L S S L S L S L L",
        "Ἔρωτα δέ, τὸν τύραννον ἀνδρῶν,",
        [
            "538",
            "tel+ba"
        ]
    ],
    [
        "L L S S L L",
        "τὸν τᾶϲ Ἀφροδίταϲ",
        [
            "539",
            "reiz"
        ]
    ],
    [
        "L S L S S L L L S L S L S L",
        "φιλτάτων θαλάμων κληιδοῦχον, οὐ ϲεβίζομεν,",
        [
            "540-1",
            "hex+2ia"
        ]
    ],
    [
        "L L S L S S L L S L S L S L",
        "πέρθοντα καὶ διὰ πάϲαϲ ἱέντα ϲυμφορᾶϲ",
        [
            "542-3",
            "hept+lek"
        ]
    ],
    [
        "L L S S L L",
        "θνατοὺϲ ὅταν ἔλθηι.",
        [
            "544",
            "reiz"
        ]
    ],
    [
        "L S L S S L",
        "τὰν μὲν Οἰχαλίαι",
        [
            "545",
            "hex"
        ]
    ],
    [
        "L S L S S L L",
        "πῶλον ἄζυγα λέκτρων,",
        [
            "546",
            "ph"
        ]
    ],
    [
        "S L L S L S S L S L L",
        "ἄνανδρον τὸ πρὶν καὶ ἄνυμφον, οἴκων",
        [
            "547-8",
            "ba+hag?"
        ]
    ],
    [
        "L L S L S S L",
        "ζεύξαϲʼ ἀπʼ Εὐρυτίων",
        [
            "549",
            "hept"
        ]
    ],
    [
        "S S S L S S L S L",
        "δρομάδα ναΐδʼ ὅπωϲ τε βάκ-",
        [
            "550",
            "gly∫"
        ]
    ],
    [
        "L S L S S L S L",
        "χαν ϲὺν αἵματι, ϲὺν καπνῶι,",
        [
            "551",
            "gly"
        ]
    ],
    [
        "S S L S L L L",
        "φονίοιϲι νυμφείοιϲ",
        [
            "552",
            "\\^dss,chol"
        ]
    ],
    [
        "L L L S L S S L S L S L",
        "Ἀλκμήναϲ τόκωι Κύπριϲ ἐξέδωκεν· ὦ",
        [
            "553",
            "wil+",
            "‘ia’∫"
        ]
    ],
    [
        "L L S S L L",
        "τλάμων ὑμεναίων.",
        [
            "554",
            "reiz"
        ]
    ],
    [
        "L L L S S L",
        "ὦ Θήβαϲ ἱερὸν",
        [
            "555",
            "hex"
        ]
    ],
    [
        "L S L S S L L",
        "τεῖχοϲ, ὦ ϲτόμα Δίρκαϲ,",
        [
            "556",
            "ph"
        ]
    ],
    [
        "S L L S L S S L S L L",
        "ϲυνείποιτʼ ἂν ἁ Κύπριϲ οἷον ἕρπει·",
        [
            "557-8",
            "ba+hag?"
        ]
    ],
    [
        "L L S L S S L",
        "βροντᾶι γὰρ ἀμφιπύρωι",
        [
            "559",
            "hept"
        ]
    ],
    [
        "S S S L S S L S L",
        "τοκάδα τὰν διγόνοιο Βάκ-",
        [
            "560",
            "gly∫"
        ]
    ],
    [
        "L L L S S L S L",
        "χου νυμφευϲαμένα πότμωι",
        [
            "561",
            "gly"
        ]
    ],
    [
        "S S L S L L L",
        "φονίωι κατηύναϲεν.",
        [
            "562",
            "\\^dss,chol"
        ]
    ],
    [
        "L L L S L S S L S L S L",
        "δεινὰ γὰρ τὰ πάντʼ ἐπιπνεῖ, μέλιϲϲα δʼ οἵ-",
        [
            "563",
            "wil+",
            "‘ia’∫"
        ]
    ],
    [
        "L L S S L L",
        "α τιϲ πεπόταται.",
        [
            "564",
            "reiz"
        ]
    ],
    [
        "S L L L L",
        "Φα. ἰώ μοι, αἰαῖ·",
        [
            "569",
            "doc"
        ]
    ],
    [
        "L L S L S L S L S L S L",
        "ὦ δυϲτάλαινα τῶν ἐμῶν παθημάτων.",
        [
            "570",
            "3ia"
        ]
    ],
    [
        "S S S L S L S L L S L",
        "ἔνεπε, τίϲ φοβεῖ ϲε φήμα, γύναι,",
        [
            "573",
            "2doc"
        ]
    ],
    [
        "S L S L S L S L L L S L",
        "Φα. ἀπωλόμεϲθα· ταῖϲδʼ ἐπιϲτᾶϲαι πύλαιϲ",
        [
            "575",
            "3ia"
        ]
    ],
    [
        "S L S L L S S S L S L S L",
        "ἀκούϲαθʼ οἷοϲ κέλαδοϲ ἐν δόμοιϲ πίτνει.",
        [
            "576",
            "3ia"
        ]
    ],
    [
        "S S S L S L S L L S L",
        "Χο. ϲὺ παρὰ κλῆιθρα, ϲοὶ μέλει πομπίμα",
        [
            "577-8",
            "2doc"
        ]
    ],
    [
        "S L L S L",
        "φάτιϲ δωμάτων·",
        [
            "579",
            "doc"
        ]
    ],
    [
        "S L L S L S L L S L",
        "Χο. ἰὰν μὲν κλύω, ϲαφὲϲ δʼ οὐκ ἔχω·",
        [
            "584-5",
            "2doc"
        ]
    ],
    [
        "S L L S L S S S L S S S",
        "γεγώνει δʼ οἵα διὰ πύλαϲ ἔμολεν",
        [
            "586-7",
            "2doc"
        ]
    ],
    [
        "S S S L S L",
        "ἔμολέ ϲοι βοά.",
        [
            "588",
            "doc"
        ]
    ],
    [
        "L L S L S L S L S L S L",
        "Φα. καὶ μὴν ϲαφῶϲ γε τὴν κακῶν προμνήϲτριαν,",
        [
            "589",
            "3ia"
        ]
    ],
    [
        "L S S L S L S S S L S L",
        "Χο. ὤμοι ἐγὼ κακῶν· προδέδοϲαι, φίλα.",
        [
            "591-2",
            "2doc"
        ]
    ],
    [
        "S L L S L",
        "τί ϲοι μήϲομαι;",
        [
            "593",
            "doc"
        ]
    ],
    [
        "S L S L S L S S S L S L",
        "τὰ κρυπτὰ γὰρ πέφηνε, διὰ δʼ ὄλλυϲαι,",
        [
            "594",
            "2ia+cr",
            "",
            "H"
        ]
    ],
    [
        "S S S S S S S L S L",
        "αἰαῖ ἒ ἔ, πρόδοτοϲ ἐκ φίλων.",
        [
            "595",
            "2ia"
        ]
    ],
    [
        "S S S L S S S L",
        "Φα. τάλανεϲ ὦ κακοτυχεῖϲ",
        [
            "669a",
            "2cr"
        ]
    ],
    [
        "S L L S L",
        "γυναικῶν πότμοι·",
        [
            "669b",
            "doc"
        ]
    ],
    [
        "S L L S L S S S L S L",
        "τίνʼ ἢ νῦν τέχναν ἔχομεν ἢ λόγον",
        [
            "670",
            "2doc"
        ]
    ],
    [
        "S L L S L S L L S L",
        "ϲφαλεῖϲαι κάθαμμα λύειν λόγου;",
        [
            "671",
            "2doc",
            "",
            "H"
        ]
    ],
    [
        "S S S L S L S L L L L",
        "ἐτύχομεν δίκαϲ. ἰὼ γᾶ καὶ φῶϲ·",
        [
            "672",
            "2doc"
        ]
    ],
    [
        "L S L S L L S L",
        "πᾶι ποτʼ ἐξαλύξω τύχαϲ;",
        [
            "673",
            "cr+doc"
        ]
    ],
    [
        "L S L S L L S L",
        "πῶϲ δὲ πῆμα κρύψω, φίλαι;",
        [
            "674",
            "cr+doc"
        ]
    ],
    [
        "S L S L S L S L S L S L",
        "τίϲ ἂν θεῶν ἀρωγὸϲ ἢ τίϲ ἂν βροτῶν",
        [
            "675",
            "3ia"
        ]
    ],
    [
        "S S S L S L S S S L L L",
        "πάρεδροϲ ἢ ξυνεργὸϲ ἀδίκων ἔργων",
        [
            "676",
            "2doc"
        ]
    ],
    [
        "S L L S L S L L S L",
        "φανείη; τὸ γὰρ παρʼ ἡμῖν πάθοϲ",
        [
            "677",
            "2doc"
        ]
    ],
    [
        "S L S L S L S L S L S L",
        "πέραν δυϲεκπέρατον ἔρχεται βίου.",
        [
            "678",
            "3ia"
        ]
    ],
    [
        "S S S L S L S L L S L",
        "κακοτυχεϲτάτα γυναικῶν ἐγώ.",
        [
            "679",
            "2doc"
        ]
    ],
    [
        "L S S L S S L L S S L L",
        "ἠλιβάτοιϲ ὑπὸ κευθμῶϲι γενοίμαν,",
        [
            "732",
            "chor+2ion"
        ]
    ],
    [
        "S S L S L S L L",
        "ἵνα με πτεροῦϲϲαν ὄρνιν",
        [
            "733",
            "anacreontic"
        ]
    ],
    [
        "S S L S L L",
        "θεὸϲ ἐν ποταναῖϲ",
        [
            "734a",
            "ion\\^",
            "+\\^ion"
        ]
    ],
    [
        "S S L L L",
        "ἀγέλαιϲ θείη·",
        [
            "734b",
            "ion\\^",
            "+\\^\\^ion",
            "",
            "Hs"
        ]
    ],
    [
        "L L L S S L S L",
        "ἀρθείην δʼ ἐπὶ πόντιον",
        [
            "735",
            "gly"
        ]
    ],
    [
        "L S L S S L L",
        "κῦμα τᾶϲ Ἀδριηνᾶϲ",
        [
            "736",
            "ph"
        ]
    ],
    [
        "L L L S S L S L",
        "ἀκτᾶϲ Ἠριδανοῦ θʼ ὕδωρ,",
        [
            "737",
            "gly"
        ]
    ],
    [
        "L S L S S L S L",
        "ἔνθα πορφύρεον ϲταλάϲ-",
        [
            "738",
            "gly∫"
        ]
    ],
    [
        "L S L S S L L",
        "ϲουϲʼ ἐϲ οἶδμα τάλαιναι",
        [
            "739",
            "ph"
        ]
    ],
    [
        "S L S S L S L L S S L",
        "κόραι Φαέθοντοϲ οἴκτωι δακρύων",
        [
            "740",
            "tel+chor"
        ]
    ],
    [
        "L L L S S L L L",
        "τὰϲ ἠλεκτροφαεῖϲ αὐγάϲ·",
        [
            "741",
            "gly",
            "(dragged)"
        ]
    ],
    [
        "L S S L S S L L S S L L",
        "Ἑϲπερίδων δʼ ἐπὶ μηλόϲπορον ἀκτὰν",
        [
            "742",
            "chor+2ion"
        ]
    ],
    [
        "S S L S L S L L",
        "ἀνύϲαιμι τᾶν ἀοιδῶν,",
        [
            "743",
            "anacreontic"
        ]
    ],
    [
        "S S L S L L",
        "ἵνʼ ὁ πορφυρέαϲ πον-",
        [
            "744a",
            "ion\\^",
            "\\^ion∫"
        ]
    ],
    [
        "S S L L L",
        "τομέδων λίμναϲ",
        [
            "744b",
            "ion\\^",
            "\\^\\^ion"
        ]
    ],
    [
        "L L L S S L S L",
        "ναύταιϲ οὐκέθʼ ὁδὸν νέμει,",
        [
            "745",
            "gly"
        ]
    ],
    [
        "L L L S S L L",
        "ϲεμνὸν τέρμονα κυρῶν",
        [
            "746",
            "pher"
        ]
    ],
    [
        "L S L S S L S L",
        "οὐρανοῦ, τὸν Ἄτλαϲ ἔχει,",
        [
            "747",
            "gly"
        ]
    ],
    [
        "L L L S S L S L",
        "κρῆναί τʼ ἀμβρόϲιαι χέον-",
        [
            "748",
            "gly∫"
        ]
    ],
    [
        "L L L S S L L",
        "ται Ζηνὸϲ παρὰ κοίταιϲ,",
        [
            "749",
            "pher"
        ]
    ],
    [
        "S L S S L S L L S S L",
        "ἵνʼ ὀλβιόδωροϲ αὔξει ζαθέα",
        [
            "750",
            "tel+chor"
        ]
    ],
    [
        "L L L S S L S L",
        "χθὼν εὐδαιμονίαν θεοῖϲ.",
        [
            "751",
            "gly"
        ]
    ],
    [
        "L L L S S L S L",
        "ὦ λευκόπτερε Κρηϲία",
        [
            "752",
            "gly"
        ]
    ],
    [
        "L S L S S L S L",
        "πορθμίϲ, ἃ διὰ πόντιον",
        [
            "753",
            "gly"
        ]
    ],
    [
        "L S L S S L L",
        "κῦμʼ ἁλίκτυπον ἅλμαϲ",
        [
            "754",
            "pher"
        ]
    ],
    [
        "S S L S S L S L S L S L S L L",
        "ἐπόρευϲαϲ ἐμὰν ἄναϲϲαν ὀλβίων ἀπʼ οἴκων",
        [
            "755-6",
            "diom+ith"
        ]
    ],
    [
        "S S L S S L S L S",
        "κακονυμφοτάταν ὄναϲιν·",
        [
            "757",
            "diom"
        ]
    ],
    [
        "L S L L L S L L L S L L",
        "ἔπτατο κλεινὰϲ Ἀθήναϲ Μουνίχου τʼ ἀ-",
        [
            "760-1",
            "e‒e‒e‒∫"
        ]
    ],
    [
        "L S L L L S L L L S L L",
        "κταῖϲιν ἐκδήϲαντο πλεκτὰϲ πειϲμάτων ἀρ-",
        [
            "762",
            "e‒e‒e‒∫"
        ]
    ],
    [
        "L S L L L S L S L L",
        "χὰϲ ἐπʼ ἀπείρου τε γᾶϲ ἔβαϲαν.",
        [
            "763",
            "e‒ith"
        ]
    ],
    [
        "L L L S S L S L",
        "ἀνθʼ ὧν οὐχ ὁϲίων ἐρώ-",
        [
            "764",
            "gly∫"
        ]
    ],
    [
        "L L L S S L S L",
        "των δεινᾶι φρέναϲ Ἀφροδί-",
        [
            "765",
            "gly∫"
        ]
    ],
    [
        "L S L S S L L",
        "ταϲ νόϲωι κατεκλάϲθη·",
        [
            "766",
            "pher"
        ]
    ],
    [
        "S S L S S L S L S L S L S L L",
        "χαλεπᾶι δʼ ὑπέραντλοϲ οὖϲα ϲυμφορᾶι τεράμνων",
        [
            "767-8",
            "diom+ith"
        ]
    ],
    [
        "S S L S S L S L S",
        "ἄπο νυμφιδίων κρεμαϲτὸν",
        [
            "769",
            "diom"
        ]
    ],
    [
        "L S S L S S L L L S L L L S L L",
        "ἅψεται ἀμφὶ βρόχον λευκᾶι καθαρμόζουϲα δειρᾶι,",
        [
            "770-1",
            "D‒e‒e‒"
        ]
    ],
    [
        "L S L L L S L L L S L L",
        "δαίμονα ϲτυγνὸν καταιδεϲθεῖϲα τάν τʼ εὔ-",
        [
            "772-3",
            "e‒e‒e‒∫"
        ]
    ],
    [
        "L S L L L S L L L S L L",
        "δοξον ἀνθαιρουμένα φήμαν ἀπαλλάϲ-",
        [
            "774",
            "e‒e‒e‒∫"
        ]
    ],
    [
        "S S S L S L S S S L S L",
        "Χο. ἰὼ ἰὼ τάλαινα μελέων κακῶν·",
        [
            "811",
            "2doc"
        ]
    ],
    [
        "S S S L S L",
        "ἔπαθεϲ, εἰργάϲω",
        [
            "812",
            "doc"
        ]
    ],
    [
        "S L S L S L S L S L S L",
        "τοϲοῦτον ὥϲτε τούϲδε ϲυγχέαι δόμουϲ,",
        [
            "813a",
            "3ia"
        ]
    ],
    [
        "S L S [ ^ 9 ] L",
        "αἰαῖ τόλμαϲ,",
        [
            "813b",
            "ia"
        ]
    ],
    [
        "S L L S L S S S L S L",
        "βιαίωϲ θανοῦϲʼ ἀνοϲίωι τε ϲυμ-",
        [
            "814",
            "2doc"
        ]
    ],
    [
        "S L L S L S L S S S L",
        "φορᾶι, ϲᾶϲ χερὸϲ πάλαιϲμα μελέαϲ.",
        [
            "815",
            "2doc"
        ]
    ],
    [
        "S S S L S L S L L S L",
        "τίϲ ἄρα ϲάν, τάλαινʼ, ἀμαυροῖ ζόαν;",
        [
            "816",
            "2doc"
        ]
    ],
    [
        "L S S L S L S S S L S L",
        "Θη. ὤμοι ἐγὼ πόνων· ἔπαθον, ὦ τάλαϲ,",
        [
            "817",
            "2doc"
        ]
    ],
    [
        "S L L S L S L L S L",
        "τὰ μάκιϲτʼ ἐμῶν κακῶν. ὦ τύχα,",
        [
            "818",
            "2doc"
        ]
    ],
    [
        "L L S L S L S L S L S L",
        "ὥϲ μοι βαρεῖα καὶ δόμοιϲ ἐπεϲτάθηϲ,",
        [
            "819",
            "3ia"
        ]
    ],
    [
        "L L S L S L S L S L S L",
        "κηλὶϲ ἄφραϲτοϲ ἐξ ἀλαϲτόρων τινόϲ·",
        [
            "820",
            "3ia"
        ]
    ],
    [
        "S S S L S L S S S L S L",
        "κατακονὰ μὲν οὖν ἀβίοτοϲ βίου.",
        [
            "821",
            "2doc"
        ]
    ],
    [
        "S L L S L S S S L S L",
        "κακῶν δʼ, ὦ τάλαϲ, πέλαγοϲ εἰϲορῶ",
        [
            "822",
            "2doc"
        ]
    ],
    [
        "S L S L S L S L L L S L",
        "τοϲοῦτον ὥϲτε μήποτʼ ἐκνεῦϲαι πάλιν",
        [
            "823",
            "3ia"
        ]
    ],
    [
        "L L S L L L S L S L S L",
        "μηδʼ ἐκπερᾶϲαι κῦμα τῆϲδε ϲυμφορᾶϲ.",
        [
            "824",
            "3ia"
        ]
    ],
    [
        "S S S L S L S S S L S L",
        "τίνι λόγωι, τάλαϲ, τίνι τύχαν ϲέθεν",
        [
            "826",
            "2doc"
        ]
    ],
    [
        "S S S L S L S L L S L",
        "βαρύποτμον, γύναι, προϲαυδῶν τύχω;",
        [
            "827",
            "2doc"
        ]
    ],
    [
        "L L S L S L S L S L S L",
        "ὄρνιϲ γὰρ ὥϲ τιϲ ἐκ χερῶν ἄφαντοϲ εἶ,",
        [
            "828",
            "3ia"
        ]
    ],
    [
        "L L S L L L S L L L S L",
        "πήδημʼ ἐϲ Ἅιδου κραιπνὸν ὁρμήϲαϲά μοι.",
        [
            "829",
            "3ia"
        ]
    ],
    [
        "S S S L S S S S S S S S S L",
        "αἰαῖ αἰαῖ, μέλεα μέλεα τάδε πάθη·",
        [
            "830",
            "2doc"
        ]
    ],
    [
        "S L L S S S S S S L S L",
        "πρόϲωθεν δέ ποθεν ἀνακομίζομαι",
        [
            "831",
            "2doc"
        ]
    ],
    [
        "S L L S L L S S L S L",
        "τύχαν δαιμόνων ἀμπλακίαιϲι τῶν",
        [
            "832",
            "2doc"
        ]
    ],
    [
        "L L S L L L S L L L S L",
        "πολλῶν μετʼ ἄλλων δʼ ὤλεϲαϲ κεδνὸν λέχοϲ.",
        [
            "835",
            "3ia"
        ]
    ],
    [
        "S S S L S L S S S L S L",
        "Θη. τὸ κατὰ γᾶϲ θέλω, τὸ κατὰ γᾶϲ κνέφαϲ",
        [
            "836",
            "2doc"
        ]
    ],
    [
        "S L L S L S L L L [ ^ 1 1 ] L",
        "μετοικεῖν ϲκότωι θανών, ὦ τλάμων,",
        [
            "837",
            "2doc"
        ]
    ],
    [
        "L L S L L L S L S L S L",
        "τῆϲ ϲῆϲ ϲτερηθεὶϲ φιλτάτηϲ ὁμιλίαϲ·",
        [
            "838",
            "3ia"
        ]
    ],
    [
        "S L S L S L S S S L S L",
        "†τίνοϲ κλύω† πόθεν θανάϲιμοϲ τύχα,",
        [
            "840",
            "2doc"
        ]
    ],
    [
        "S L L S L S L S S S L",
        "γύναι, ϲὰν ἔβα, τάλαινα, κραδίαν;",
        [
            "841",
            "2doc"
        ]
    ],
    [
        "L L S L S L S L S L S L",
        "εἴποι τιϲ ἂν τὸ πραχθέν, ἢ μάτην ὄχλον",
        [
            "842",
            "3ia"
        ]
    ],
    [
        "S L S L L L S L S L S L",
        "ϲτέγει τυραννὸν δῶμα προϲπόλων ἐμῶν;",
        [
            "843",
            "3ia"
        ]
    ],
    [
        "L L L S L",
        "ὤμοι μοι ⟨ ⟩ ϲέθεν,",
        [
            "844",
            "doc2?"
        ]
    ],
    [
        "S S S L S L S L L S L",
        "μέλεοϲ, οἷον εἶδον ἄλγοϲ δόμων,",
        [
            "845",
            "2doc"
        ]
    ],
    [
        "L L S L S L S L S L S L",
        "οὐ τλητὸν οὐδὲ ῥητόν. ἀλλʼ ἀπωλόμην·",
        [
            "846",
            "3ia"
        ]
    ],
    [
        "S L S L L L S L S L S L",
        "ἔρημοϲ οἶκοϲ, καὶ τέκνʼ ὀρφανεύεται.",
        [
            "847",
            "3ia"
        ]
    ],
    [
        "S L L S L L S S L S L",
        "γυναικῶν ἀρίϲτα θʼ ὁπόϲαϲ ὁρᾶι",
        [
            "849",
            "2doc"
        ]
    ],
    [
        "L L L S L S L L S L",
        "φέγγοϲ θʼ ἁλίοιο καὶ νυκτὸϲ ἀ-",
        [
            "850",
            "2doc∫"
        ]
    ],
    [
        "S L L S L",
        "ϲτερωπὸν ϲέλαϲ.",
        [
            "851",
            "doc"
        ]
    ],
    [
        "L S L S L S S S L S L",
        "Χο. ὦ τάλαϲ, ὅϲον κακὸν ἔχει δόμοϲ·",
        [
            "852",
            "hypodoc+doc"
        ]
    ],
    [
        "S S S L S S S S S S L S L",
        "δάκρυϲί μου βλέφαρα καταχυθέντα τέγ-",
        [
            "853",
            "2doc∫"
        ]
    ],
    [
        "S L L S L",
        "γεται ϲᾶι τύχαι.",
        [
            "854",
            "doc"
        ]
    ],
    [
        "S S S L S L S L L S L",
        "τὸ δʼ ἐπὶ τῶιδε πῆμα φρίϲϲω πάλαι.",
        [
            "855",
            "2doc"
        ]
    ],
    [
        "S L S L",
        "Θη. ἔα ἔα·",
        [
            "855a",
            "extrametric"
        ]
    ],
    [
        "L L S L S S S L S L",
        "Χο. φεῦ φεῦ, τόδ' αὖ νεοχμὸν ἐκδοχαῖϲ",
        [
            "866",
            "ia+doc"
        ]
    ],
    [
        "S L L S L S L L S L",
        "τύχα πρὸϲ τὸ κρανθὲν εἴη τυχεῖν·†",
        [
            "868",
            "2doc?"
        ]
    ],
    [
        "S S S L S L S L L S L",
        "ὀλομένουϲ γάρ, οὐκέτʼ ὄνταϲ, λέγω,",
        [
            "869",
            "2doc"
        ]
    ],
    [
        "L L L S L S L L S L",
        "φεῦ φεῦ, τῶν ἐμῶν τυράννων δόμουϲ.",
        [
            "870",
            "2doc"
        ]
    ],
    [
        "L S L S L L S L S L",
        "οἷον οἷον εἶδον γραφαῖϲ μέλοϲ",
        [
            "879",
            "hypodoc+hypodoc"
        ]
    ],
    [
        "L S S L S L",
        "φθεγγόμενον τλάμων.",
        [
            "880",
            "doc"
        ]
    ],
    [
        "S S S L S L S S S L S L",
        "Θη. τόδε μὲν οὐκέτι ϲτόματοϲ ἐν πύλαιϲ",
        [
            "882",
            "doc2"
        ]
    ],
    [
        "S L L S L S L S S S L",
        "καθέξω δυϲεκπέρατον ὀλοὸν",
        [
            "883",
            "doc2"
        ]
    ],
    [
        "S S S L S L",
        "κακόν· ἰὼ πόλιϲ.",
        [
            "884",
            "doc"
        ]
    ],
    [
        "> L S S L S S L S S L S S L S S L L",
        "ΘΕΡΑΠΟΝΤΕϹ ἦ μέγα μοι τὰ θεῶν μελεδήμαθʼ, ὅταν φρέναϲ ἔλθηι,",
        [
            "1102-3"
        ]
    ],
    [
        "S L S L L S S L S S L S S L L",
        "λύπαϲ παραιρεῖ· ξύνεϲιν δέ τινʼ ἐλπίδι κεύθων",
        [
            "1104-5",
            "ia+da4[^13]"
        ]
    ],
    [
        "L S S L S S L L L S S L S S L L",
        "λείπομαι ἔν τε τύχαιϲ θνατῶν καὶ ἐν ἔργμαϲι λεύϲϲων·",
        [
            "1106-7",
            "da6"
        ]
    ],
    [
        "L S S L S S S L S L S S L S S L S S L L",
        "ἄλλα γὰρ ἄλλοθεν ἀμείβεται, μετὰ δ' ἵϲταται ἀνδράϲιν αἰὼν",
        [
            "1108-9"
        ]
    ],
    [
        "S L S L S L L",
        "πολυπλάνητοϲ αἰεί.",
        [
            "1110",
            "ia+ba"
        ]
    ],
    [
        "> L S S L S S L S S L S S L S S L L",
        "Χο. εἴθε μοι εὐξαμέναι θεόθεν τάδε μοῖρα παράϲχοι,",
        [
            "1111-2",
            "da6"
        ]
    ],
    [
        "S L S L L S S L S S L S S L L",
        "τύχαν μετʼ ὄλβου καὶ ἀκήρατον ἄλγεϲι θυμόν·",
        [
            "1113-4",
            "ia+da4"
        ]
    ],
    [
        "L S S L S S L L L S S L S S L L",
        "δόξα δὲ μήτʼ ἀτρεκὴϲ μήτʼ αὖ παράϲημοϲ ἐνείη,",
        [
            "1115-6",
            "da6"
        ]
    ],
    [
        "L S S L S S S L S L S S L S S L S S L L",
        "ῥάιδια δʼ ἤθεα τὸν αὔριον μεταβαλλομένα χρόνον αἰεὶ",
        [
            "1117-8",
            "2da+ia+4da"
        ]
    ],
    [
        "S L S L S L L",
        "βίον ϲυνευτυχοίην.",
        [
            "1119",
            "ia+ba"
        ]
    ],
    [
        "> L S S L S S L S S L S S L S S L L",
        "Θε. οὐκέτι γὰρ καθαρὰν φρένʼ ἔχω, παρὰ δʼ ἐλπίδʼ ἃ λεύϲϲω·",
        [
            "1120-1"
        ]
    ],
    [
        "S L S L L S L S S L S S L S S L L",
        "ἐπεὶ τὸν Ἑλλανίαϲ φανερώτατον ἀϲτέρʼ Ἀφαίαϲ",
        [
            "1122-3",
            "ia+cr:enop",
            "par"
        ]
    ],
    [
        "L S S L S S L S S L L",
        "εἴδομεν εἴδομεν ἐκ πατρὸϲ ὀργᾶϲ",
        [
            "1124",
            "da4"
        ]
    ],
    [
        "L S S L S S L S S L L",
        "ὦ ψάμαθοι πολιήτιδοϲ ἀκτᾶϲ,",
        [
            "1126",
            "da4"
        ]
    ],
    [
        "L L S S S S S S S L",
        "ὦ δρυμὸϲ ὄρεοϲ ὅθι κυνῶν",
        [
            "1127",
            "ia2"
        ]
    ],
    [
        "L S S L S S L S S L L",
        "ὠκυπόδων μέτα θῆραϲ ἔναιρεν",
        [
            "1128-9",
            "da4"
        ]
    ],
    [
        "L L S L S L L",
        "Δίκτυνναν ἀμφὶ ϲεμνάν.",
        [
            "1130",
            "ia+ba"
        ]
    ],
    [
        "> L S S L S S L L L S S L S S L L",
        "Χο. οὐκέτι ϲυζυγίαν πώλων Ἐνετᾶν ἐπιβάϲηι",
        [
            "1131-2",
            "da6"
        ]
    ],
    [
        "S L S L L S L S S L S S L S S L L",
        "τὸν ἀμφὶ Λίμναϲ τρόχον κατέχων ποδὶ γυμνάδοϲ ἵππου·",
        [
            "1133-4"
        ]
    ],
    [
        "L S S L S S L S S L L",
        "μοῦϲα δʼ ἄυπνοϲ ὑπʼ ἄντυγι χορδᾶν",
        [
            "1135",
            "da4"
        ]
    ],
    [
        "L S S L S S L S S L L",
        "ἀϲτέφανοι δὲ κόραϲ ἀνάπαυλαι",
        [
            "1137",
            "da4"
        ]
    ],
    [
        "L L S L S S S S L",
        "Λατοῦϲ βαθεῖαν ἀνὰ χλόαν·",
        [
            "1138",
            "ia2"
        ]
    ],
    [
        "L S S L S S L S S L L",
        "νυμφιδία δʼ ἀπόλωλε φυγᾶι ϲᾶι",
        [
            "1139-40",
            "da4"
        ]
    ],
    [
        "L L S L S L L",
        "λέκτρων ἅμιλλα κούραιϲ.",
        [
            "1141",
            "ia+ba"
        ]
    ],
    [
        "S L S L L S S L",
        "ἐγὼ δὲ ϲᾶι δυϲτυχίαι",
        [
            "1142",
            "ia2",
            "with",
            "choriambic",
            "anaclasis[^15]"
        ]
    ],
    [
        "L S L S L L",
        "δάκρυϲιν διοίϲω",
        [
            "1143",
            "ith"
        ]
    ],
    [
        "S S S S S L S L",
        "ἔτεκεϲ ἀνόνατα· φεῦ,",
        [
            "1145",
            "cr+cr"
        ]
    ],
    [
        "S L S L",
        "ἰὼ ἰώ·",
        [
            "1147",
            "ia"
        ]
    ],
    [
        "L S S L S S L S L S S L S S L L",
        "ϲυζύγιαι Χάριτεϲ, τί τὸν τάλανʼ ἐκ πατρίαϲ γᾶϲ",
        [
            "1148",
            "D⏑D‒"
        ]
    ],
    [
        "L S L L L S L",
        "οὐδὲν ἄταϲ αἴτιον",
        [
            "1149",
            "lek"
        ]
    ],
    [
        "L S S L S L L",
        "πέμπετε τῶνδʼ ἀπʼ οἴκων;",
        [
            "1150",
            "arist"
        ]
    ],
    [
        "S L S L S L L S S L S L",
        "ϲὺ τὰν θεῶν ἄκαμπτον φρένα καὶ βροτῶν",
        [
            "1268",
            "doc2"
        ]
    ],
    [
        "S L S S L S L",
        "ἄγειϲ, Κύπρι, ϲὺν δʼ ὁ ποι-",
        [
            "1269",
            "T∫"
        ]
    ],
    [
        "S L S S L S S L",
        "κιλόπτεροϲ ἀμφιβαλὼν",
        [
            "1270",
            "⏑D"
        ]
    ],
    [
        "L S S L S L",
        "ὠκυτάτωι πτερῶι·",
        [
            "1271",
            "doc"
        ]
    ],
    [
        "S L L S L S L L L L",
        "ποτᾶται δὲ γαῖαν εὐάχητόν θʼ",
        [
            "1272",
            "doc2"
        ]
    ],
    [
        "L S S S S L L",
        "ἁλμυρὸν ἐπὶ πόντον,",
        [
            "1273",
            "doc[^16]"
        ]
    ],
    [
        "L L S L L L S S L S S L",
        "θέλγει δʼ Ἔρωϲ ὧι μαινομέναι κραδίαι",
        [
            "1274",
            "‒e‒D"
        ]
    ],
    [
        "L S S L S L L S S L",
        "πτανὸϲ ἐφορμάϲηι χρυϲοφαήϲ,",
        [
            "1275",
            "doc+D[^17]"
        ]
    ],
    [
        "S S S L S L L L S S S L",
        "φύϲιν ὀρεϲκόων ϲκύμνων πελαγίων θʼ",
        [
            "1276-7",
            "doc2"
        ]
    ],
    [
        "S S S L S L",
        "ὅϲα τε γᾶ τρέφει",
        [
            "1278",
            "doc"
        ]
    ],
    [
        "S L S S S L S L L S L",
        "τά τʼ αἰθόμενοϲ ἅλιοϲ δέρκεται",
        [
            "1279",
            "doc2",
            "",
            "H"
        ]
    ],
    [
        "L L S L L L S S L S S L",
        "ἄνδραϲ τε· ϲυμπάντων βαϲιληίδα τι-",
        [
            "1280-1",
            "‒e‒D∫"
        ]
    ],
    [
        "L S S L S S L S L L",
        "μάν, Κύπρι, τῶνδε μόνα κρατύνειϲ.",
        [
            "1282",
            "decasyllable"
        ]
    ],
    [
        "S S L S S L L L S S L",
        "ΑΡΤΕΜΙϹ ϲὲ τὸν εὐπατρίδην Αἰγέωϲ κέλομαι",
        [
            "1283",
            "an2"
        ]
    ],
    [
        "L S S L L",
        "παῖδʼ ἐπακοῦϲαι·",
        [
            "1284",
            "an"
        ]
    ],
    [
        "L L S S L L S S L L",
        "Λητοῦϲ δὲ κόρη ϲʼ Ἄρτεμιϲ αὐδῶ.",
        [
            "1285",
            "an2"
        ]
    ],
    [
        "L L S S L L S S L L",
        "Θηϲεῦ, τί τάλαϲ τοῖϲδε ϲυνήδηι,",
        [
            "1286",
            "an2"
        ]
    ],
    [
        "L L S S L S S L L L",
        "παῖδʼ οὐχ ὁϲίωϲ ϲὸν ἀποκτείναϲ",
        [
            "1287",
            "an2"
        ]
    ],
    [
        "L S S L L S S L L L",
        "ψεύδεϲι μύθοιϲ ἀλόχου πειϲθεὶϲ",
        [
            "1288",
            "an2"
        ]
    ],
    [
        "S S L S S L L S S L L",
        "ἀφανῆ; φανερὰν δʼ ἔϲχεθεϲ ἄτην.",
        [
            "1289",
            "an2"
        ]
    ],
    [
        "L L S S L L S S L L",
        "πῶϲ οὐχ ὑπὸ γῆϲ τάρταρα κρύπτειϲ",
        [
            "1290",
            "an2"
        ]
    ],
    [
        "S S L L L",
        "δέμαϲ αἰϲχυνθείϲ,",
        [
            "1291",
            "an"
        ]
    ],
    [
        "L L S S L S S L S S L",
        "ἢ πτηνὸν ἄνω μεταβὰϲ βίοτον",
        [
            "1292",
            "an2"
        ]
    ],
    [
        "L S S L L S S L S S L",
        "πήματοϲ ἔξω πόδα τοῦδʼ ἀνέχειϲ;",
        [
            "1293",
            "an2"
        ]
    ],
    [
        "L L S S L L S S L L",
        "ὡϲ ἔν γʼ ἀγαθοῖϲ ἀνδράϲιν οὔ ϲοι",
        [
            "1294",
            "an2"
        ]
    ],
    [
        "L L S S L S S L L L",
        "ΧΟ. καὶ μὴν ὁ τάλαϲ ὅδε δὴ ϲτείχει,",
        [
            "1342",
            "an2"
        ]
    ],
    [
        "L L S S L L L S S L",
        "ϲάρκαϲ νεαρὰϲ ξανθόν τε κάρα",
        [
            "1343",
            "an2"
        ]
    ],
    [
        "S S L L L L S S L L",
        "διαλυμανθείϲ. ὦ πόνοϲ οἴκων,",
        [
            "1344",
            "an2"
        ]
    ],
    [
        "L S S L L S S L S S L",
        "οἷον ἐκράνθη δίδυμον μελάθροιϲ",
        [
            "1345",
            "an2"
        ]
    ],
    [
        "L L S S L S S L S S L",
        "δύϲτηνοϲ ἐγώ, πατρὸϲ ἐξ ἀδίκου",
        [
            "1348",
            "an2"
        ]
    ],
    [
        "L L S S L S S L L L",
        "χρηϲμοῖϲ ἀδίκοιϲ διελυμάνθην.",
        [
            "1349",
            "an2"
        ]
    ],
    [
        "S S L S S L L L L",
        "ἀπόλωλα τάλαϲ, οἴμοι μοι.",
        [
            "1350",
            "par"
        ]
    ],
    [
        "S S L S S L L L S S L",
        "διά μου κεφαλῆϲ ἄιϲϲουϲʼ ὀδύναι",
        [
            "1351",
            "an2"
        ]
    ],
    [
        "S S L S S L L L S S L",
        "κατά τʼ ἐγκέφαλον πηδᾶι ϲφάκελοϲ·",
        [
            "1352",
            "an2"
        ]
    ],
    [
        "S S L L L L S S L L",
        "ϲχέϲ, ἀπειρηκὸϲ ϲῶμʼ ἀναπαύϲω.",
        [
            "1353",
            "an2"
        ]
    ],
    [
        "S S",
        "ἒ ἔ·",
        [
            "1354",
            "e.m."
        ]
    ],
    [
        "L L S S L L L S S L",
        "ὦ ϲτυγνὸν ὄχημʼ ἵππειον, ἐμῆϲ",
        [
            "1355",
            "an2"
        ]
    ],
    [
        "L L S S L",
        "βόϲκημα χερόϲ,",
        [
            "1356",
            "an"
        ]
    ],
    [
        "S S L L L S S L L L",
        "διά μʼ ἔφθειραϲ, κατὰ δʼ ἔκτειναϲ.",
        [
            "1357",
            "an2"
        ]
    ],
    [
        "L L L L S S L L L",
        "φεῦ φεῦ· πρὸϲ θεῶν, ἀτρέμα, δμῶεϲ,",
        [
            "1358",
            "an2"
        ]
    ],
    [
        "S S L L L L L S S L",
        "χροὸϲ ἑλκώδουϲ ἅπτεϲθε χεροῖν.",
        [
            "1359",
            "an2"
        ]
    ],
    [
        "S S L L L L S S L L",
        "τίϲ ἐφέϲτηκεν δεξιὰ πλευροῖϲ;",
        [
            "1360",
            "an2"
        ]
    ],
    [
        "L S S L S S L S S L S S",
        "πρόϲφορά μʼ αἴρετε, ϲύντονα δʼ ἕλκετε",
        [
            "1361",
            "an2"
        ]
    ],
    [
        "L S S L S S L S S L L",
        "τὸν κακοδαίμονα καὶ κατάρατον",
        [
            "1362",
            "an2"
        ]
    ],
    [
        "S S L S S L L L S S L",
        "πατρὸϲ ἀμπλακίαιϲ. Ζεῦ Ζεῦ, τάδʼ ὁρᾶιϲ;",
        [
            "1363",
            "an2"
        ]
    ],
    [
        "S S L S S L L S S L L",
        "ὅδʼ ὁ ϲεμνὸϲ ἐγὼ καὶ θεοϲέπτωρ,",
        [
            "1364",
            "an2"
        ]
    ],
    [
        "S S L S S L L S S L L",
        "ὅδʼ ὁ ϲωφροϲύνηι πάνταϲ ὑπερϲχών,",
        [
            "1365",
            "an2"
        ]
    ],
    [
        "L S S L L L L S S L",
        "προῦπτον ἐϲ Ἅιδην ϲτείχω, κατʼ ἄκραϲ",
        [
            "1366",
            "an2"
        ]
    ],
    [
        "S S L S S L L L L L",
        "ὀλέϲαϲ βίοτον, μόχθουϲ δʼ ἄλλωϲ",
        [
            "1367",
            "an2"
        ]
    ],
    [
        "L L S S L",
        "τῆϲ εὐϲεβίαϲ",
        [
            "1368",
            "an"
        ]
    ],
    [
        "L L S S L S S L L L",
        "καὶ νῦν ὀδύνα μʼ ὀδύνα βαίνει·",
        [
            "1371",
            "an2"
        ]
    ],
    [
        "L L S S L L L L L",
        "καί μοι θάνατοϲ παιὰν ἔλθοι.",
        [
            "1373",
            "an2"
        ]
    ],
    [
        "S S L S S L S S L L L",
        "†προϲαπόλλυτέ μʼ ὄλλυτε τὸν δυϲδαί-",
        [
            "1374",
            "an2∫"
        ]
    ],
    [
        "S S L S S L L L S S L",
        "μονα· † ἀμφιτόμου λόγχαϲ ἔραμαι,",
        [
            "1375",
            "an2"
        ]
    ],
    [
        "S S L L L S S L L L",
        "διαμοιρᾶϲαι κατά τʼ εὐνᾶϲαι",
        [
            "1376",
            "an2"
        ]
    ],
    [
        "L L S S L L L S S L",
        "ὦ πατρὸϲ ἐμοῦ δύϲτανοϲ ἀρά·",
        [
            "1378",
            "an2"
        ]
    ],
    [
        "S L S L S L S L",
        "μιαιφόνον τι ϲύγγονον",
        [
            "1379",
            "ia2"
        ]
    ],
    [
        "S L L S L L",
        "παλαιῶν προγεννη-",
        [
            "1380",
            "ba2∫"
        ]
    ],
    [
        "S L L S L S L",
        "τόρων ἐξορίζεται",
        [
            "1381a",
            "ba+ia"
        ]
    ],
    [
        "S S L S S L",
        "κακὸν οὐδὲ μένει,",
        [
            "1381b",
            "an",
            "",
            "H"
        ]
    ],
    [
        "S S S S S S S S S S L",
        "ἔμολέ τʼ ἐπʼ ἐμέ—τί ποτε, τὸν οὐ-",
        [
            "1382",
            "ia2∫"
        ]
    ],
    [
        "S L S L S L S L",
        "δὲν ὄντʼ ἐπαίτιον κακῶν;",
        [
            "1383",
            "ia2"
        ]
    ],
    [
        "S L L L",
        "ἰώ μοί μοι.",
        [
            "1384",
            "e.m.(?)"
        ]
    ],
    [
        "S L L S L L",
        "τί φῶ; πῶϲ ἀπαλλά-",
        [
            "1385a",
            "ba2∫"
        ]
    ],
    [
        "L S S L S L",
        "ξω βιοτὰν ἐμὰν",
        [
            "1385b",
            "dod"
        ]
    ],
    [
        "L S L L L S L",
        "τοῦδʼ ἀνάλγητον πάθουϲ;",
        [
            "1386",
            "lek"
        ]
    ],
    [
        "L S S L S L S L",
        "εἴθε με κοιμάϲειε τὸν",
        [
            "1387",
            "chor+ia"
        ]
    ],
    [
        "L L S L L S L",
        "δυϲδαίμονʼ Ἅιδα μέλαι-",
        [
            "1388a",
            "ia+cr"
        ]
    ],
    [
        "L L S S L L S S L L",
        "ΧΟ. κοινὸν τόδʼ ἄχοϲ πᾶϲι πολίταιϲ",
        [
            "1462",
            "an2"
        ]
    ],
    [
        "L S S L L",
        "ἦλθεν ἀέλπτωϲ.",
        [
            "1463",
            "an"
        ]
    ],
    [
        "L L S S L L L S S L",
        "πολλῶν δακρύων ἔϲται πίτυλοϲ·",
        [
            "1464",
            "an2"
        ]
    ],
    [
        "L L S S L L S S L L",
        "τῶν γὰρ μεγάλων ἀξιοπενθεῖϲ",
        [
            "1465",
            "an2"
        ]
    ]
]