[
    [
        "S S L L S S L L S S L L S S L L",
        "ἱκετεύω ϲε, γεραιά, γεραιῶν ἐκ ϲτομάτων πρὸϲ",
        [
            "42",
            "ion4"
        ]
    ],
    [
        "S S L L S L L S S L S S L L [ ^ 1 ]",
        "†ἄνομοι τέκνα λῦϲαι φθιμένων νεκύων οἳ†",
        [
            "44",
            "?"
        ]
    ],
    [
        "S S L L S S L",
        "καταλείπουϲι μέλη",
        [
            "45",
            "ion",
            "+ion\\^"
        ]
    ],
    [
        "S S L L S S L L S S L L S S L",
        "θανάτωι λυϲιμελεῖ θηρϲὶν ὀρείοιϲι βοράν·",
        [
            "46-7",
            "ion3+",
            "ion\\^"
        ]
    ],
    [
        "S S L L S S L L S S L L S S L L",
        "ἐϲιδοῦϲʼ οἰκτρὰ μὲν ὄϲϲων δάκρυʼ ἀμφὶ βλεφάροιϲ, ῥυ-",
        [
            "48-9",
            "ion4∫"
        ]
    ],
    [
        "S S L L S S L",
        "ϲὰ δὲ ϲαρκῶν πολιᾶν",
        [
            "50",
            "ion+",
            "ion\\^",
            "",
            "Bs"
        ]
    ],
    [
        "S S L S S L L S S L S S L L",
        "καταδρύμματα χειρῶν. τί γάρ; ἃ φθιμέμουϲ παῖ-",
        [
            "51",
            "ion2\\^+ion∫[^2]"
        ]
    ],
    [
        "S S L L S S L",
        "δαϲ ἐμοὺϲ οὔτε δόμοιϲ",
        [
            "52",
            "ion+",
            "ion\\^"
        ]
    ],
    [
        "S S L L S S L L S S L L S S L L",
        "ἔτεκεϲ καὶ ϲύ ποτʼ, ὦ πότνια, κοῦρον φίλα ποιη-",
        [
            "55",
            "ion4∫"
        ]
    ],
    [
        "S S L L S S L L S S L",
        "ϲαμένα λέκτρα πόϲει ϲῶι· μετά νυν",
        [
            "56",
            "2ion+ion\\^"
        ]
    ],
    [
        "S S L L S S L L S S L L S S L L",
        "δὸϲ ἐμοὶ ϲᾶϲ διανοίαϲ, μετάδοϲ δʼ, ὅϲϲον ἐπαλγῶ",
        [
            "57-8",
            "ion4"
        ]
    ],
    [
        "S S L L S S L L S S L L S S L L",
        "παράπειϲον δὲ ϲόν, ὤ, λίϲϲομαι, ἐλθεῖν τέκνον Ἰϲμη-",
        [
            "60",
            "ion4∫"
        ]
    ],
    [
        "S S L L S S L L S S L",
        "νὸν ἐμάν τʼ ἐϲ χέρα θεῖναι νεκύων",
        [
            "61",
            "2ion+ion\\^"
        ]
    ],
    [
        "S S L L S S L L S S L L S S L L",
        "ὁϲίωϲ οὔχ, ὑπʼ ἀνάγκαϲ δὲ προπίπτουϲα προϲαιτοῦϲʼ",
        [
            "63",
            "ion4"
        ]
    ],
    [
        "S S L L S S L L S S L",
        "ἔμολον δεξιπύρουϲ θεῶν θυμέλαϲ·",
        [
            "64",
            "2ion+ion\\^"
        ]
    ],
    [
        "S S L L S S L L S S L L S S L L",
        "ἔχομεν δʼ ἔνδικα, καὶ ϲοί τι πάρεϲτι ϲθένοϲ ὥϲτʼ εὐ-",
        [
            "65-6",
            "ion4∫"
        ]
    ],
    [
        "S S L L S S L L S S L",
        "τεκνίαι δυϲτυχίαν τὰν παρʼ ἐμοὶ",
        [
            "67",
            "2ion+ion\\^"
        ]
    ],
    [
        "S S L L S S L L S S L L S S L L",
        "καθελεῖν· οἰκτρὰ δὲ πάϲχουϲʼ ἱκετεύω ϲὸν ἐμοὶ παῖ-",
        [
            "68",
            "ion4∫"
        ]
    ],
    [
        "S S L L S S L L S S L",
        "δα ταλαίναι ʼν χερὶ θεῖναι νέκυν, ἀμ-",
        [
            "69",
            "2ion+ion\\^∫"
        ]
    ],
    [
        "S L S L S L S L S L S L",
        "ἀγὼν ὅδʼ ἄλλοϲ ἔρχεται γόων γόοιϲ",
        [
            "71",
            "ia3"
        ]
    ],
    [
        "S L S L L S L",
        "ἴτʼ ὦ ξυνωιδοὶ κακοῖϲ,",
        [
            "73",
            "ia+cr"
        ]
    ],
    [
        "S L S L L S L",
        "ἴτʼ ὦ ξυναλγηδόνεϲ,",
        [
            "74",
            "ia+cr"
        ]
    ],
    [
        "S L S L L S L",
        "χορὸν τὸν Ἅιδαϲ ϲέβει·",
        [
            "75",
            "ia+cr"
        ]
    ],
    [
        "S S S L S S S S L L",
        "διὰ παρῆιδοϲ ὄνυχι λευκᾶϲ",
        [
            "76",
            "tr2"
        ]
    ],
    [
        "S L S L S L S L S L S L",
        "ἄπληϲτοϲ ἅδε μʼ ἐξάγει χάριϲ γόων",
        [
            "79",
            "ia3"
        ]
    ],
    [
        "S S S S L L S L L L S L",
        "πολύπονοϲ, ὡϲ ἐξ ἁλιβλήτου πέτραϲ",
        [
            "80",
            "ia+cr+ia",
            "",
            "Bs"
        ]
    ],
    [
        "S L S L L S L",
        "ὑγρὰ ῥέουϲα ϲταγὼν",
        [
            "81",
            "ia+cr"
        ]
    ],
    [
        "S L S L L S L",
        "ἄπαυϲτοϲ αἰεὶ †γόων†.",
        [
            "82",
            "ia+cr"
        ]
    ],
    [
        "S L S L L S L",
        "τὸ γὰρ θανόντων τέκνων",
        [
            "83",
            "ia+cr"
        ]
    ],
    [
        "S S S L S S S S L S [ ^ 3 ]",
        "ἐπίπονόν τι κατὰ γυναῖκαϲ",
        [
            "84",
            "tr2"
        ]
    ],
    [
        "L S L S L S L S S S",
        "ἐϲ γόουϲ πάθοϲ πέφυκεν· ἒ ἔ.",
        [
            "85",
            "tr2+",
            "ἒ",
            "ἔ"
        ]
    ],
    [
        "S L S L L S L S L L",
        "θανοῦϲα τῶνδʼ ἀλγέων λαθοίμαν.",
        [
            "86",
            "ia+ith"
        ]
    ],
    [
        "L S S L S S L S S L S S L S S L L",
        "βᾶθι, τάλαινʼ, ἱερῶν δαπέδων ἄπο Περϲεφονείαϲ,",
        [
            "271",
            "dac6"
        ]
    ],
    [
        "L S S L S S L S S L S S L S S L L",
        "βᾶθι καὶ ἀντίαϲον γονάτων ἔπι χεῖρα βαλοῦϲα,",
        [
            "272",
            "dac6"
        ]
    ],
    [
        "L L L L L S S L S S L S S L L",
        "τέκνων τεθνεώτων κομίϲαι δέμαϲ, ὦ μελέα 'γώ,",
        [
            "273",
            "dac6"
        ]
    ],
    [
        "L S S L L L S S L S S L S S L L",
        "οὓϲ ὑπὸ Καδμείοιϲιν ἀπώλεϲα τείχεϲι κούρουϲ.",
        [
            "274",
            "dac6"
        ]
    ],
    [
        "L S S L S S L S S L S S L S S L S S",
        "ἄντομαι ἀμφιπίτνουϲα τὸ ϲὸν γόνυ καὶ χέρα δειλαία·",
        [
            "278-9",
            "dac6"
        ]
    ],
    [
        "L S S L S S L S S L L S S L L [ ^ 6 ]",
        "οἴκτιϲαι ἀμφὶ τέκνων † μʼ ἱκέταν ἤ τινʼ ἀλάταν †",
        [
            "280",
            "?"
        ]
    ],
    [
        "L S S L S S L S S L L",
        "οἰκτρὸν ἰήλεμον οἰκτρὸν ἱεῖϲαν.",
        [
            "281",
            "dac4"
        ]
    ],
    [
        "L S S L S S L L L S S L S S L L",
        "μηδʼ ἀτάφουϲ, τέκνον, ἐν Κάδμου χθονὶ χάρματα θηρῶν",
        [
            "282",
            "dac6"
        ]
    ],
    [
        "L S S L S S L L L S S L S S L L",
        "παῖδαϲ ἐν ἡλικίαι τᾶι ϲᾶι κατίδηιϲ, ἱκετεύω.",
        [
            "283",
            "dac6"
        ]
    ],
    [
        "L S S L S S L S S L S S L S S L L",
        "βλέψον ἐμῶν βλεφάρων ἔπι δάκρυον, ἃ περὶ ϲοῖϲιν",
        [
            "284",
            "dac6"
        ]
    ],
    [
        "L S S L S S L L L S S L S S L L",
        "γούναϲιν ὧδε πίτνω τέκνοιϲ τάφον ἐξανύϲαϲθαι.",
        [
            "285",
            "dac6"
        ]
    ],
    [
        "L S S S L S L S S S S L S L",
        "ἱππόβοτον Ἄργοϲ, ὦ πάτριον ἐμὸν πέδον,",
        [
            "365",
            "ia3"
        ]
    ],
    [
        "S L S S S S S S S L",
        "ἄνακτοϲ ὅϲια περὶ θεοὺϲ",
        [
            "367",
            "ia2"
        ]
    ],
    [
        "L S S S S L S L",
        "καὶ μεγάλα Πελαϲγίαι",
        [
            "368a",
            "lek"
        ]
    ],
    [
        "L S L S",
        "καὶ κατʼ Ἄργοϲ;",
        [
            "368b",
            "tr"
        ]
    ],
    [
        "L S S S L S L S S S S L S L",
        "εἰ γὰρ ἐπὶ τέρμα καὶ τὸ πλέον ἐμῶν κακῶν",
        [
            "369",
            "ia3"
        ]
    ],
    [
        "S L S S S S L S",
        "ἄμυγμα φόνιον ἐξέλοι,",
        [
            "371",
            "ia2"
        ]
    ],
    [
        "L S S S S L S L",
        "γᾶν δὲ φίλιον Ἰνάχου",
        [
            "372a",
            "lek"
        ]
    ],
    [
        "L S L L",
        "θεῖτʼ ὀνήϲαϲ.",
        [
            "372b",
            "tr"
        ]
    ],
    [
        "S L S L L S L L S L",
        "χάριν τʼ ἔχει τὰν ἐϲ αἰεί. τί μοι",
        [
            "374",
            "ia+cr+cr"
        ]
    ],
    [
        "S L S L S L S S S S L S L",
        "πόλιϲ κρανεῖ ποτʼ; ἆρα φίλιά μοι τεμεῖ",
        [
            "375",
            "ia3"
        ]
    ],
    [
        "S L S L L S L L S L",
        "νόμουϲ βροτῶν μὴ μιαίνειν. ϲύ τοι",
        [
            "378",
            "ia+cr+cr"
        ]
    ],
    [
        "S L S L S L S S S S L S L",
        "ϲέβειϲ δίκαν, τὸ δʼ ἧϲϲον ἀδικίαι νέμειϲ",
        [
            "379",
            "ia3"
        ]
    ],
    [
        "L S L S L L S L L",
        "δυϲτυχῆ τʼ ἀεὶ πάντα ῥύηι.",
        [
            "380",
            "cr+ba+ba"
        ]
    ],
    [
        "L S S L S S L L S L S L L",
        "— ὦ μέλεαι μελέων ματέρεϲ λοχαγῶν,",
        [
            "598",
            "D+ith"
        ]
    ],
    [
        "L S S L S S L L L S S L L [ ^ 7 ]",
        "ὥϲ μοι ὑφʼ ἥπατι †χλωρὸν δεῖμα ταράϲϲει†",
        [
            "599",
            "corrupt"
        ]
    ],
    [
        "S L L L S L S L S L",
        "— τίνʼ αὐδὰν τάνδε προϲφέρειϲ νέαν;",
        [
            "600",
            "ba+cr+ia"
        ]
    ],
    [
        "S L S L L S L S L S L",
        "— ϲτράτευμα πᾶι Παλλάδοϲ κριθήϲεται.",
        [
            "601",
            "ia+cr+ia"
        ]
    ],
    [
        "S S S S L S L S L S L S L",
        "— διὰ δορὸϲ εἶπαϲ ἢ λόγων ξυναλλαγαῖϲ;",
        [
            "602",
            "ia3"
        ]
    ],
    [
        "S L L L S L S L S L",
        "— γένοιτʼ ἂν κέρδοϲ· εἰ δʼ ἀρείφατοι",
        [
            "603",
            "ba+cr+ia"
        ]
    ],
    [
        "S L S L L S S L S L S L",
        "φόνοι μάχαι ϲτερνοτυπεῖϲ τʼ ἀνὰ πτόλιν",
        [
            "604",
            "ia+",
            "“chor”",
            "+ia"
        ]
    ],
    [
        "S L S L L L S L S S S S L",
        "κτύποι φανήϲονται, τάλαινα τίνα λόγον,",
        [
            "605",
            "ia3"
        ]
    ],
    [
        "L S S L S S L L S L S L L",
        "— ἀλλὰ τὸν εὐτυχίαι λαμπρὸν ἄν τιϲ αἱροῖ",
        [
            "608",
            "D+ith"
        ]
    ],
    [
        "L S S L S S L S S L S L L",
        "μοῖρα πάλιν· τόδε μοι θράϲοϲ ἀμφιβαίνει.",
        [
            "609",
            "prax"
        ]
    ],
    [
        "S L L L S L S L S L",
        "— δικαίουϲ δαίμοναϲ ϲύ γʼ ἐννέπειϲ.",
        [
            "610",
            "ba+cr+ia"
        ]
    ],
    [
        "S L S L L S L S L S L",
        "— τίνεϲ γὰρ ἄλλοι νέμουϲι ϲυμφοράϲ;",
        [
            "611",
            "ia+cr+ia"
        ]
    ],
    [
        "S S S S L S L S L L L S L",
        "— διάφορα πολλὰ θεῶν βροτοῖϲιν εἰϲορῶ.",
        [
            "612",
            "ia3"
        ]
    ],
    [
        "S L L L S L S L S L",
        "— φόβωι γὰρ τῶι πάροϲ διόλλυϲαι.",
        [
            "613",
            "ba+cr+ia"
        ]
    ],
    [
        "S L S L S S S S L S L S L",
        "δίκα δίκαν δʼ ἐκάλεϲε καὶ φόνοϲ φόνον·",
        [
            "614",
            "ia3"
        ]
    ],
    [
        "S L S L S L S L S L S L",
        "κακῶν δʼ ἀναψυχὰϲ θεοὶ βροτοῖϲ νέμου-",
        [
            "615",
            "ia3"
        ]
    ],
    [
        "S L L L S L S L L",
        "ϲι, πάντων τέρμʼ ἔχοντεϲ αὐτοί.",
        [
            "616-7",
            "ba+ith"
        ]
    ],
    [
        "S L S L S S S S L S L S L",
        "— τὰ καλλίπυργα πεδία πῶϲ ἱκοίμεθʼ ἄν,",
        [
            "618",
            "ia3"
        ]
    ],
    [
        "L S S L S L S L S L L",
        "Καλλίχορον θεᾶϲ ὕδωρ λιποῦϲαι;",
        [
            "619",
            "“chor”+ia+ba",
            "",
            "Ha"
        ]
    ],
    [
        "S L L L S L S L S L",
        "— ποτανὰν εἴ ϲέ τιϲ θεῶν κτίϲαι,",
        [
            "620",
            "ba+cr+ia"
        ]
    ],
    [
        "S S S S S S S L S L",
        "διπόταμον ἵνα πόλιν μόλοιϲ,",
        [
            "621",
            "ia2"
        ]
    ],
    [
        "L L L L S L",
        "εἰδείηϲ ἂν φίλων",
        [
            "622a",
            "mol+cr"
        ]
    ],
    [
        "L L L L S L",
        "εἰδείηϲ ἂν τύχαϲ.",
        [
            "622b",
            "mol+cr"
        ]
    ],
    [
        "L S L S S S S S S",
        "— τίϲ ποτʼ αἶϲα, τίϲ ἄρα πότμοϲ",
        [
            "623",
            "lek"
        ]
    ],
    [
        "S S S L S L S L",
        "ἐπιμένει τὸν ἄλκιμον",
        [
            "624",
            "lek"
        ]
    ],
    [
        "S L S L S S S S L S L S L",
        "— κεκλημένουϲ μὲν ἀνακαλούμεθʼ αὖ θεούϲ·",
        [
            "626",
            "ia3"
        ]
    ],
    [
        "L S S L L S L S L L",
        "ἀλλὰ φόβων πίϲτιϲ ἅδε πρώτα.",
        [
            "627",
            "“chor”+cr+ba"
        ]
    ],
    [
        "S L L L S L S L S L",
        "— ἰὼ Ζεῦ, τᾶϲ παλαιομάτοροϲ",
        [
            "628",
            "ba+cr+ia"
        ]
    ],
    [
        "L S S S S S S L S L",
        "παιδογόνε πόριοϲ Ἰνάχου,",
        [
            "629",
            "ia2"
        ]
    ],
    [
        "S L L L S L",
        "πόλει μοι ξύμμαχοϲ",
        [
            "630a",
            "ba+cr"
        ]
    ],
    [
        "S L L L S L",
        "γενοῦ τᾶιδʼ εὐμενήϲ.",
        [
            "630b",
            "ba+cr"
        ]
    ],
    [
        "S S S L S S S S S S",
        "— τὸ ϲὸν ἄγαλμα, τὸ ϲὸν ἵδρυμα",
        [
            "631",
            "lek"
        ]
    ],
    [
        "S S S L S L S L",
        "πόλεοϲ ἐκκόμιζέ μοι",
        [
            "632",
            "lek"
        ]
    ],
    [
        "L S L S L L",
        "πρὸϲ πυρὰν ὑβριϲθέν.",
        [
            "633",
            "ith"
        ]
    ],
    [
        "S S L S S L S L",
        "τὰ μὲν, εὖ, τὰ δὲ δυϲτυχῆ.",
        [
            "778",
            "T"
        ]
    ],
    [
        "S L S L L S L",
        "πόλει μὲν εὐδοξία",
        [
            "779",
            "ia+cr"
        ]
    ],
    [
        "L S L S L S L",
        "καὶ ϲτρατηλάταιϲ δορὸϲ",
        [
            "780",
            "lek"
        ]
    ],
    [
        "S L S L L L",
        "διπλάζεται τιμά·",
        [
            "781",
            "ia+sp",
            "",
            "H"
        ]
    ],
    [
        "S L S L L S L S L S L",
        "ἐμοὶ δὲ παίδων μὲν εἰϲιδεῖν μέλη",
        [
            "782",
            "ia+cr+ia"
        ]
    ],
    [
        "S L S L S L S L S L S L",
        "πικρόν, καλὸν θέαμα δʼ εἴπερ ὄψομαι,",
        [
            "783",
            "ia3"
        ]
    ],
    [
        "L S L S L S L",
        "τὰν ἄελπτον ἁμέραν",
        [
            "784",
            "lek"
        ]
    ],
    [
        "S S L S S L S L",
        "ἄγαμόν μʼ ἔτι δεῦρʼ ἀεὶ",
        [
            "786",
            "T"
        ]
    ],
    [
        "S L S L L S L",
        "Χρόνοϲ παλαιὸϲ πατὴρ",
        [
            "787",
            "ia+cr"
        ]
    ],
    [
        "L S L S L S L",
        "ὤφελʼ ἁμερᾶν κτίϲαι.",
        [
            "788",
            "lek"
        ]
    ],
    [
        "S L S L L L",
        "τί γάρ μʼ ἔδει παίδων;",
        [
            "789",
            "ia+sp",
            "",
            "Hs"
        ]
    ],
    [
        "S L S L L S L S L S L",
        "τί μὲν γὰρ ἤλπιζον ἂν πεπονθέναι",
        [
            "790",
            "ia+cr+ia"
        ]
    ],
    [
        "S L S L S L S L S L S L",
        "πάθοϲ περιϲϲὸν εἰ γάμων ἀπεζύγην;",
        [
            "791",
            "ia3"
        ]
    ],
    [
        "L S L S L S L",
        "νῦν δʼ ὁρῶ ϲαφέϲτατον",
        [
            "792",
            "lek"
        ]
    ],
    [
        "L S S L L L S S L L",
        "ἀλλὰ τάδʼ ἤδη ϲώματα λεύϲϲω",
        [
            "794",
            "an2"
        ]
    ],
    [
        "L L S S L L L S S L",
        "τῶν οἰχομένων παίδων· μελέα",
        [
            "795",
            "an2"
        ]
    ],
    [
        "L S S L L L L S S L",
        "πῶϲ ἂν ὀλοίμην ϲὺν τοῖϲδε τέκνοιϲ",
        [
            "796",
            "an2"
        ]
    ],
    [
        "L S S L L S S L L",
        "κοινὸν ἐϲ Ἅιδην καταβᾶϲα;",
        [
            "797",
            "par"
        ]
    ],
    [
        "S L S L L S L",
        "Αδ. ϲτεναγμόν, ὦ ματέρεϲ,",
        [
            "798",
            "ia+cr"
        ]
    ],
    [
        "L S L S L S L",
        "τῶν κατὰ χθονὸϲ νεκρῶν",
        [
            "799",
            "lek"
        ]
    ],
    [
        "L L S L L S L S L S L",
        "ἀπύϲατʼ ἀπύϲατʼ ἀντίφωνʼ ἐμῶν",
        [
            "800",
            "ia+cr+ia"
        ]
    ],
    [
        "S L S L S L L",
        "ϲτεναγμάτων κλύουϲαι.",
        [
            "801",
            "ia+ba",
            "",
            "H"
        ]
    ],
    [
        "L L S L S L S L",
        "Χο. ὦ παῖδεϲ, ὦ πικρὸν φίλων",
        [
            "802",
            "ia2"
        ]
    ],
    [
        "S L S L S L S L",
        "προϲηγόρημα ματέρων,",
        [
            "803",
            "ia2"
        ]
    ],
    [
        "S L S L S L S L",
        "Χο. ὁρῶϲι κἀμὲ τὰν τάλαι-",
        [
            "809",
            "ia2∫"
        ]
    ],
    [
        "L S L S L S L",
        "ϲώμαθʼ αἱματοϲταγῆ,",
        [
            "812",
            "lek"
        ]
    ],
    [
        "S L S L L S L S L S L",
        "ϲφαγένταϲ οὐκ ἄξιʼ οὐδʼ ὑπʼ ἀξίων,",
        [
            "813",
            "ia+cr+ia"
        ]
    ],
    [
        "S L S L L L L",
        "ἐν οἷϲ ἀγὼν ἐκράνθη.",
        [
            "814",
            "ia+ba",
            "",
            "Hs"
        ]
    ],
    [
        "S L S L S L S L",
        "Χο. δόθʼ ὡϲ περιπτυχαῖϲι δὴ",
        [
            "815",
            "ia2"
        ]
    ],
    [
        "S L S L S L S L",
        "χέραϲ προϲαρμόϲαϲʼ ἐμοῖϲ",
        [
            "816",
            "ia2"
        ]
    ],
    [
        "S L L S L S L L",
        "ἐν ἀγκῶϲι τέκνα θῶμαι.",
        [
            "817",
            "doc+ba",
            "",
            "H"
        ]
    ],
    [
        "S S S S L S L S L L S L",
        "Αδ. ἀίετέ μου. Χο. ϲτένειϲ ἐπʼ ἀμφοῖν ἄχη.",
        [
            "820",
            "ia2+cr",
            "",
            "H"
        ]
    ],
    [
        "S L S L S L S L",
        "Χο. ἐμὸν δὲ μήποτʼ ἐζύγη",
        [
            "822",
            "ia2"
        ]
    ],
    [
        "S S S L S L L",
        "δέμαϲ ἐϲ ἀνδρὸϲ εὐνάν.",
        [
            "823",
            "ith"
        ]
    ],
    [
        "S S S S L S S S L L S L",
        "Αδ. ἴδετε κακῶν πέλαγοϲ, ὦ ματέρεϲ",
        [
            "824",
            "ia+cr2"
        ]
    ],
    [
        "S L L S L",
        "τάλαιναι τέκνων.",
        [
            "825",
            "doc"
        ]
    ],
    [
        "S L S L L L [ ^ 1 0 ]",
        "Αδ. ἰὼ ἰώ μοί μοι·",
        [
            "828",
            "e.m."
        ]
    ],
    [
        "S S S S L L S L",
        "κατά με πέδον γᾶϲ ἕλοι,",
        [
            "829",
            "ia+cr[^11]"
        ]
    ],
    [
        "S S S S L L S L",
        "διὰ δὲ θύελλα ϲπάϲαι,",
        [
            "830",
            "ia+cr"
        ]
    ],
    [
        "S L S L S S S S L S L S L",
        "πυρόϲ τε φλογμὸϲ ὁ Διὸϲ ἐν κάραι πέϲοι.",
        [
            "831-2",
            "ia3"
        ]
    ],
    [
        "S L S L L S L",
        "Χο. πικροὺϲ ἐϲεῖδεϲ γάμουϲ,",
        [
            "833",
            "ia+cr"
        ]
    ],
    [
        "S L L L S L S L S L",
        "ἐϲ ἡμᾶϲ ἁ πολύϲτονοϲ λιποῦϲʼ",
        [
            "835",
            "ba+cr+ia"
        ]
    ],
    [
        "L S S L L S L S L L",
        "Οἰδιπόδα δώματʼ ἦλθʼ Ἐρινύϲ.",
        [
            "836",
            "“chor”+cr+ba"
        ]
    ],
    [
        "S L S L L S L",
        "ἰὼ τέκνον, δυϲτυχῆ",
        [
            "918",
            "ia+cr"
        ]
    ],
    [
        "S S S S S S S L S L",
        "ϲʼ ἔτρεφον ἔφερον ὑφʼ ἥπατοϲ",
        [
            "919",
            "ia2"
        ]
    ],
    [
        "S L S L L S L L S L",
        "πόνουϲ ἐνεγκοῦϲʼ ἐν ὠδῖϲι· καὶ",
        [
            "920",
            "ia+cr2"
        ]
    ],
    [
        "L S S S L S L",
        "νῦν τὸν ἐμὸν Ἀίδαϲ",
        [
            "921",
            "cr2"
        ]
    ],
    [
        "S L L S L S L",
        "ἔχει μόχθον ἀθλίαϲ,",
        [
            "922",
            "ba+ia"
        ]
    ],
    [
        "S L S L S L S L S L S L",
        "ἐγὼ δὲ γηροβοϲκὸν οὐκ ἔχω, τεκοῦϲʼ",
        [
            "923",
            "ia3"
        ]
    ],
    [
        "L S L S S L S L",
        "οὐκέτ᾽ εὔτεκνος, οὐκέτ᾽ εὔ-",
        [
            "955",
            "gly∫"
        ]
    ],
    [
        "L L L S S L S L",
        "παις, οὐδ᾽ εὐτυχίας μέτε-",
        [
            "956",
            "gly∫"
        ]
    ],
    [
        "L L L S S L S L L L",
        "στίν μοι κουροτόκοις ἐν Ἀργείαις:",
        [
            "957",
            "gly",
            "+",
            "sp"
        ]
    ],
    [
        "L L S L S S L",
        "οὐδ᾽ Ἄρτεμις λοχία",
        [
            "958",
            "hept"
        ]
    ],
    [
        "L L L L L S S L",
        "προσφθέγξαιτ᾽ ἂν τὰς ἀτέκνους.",
        [
            "959",
            "wil"
        ]
    ],
    [
        "S L L S S L",
        "δυσαίων δ᾽ ὁ βίος,",
        [
            "960",
            "hex"
        ]
    ],
    [
        "L S L L L S S L",
        "πλαγκτὰ δ᾽ ὡσεί τις νεφέλα",
        [
            "961",
            "wil"
        ]
    ],
    [
        "L S L S S L S L S L L",
        "πνευμάτων ὑπὸ δυσχίμων ἀίσσω.",
        [
            "962",
            "phal"
        ]
    ],
    [
        "L S L S S L S L",
        "ἑπτὰ ματέρες ἑπτὰ κού-",
        [
            "963",
            "gly∫"
        ]
    ],
    [
        "L S L S S L S L",
        "ρους ἐγεινάμεθ᾽ αἱ ταλαί-",
        [
            "964",
            "gly∫"
        ]
    ],
    [
        "L L L S S L S L L L",
        "πωροι κλεινοτάτους ἐν Ἀργείοις:",
        [
            "965",
            "gly",
            "+",
            "sp"
        ]
    ],
    [
        "L L S L S S L",
        "καὶ νῦν ἄπαις ἄτεκνος",
        [
            "966",
            "hept"
        ]
    ],
    [
        "L L L L L S S L",
        "γηράσκω δυστανοτάτως,",
        [
            "967",
            "wil"
        ]
    ],
    [
        "L L S S L [ ^ 1 2 ]",
        "†οὔτ᾽ ἐν φθιμένοις",
        [
            "968",
            "?"
        ]
    ],
    [
        "L L L L S S L L S L [ ^ 1 3 ]",
        "οὔτ᾽ ἐν ζωοῖσιν ἀριθμουμένη†,",
        [
            "969",
            "?"
        ]
    ],
    [
        "L L L S S L S L S L L",
        "χωρὶς δή τινα τῶνδ᾽ ἔχουσα μοῖραν.",
        [
            "970",
            "phal"
        ]
    ],
    [
        "S S S L S S L S S S",
        "ὑπολελειμμένα μοι δάκρυα:",
        [
            "971",
            "gly"
        ]
    ],
    [
        "S S S L S S L L",
        "μέλεα παιδὸς ἐν οἴκοις",
        [
            "972",
            "pher"
        ]
    ],
    [
        "L L L S S L S L",
        "κεῖται μνήματα, πένθιμοι",
        [
            "973",
            "gly"
        ]
    ],
    [
        "L L L S S L S L",
        "κουραὶ καὶ στέφανοι κόμας,",
        [
            "974a",
            "gly"
        ]
    ],
    [
        "S L L L L S S L",
        "ἀοιδαί θ᾽ ἃς χρυσοκόμας",
        [
            "975",
            "wil"
        ]
    ],
    [
        "S L L L L S S L",
        "Ἀπόλλων οὐκ ἐνδέχεται:",
        [
            "976",
            "wil"
        ]
    ],
    [
        "S L S L L S S L",
        "γόοισι δ᾽ ὀρθρευομένα",
        [
            "977",
            "ia+ch"
        ]
    ],
    [
        "S S S S S S S L S L",
        "δάκρυσι νοτερὸν ἀεὶ πέπλων",
        [
            "978",
            "2ia"
        ]
    ],
    [
        "L L L S S L L",
        "πρὸς στέρνῳ πτύχα τέγξω.",
        [
            "979",
            "pher"
        ]
    ],
    [
        "L L S S L L S S L L",
        "καὶ μὴν θαλάμαϲ τάϲδʼ ἐϲορῶ δὴ",
        [
            "980",
            "an2"
        ]
    ],
    [
        "S S L L L L L S S L",
        "Καπανέωϲ ἤδη τύμβον θʼ ἱερὸν",
        [
            "981",
            "an2"
        ]
    ],
    [
        "S S L L L",
        "μελάθρων τʼ ἐκτὸϲ",
        [
            "982",
            "an"
        ]
    ],
    [
        "L L S S L S S L L",
        "Θηϲέωϲ ἀναθήματα νεκροῖϲ,",
        [
            "983",
            "an2"
        ]
    ],
    [
        "L L S S L L L S S L",
        "κλεινήν τʼ ἄλοχον τοῦ καπφθιμένου",
        [
            "984",
            "an2"
        ]
    ],
    [
        "L S S L L S S L L L",
        "τοῦδε κεραυνῶι πέλαϲ Εὐάδνην,",
        [
            "985",
            "an2"
        ]
    ],
    [
        "L L S S L L S S L L",
        "ἣν Ἶφιϲ ἄναξ παῖδα φυτεύει.",
        [
            "986",
            "an2"
        ]
    ],
    [
        "S S L S S L L L S S L",
        "τί ποτʼ αἰθερίαν ἕϲτηκε πέτραν",
        [
            "987",
            "an2"
        ]
    ],
    [
        "L L S S L S S L L L",
        "ἣ τῶνδε δόμων ὑπερακρίζει,",
        [
            "988",
            "an2"
        ]
    ],
    [
        "L L L L S S L L",
        "τήνδʼ ἐμβαίνουϲα κέλευθον;",
        [
            "989",
            "par"
        ]
    ],
    [
        "S L L S L L",
        "τί φέγγος, τίν᾽ αἴγλαν",
        [
            "990",
            "ba2"
        ]
    ],
    [
        "S L L S S L S L",
        "ἐδίφρευε τόθ᾽ ἅλιος",
        [
            "991",
            "gly"
        ]
    ],
    [
        "S L L S S L S S",
        "σελάνα τε κατ᾽ αἰθέρα,",
        [
            "992",
            "gly",
            "",
            "B"
        ]
    ],
    [
        "L S S L S S L L L [ ^ 1 4 ]",
        "†λαμπάδ᾽ ἵν᾽ ὠκυθόαι νύμφαι,",
        [
            "993",
            "corrupt"
        ]
    ],
    [
        "L L L S S L L L [ ^ 1 5 ]",
        "ἱππεύουσι δι᾽ ὀρφναίας, †",
        [
            "994",
            "corrupt"
        ]
    ],
    [
        "L S L S S L L",
        "τῶν ἐμῶν πόλις Ἄργους",
        [
            "996",
            "pher"
        ]
    ],
    [
        "S L L L L S S L",
        "ἀοιδάς, εὐδαιμονίας,",
        [
            "997",
            "wil"
        ]
    ],
    [
        "S L L S L S S L",
        "ἐπύργωσε καὶ γαμέτα",
        [
            "998",
            "wil"
        ]
    ],
    [
        "L S S L L L S S L",
        "χαλκεοτευχέος, Καπανέως.",
        [
            "999",
            "wil"
        ]
    ],
    [
        "L S L S S L S L",
        "πρός σ᾽ ἔβαν δρομὰς ἐξ ἐμῶν",
        [
            "1000",
            "gly"
        ]
    ],
    [
        "L L L L L S S L",
        "οἴκων ἐκβακχευσαμένα,",
        [
            "1001",
            "wil"
        ]
    ],
    [
        "S L L S L S",
        "πυρᾶς φῶς τάφον τε",
        [
            "1002",
            "ba2",
            "",
            "BHa"
        ]
    ],
    [
        "L L L S S L S",
        "ματεύσουσα τὸν αὐτόν,",
        [
            "1003",
            "pher"
        ]
    ],
    [
        "S L L S S L L",
        "ἔμμοχθον καταλύσουσ᾽",
        [
            "1004",
            "pher∫"
        ]
    ],
    [
        "S L L",
        "ἐς Ἅιδαν",
        [
            "1005",
            "ba"
        ]
    ],
    [
        "S S S S L L S S L",
        "βίοτον αἰῶνός τε πόνους:",
        [
            "1005",
            "ia",
            "+chor"
        ]
    ],
    [
        "L L L L L S S L",
        "ἥδιστος γάρ τοι θάνατος",
        [
            "1006",
            "wil"
        ]
    ],
    [
        "L L L L L S S L",
        "συνθνῄσκειν θνῄσκουσι φίλοις,",
        [
            "1007",
            "wil"
        ]
    ],
    [
        "L L L S S L L",
        "εἰ δαίμων τάδε κραίνοι.",
        [
            "1008",
            "pher"
        ]
    ],
    [
        "L L S L L L S L L L S L \\",
        "καὶ μὴν ὁρᾷς τήνδ᾽ ἧς ἐφέστηκας πέλας",
        [
            "1009",
            "ia3"
        ]
    ],
    [
        "S L S L L L S L S L S L",
        "πυράν, Διὸς θησαυρόν, ἔνθ᾽ ἔνεστι σὸς",
        [
            "1010",
            "ia3"
        ]
    ],
    [
        "S L S L L L S L S L S L",
        "πόσις δαμασθεὶς λαμπάσιν κεραυνίοις.",
        [
            "1011",
            "ia3"
        ]
    ],
    [
        "S L L S L L",
        "ὁρῶ δὴ τελευτάν,",
        [
            "1012",
            "ba2"
        ]
    ],
    [
        "S L L S S L S L",
        "ἵν᾽ ἕστακα: τύχα δέ μοι",
        [
            "1013",
            "gly"
        ]
    ],
    [
        "S L L S S L S S",
        "ξυνάπτοι ποδός: ἅλματι",
        [
            "1014",
            "gly",
            "",
            "B"
        ]
    ],
    [
        "L S S L S S L S L [ ^ 1 7 ]",
        "†εὐκλεΐας χάριν ἔνθεν ὁρ-",
        [
            "1015",
            "corrupt∫"
        ]
    ],
    [
        "L L L S S S L [ ^ 1 8 ]",
        "μάσω τᾶσδ᾽ ἀπὸ πέτρας",
        [
            "1016",
            "corrupt"
        ]
    ],
    [
        "L L L S S S S L [ ^ 1 9 ]",
        "πηδήσασα πυρὸς ἔσω, †",
        [
            "1018[^20]",
            "corrupt"
        ]
    ],
    [
        "L S L S S L L",
        "σῶμά τ᾽ αἴθοπι φλογμῷ",
        [
            "1019",
            "pher"
        ]
    ],
    [
        "S L L L L S S L",
        "πόσει συμμείξασα, φίλον",
        [
            "1020",
            "wil"
        ]
    ],
    [
        "L S S L S L S S L",
        "χρῶτα χροὶ πέλας θεμένα,",
        [
            "1021",
            "wil"
        ]
    ],
    [
        "L S S L L L S S L",
        "Φερσεφόνας ἥξω θαλάμους,",
        [
            "1022",
            "wil"
        ]
    ],
    [
        "S L S L L S S L",
        "σὲ τὸν θανόντ᾽ οὔποτ᾽ ἐμᾷ",
        [
            "1023",
            "ia+ch"
        ]
    ],
    [
        "S L L L L S S L",
        "προδοῦσα ψυχᾷ κατὰ γᾶς.",
        [
            "1024",
            "wil"
        ]
    ],
    [
        "S L L S L S",
        "ἴτω φῶς γάμοι τε:",
        [
            "1025",
            "ba2",
            "",
            "BH"
        ]
    ],
    [
        "L S S S L L [ ^ 2 1 ]",
        "†εἴθε τινἐς εὐναὶ†",
        [
            "1026a",
            "corrupt"
        ]
    ],
    [
        "S L L S S L L",
        "δικαίων ὑμεναίων",
        [
            "1026b",
            "ph"
        ]
    ],
    [
        "S L L",
        "ἐν Ἄργει",
        [
            "1027a",
            "ba"
        ]
    ],
    [
        "S L S S L S [ ^ 2 2 ]",
        "†φανῶσι τέκνοισιν",
        [
            "1027b",
            "corrupt"
        ]
    ],
    [
        "S L L L L S S L [ ^ 2 3 ]",
        "ὁ σὸς δ᾽† εὐναῖος γαμέτας",
        [
            "1028",
            "corrupt"
        ]
    ],
    [
        "L L L L L S S L",
        "συντηχθεὶς αὔραις ἀδόλοις",
        [
            "1029",
            "wil"
        ]
    ],
    [
        "L L L S S L S",
        "γενναίας ἀλόχοιο.",
        [
            "1030",
            "ph"
        ]
    ],
    [
        "S L",
        "Χο. ἰώ,",
        [
            "1071a",
            "e.m."
        ]
    ],
    [
        "S L L S L S L L S L",
        "γύναι, δεινὸν ἔργον ἐξειργάϲω.",
        [
            "1072",
            "doc2"
        ]
    ],
    [
        "S L S L L L S L L L S L",
        "Ιφ. ἀπωλόμην δύϲτηνοϲ, Ἀργείων κόραι.",
        [
            "1073",
            "ia3[^24]"
        ]
    ],
    [
        "S S",
        "Χο. ἒ ἔ,",
        [
            "1073a",
            "e.m."
        ]
    ],
    [
        "S S S S S S L",
        "ϲχέτλια τάδε παθών,",
        [
            "1074",
            "doc"
        ]
    ],
    [
        "S L L S L S L L S L",
        "τὸ πάντολμον ἔργον ὄψηι τάλαϲ;",
        [
            "1075",
            "doc2"
        ]
    ],
    [
        "S L S L",
        "Χο. ἰὼ τάλαϲ·",
        [
            "1077",
            "ia"
        ]
    ],
    [
        "S S S L S L L S S L [ ^ 2 6 ] S L",
        "μετέλαχεϲ τύχαϲ Οἰδιπόδα, γέρον,",
        [
            "1078",
            "doc2"
        ]
    ],
    [
        "S L",
        "Χο. ἰώ·",
        [
            "1113a",
            "e.m."
        ]
    ],
    [
        "S S L L L L L S S L",
        "τάδε δὴ παίδων ἤδη φθιμένων",
        [
            "1114",
            "an2"
        ]
    ],
    [
        "L L S S L S S L S S L",
        "ὀϲτᾶ φέρεται. λάβετʼ, ἀμφίπολοι,",
        [
            "1115",
            "an2"
        ]
    ],
    [
        "L L S S L L S S L L",
        "γραίαϲ ἀμενοῦϲ (οὐ γὰρ ἔνεϲτιν",
        [
            "1116",
            "an2"
        ]
    ],
    [
        "L L L L S S L L",
        "ῥώμη παίδων ὑπὸ πένθουϲ)",
        [
            "1117",
            "an2"
        ]
    ],
    [
        "L L S S L L L S S L",
        "πολλοῦ τε χρόνου ζώϲηϲ μέτρα δὴ",
        [
            "1118",
            "an2"
        ]
    ],
    [
        "S S L S S L L S S L L",
        "καταλειβομένηϲ τʼ ἄλγεϲι πολλοῖϲ.",
        [
            "1119",
            "an2"
        ]
    ],
    [
        "S S L L L L S S L L",
        "τί γὰρ ἂν μεῖζον τοῦδʼ ἔτι θνητοῖϲ",
        [
            "1120",
            "an2"
        ]
    ],
    [
        "S S L L L",
        "πάθοϲ ἐξεύροιϲ",
        [
            "1121",
            "an"
        ]
    ],
    [
        "L L S S L S S L L",
        "ἢ τέκνα θανόντʼ ἐϲιδέϲθαι;",
        [
            "1122",
            "par"
        ]
    ],
    [
        "S L S L",
        "ΠΑΙΔΕϹ φέρω φέρω,",
        [
            "1123",
            "ia"
        ]
    ],
    [
        "S L S L S L S L S L S L",
        "τάλαινα μᾶτερ, ἐκ πυρᾶϲ πατρὸϲ μέλη,",
        [
            "1124",
            "ia3"
        ]
    ],
    [
        "L S S L L S L S L L",
        "ἐν δʼ ὀλίγωι τἀμὰ πάντα ϲυνθείϲ.",
        [
            "1126",
            "“chor”+ith"
        ]
    ],
    [
        "S L S L",
        "Χο. ἰὼ ἰώ,",
        [
            "1126b[^27]ia"
        ]
    ],
    [
        "L S S S S L S L",
        "παῖ, δάκρυα φέρειϲ φίλαι",
        [
            "1127",
            "lek"
        ]
    ],
    [
        "L S L S L S L",
        "ματρὶ τῶν ὀλωλότων",
        [
            "1128",
            "lek"
        ]
    ],
    [
        "S L S L S S S S L S L S L",
        "ϲποδοῦ τε πλῆθοϲ ὀλίγον ἀντὶ ϲωμάτων",
        [
            "1129",
            "ia3"
        ]
    ],
    [
        "L S S L L S L S L L",
        "εὐδοκίμων δή ποτʼ ἐν Μυκήναιϲ.",
        [
            "1130",
            "“chor”+ith"
        ]
    ],
    [
        "S L S L",
        "Πα. ἄπαιϲ ἄπαιϲ·",
        [
            "1131a",
            "ia"
        ]
    ],
    [
        "S L S L S L S L S L S L",
        "ἐγὼ δʼ ἔρημοϲ ἀθλίου πατρὸϲ τάλαϲ",
        [
            "1131b",
            "ia3"
        ]
    ],
    [
        "S L S L S L S L S L S L",
        "ἔρημον οἶκον ὀρφανεύϲομαι λαβών,",
        [
            "1132",
            "ia3"
        ]
    ],
    [
        "S L S L",
        "Χο. ἰὼ ἰώ·",
        [
            "1133b[^28]ia"
        ]
    ],
    [
        "L S S S S L S L",
        "ποῦ δὲ πόνοϲ ἐμῶν τέκνων,",
        [
            "1134",
            "lek"
        ]
    ],
    [
        "L S L S L S L",
        "ποῦ λοχευμάτων χάριϲ",
        [
            "1135",
            "lek"
        ]
    ],
    [
        "S L S L S S S S L S L S L",
        "τροφαί τε ματρὸϲ ἄυπνά τʼ ὀμμάτων τέλη",
        [
            "1136",
            "ia3"
        ]
    ],
    [
        "L S S L L S L S L L",
        "καὶ φίλιαι προϲβολαὶ προϲώπων;",
        [
            "1137",
            "“chor”+ith"
        ]
    ],
    [
        "S L S L S L S L L S L",
        "Πα. βεβᾶϲιν, οὐκέτʼ εἰϲίν· οἴμοι πάτερ·",
        [
            "1138",
            "ia2+cr"
        ]
    ],
    [
        "S L S L S L S L",
        "πυρὸϲ τετακόταϲ ϲποδῶι·",
        [
            "1140",
            "ia2"
        ]
    ],
    [
        "S L L L S L S L L",
        "ποτανοὶ δʼ ἤνυϲαν τὸν Ἅιδαν.",
        [
            "1141",
            "ba+ith"
        ]
    ],
    [
        "L L S L S S S S L S L S L",
        "ἆρʼ ἀϲπιδοῦχοϲ ἔτι ποτʼ ἀντιτείϲομαι",
        [
            "1143",
            "ia3"
        ]
    ],
    [
        "L L S L S L S L",
        "αἰαῖ τύχαϲ· ἅλιϲ γόων,",
        [
            "1147",
            "ia2"
        ]
    ],
    [
        "L S S L L S L S L L",
        "τοῦ φθιμένου πατρὸϲ ἐκδικαϲτάν.",
        [
            "1151",
            "“chor”+ith"
        ]
    ],
    [
        "S S S S S S S L S L",
        "ἀέρι φερόμενον οἴχεται.",
        [
            "1155",
            "ia2"
        ]
    ],
    [
        "S L S L L S S S L",
        "Χο. δυοῖν δʼ ἄχη, ματρί τʼ ἔλιπεν,",
        [
            "1156",
            "ia2"
        ]
    ],
    [
        "S L S L L S L S L L",
        "ϲέ τʼ οὔποτʼ ἄλγη πατρῶια λείψει.",
        [
            "1157",
            "ia+ith"
        ]
    ],
    [
        "S L S S S S L S L",
        "Πα. ἔκλαυϲα τόδε κλύων ἔποϲ",
        [
            "1160",
            "ia2"
        ]
    ],
    [
        "S S S S S S S L S L",
        "ϲτυγνότατον· ἔθιγέ μου φρενῶν.",
        [
            "1161",
            "ia2"
        ]
    ],
    [
        "L S S S L L S S S L",
        "Χο. ὦ τέκνον, ἔβαϲ· οὐκέτι φίλον",
        [
            "1162",
            "ia2"
        ]
    ],
    [
        "S L S L L S L S L L",
        "φίλαϲ ἄγαλμʼ ὄψομαί ϲε ματρόϲ.",
        [
            "1163",
            "ia+ith"
        ]
    ],
    [
        "L L S S L L S S L L",
        "ϲτείχωμεν, Ἄδραϲθʼ, ὅρκια δῶμεν",
        [
            "1232",
            "an2"
        ]
    ],
    [
        "L L S S L L S S L L",
        "τῶιδʼ ἀνδρὶ πόλει τʼ· ἄξια δʼ ἡμῖν",
        [
            "1233",
            "an2"
        ]
    ],
    [
        "S S L L L S S L L",
        "προμεμοχθήκαϲι ϲέβεϲθαι.",
        [
            "1234",
            "par"
        ]
    ]
]