[
    [
        "L S S L S S L S S L S S",
        "ἀμφιπύλου γὰρ ἔσω μελάθρου γόον (",
        [
            "135)",
            "4",
            "dactyls"
        ]
    ],
    [
        "L S S L S S L S S L S S",
        "ἔκλυον, οὐδὲ συνήδομαι, ὦ γύναι,",
        [
            "4",
            "dactyls",
            "",
            "H"
        ]
    ],
    [
        "L S S L S S",
        "ἄλγεσι δώματος,",
        [
            "2",
            "dactyls"
        ]
    ],
    [
        "L L S S L S L L",
        "τίς σοί ποτε τᾶς ἀπλάτου",
        [
            "151",
            "hagesichorean"
        ]
    ],
    [
        "L S L S L L S S L S L L",
        "εἰ δὲ σὸς πόσις καινὰ λέχη σεβίζει, (",
        [
            "155)",
            "cretic",
            "+",
            "hipponactean"
        ]
    ],
    [
        "L S L S L L S S L S L L",
        "ἀλλὰ βᾶσά νιν δεῦρο πόρευσον οἴκων (",
        [
            "180)",
            "cretic",
            "+",
            "hipponactean"
        ]
    ],
    [
        "L L L S L S L S L S L",
        "ἀχὰν ἄιον πολύστονον γόων",
        [
            "205",
            "mol+2ia[^2]"
        ]
    ],
    [
        "S S S S S S S S S S L",
        "λιγυρὰ δ’ ἄχεα μογερὰ βοᾶι",
        [
            "206",
            "2ia[^3]"
        ]
    ],
    [
        "S L S L S S L S S L L",
        "τὸν ἐν λέχει προδόταν κακόνυμφον·",
        [
            "207",
            "~\\^~e⏑D‒"
        ]
    ],
    [
        "S S S L S S S S L S",
        "θεοκλυτεῖ δ’ ἄδικα παθοῦσα",
        [
            "208",
            "2tr[^4]"
        ]
    ],
    [
        "L L S L S L S S L S S L S",
        "τὰν Ζηνὸς ὁρκίαν Θέμιν, ἅ νιν ἔβασεν",
        [
            "209",
            "‒e⏑D⏑"
        ]
    ],
    [
        "L S S L S S L",
        "Ἑλλάδ’ ἐς ἀντίπορον",
        [
            "210",
            "D"
        ]
    ],
    [
        "S S S S S S S L S L",
        "δι’ ἅλα νύχιον ἐφ’ ἁλμυρὰν",
        [
            "211",
            "2ia[^5]"
        ]
    ],
    [
        "L L L S S L L",
        "Πόντου κλῆιδ’ ἀπεράντου.",
        [
            "212",
            "pherecratean[^6]"
        ]
    ],
    [
        "S ¯ S S ¯ S S ¯ ¯ ¯ S ¯ ¯ S D ¯ e ¯",
        "ἄνω ποταμῶν ἱερῶν χωροῦσι παγαί,",
        [
            "410-11"
        ]
    ],
    [
        "¯ S ¯ ¯ ¯ S S ¯ S S ¯ e ¯ D H",
        "καὶ δίκα καὶ πάντα πάλιν στρέφεται:",
        []
    ],
    [
        "¯ S S ¯ S S ¯ ¯ ¯ S ¯ D ¯ e",
        "ἀνδράσι μὲν δόλιαι βουλαί, θεῶν δ᾽",
        []
    ],
    [
        "¯ S S ¯ S S ¯ ¯ D ¯",
        "οὐκέτι πίστις ἄραρεν.",
        []
    ],
    [
        "¯ S ¯ ¯ ¯ S S ¯ S S ¯ ¯ ¯ S ¯ ¯ e ¯ D ¯ e ¯ H B a",
        "τὰν δ᾽ ἐμὰν εὔκλειαν ἔχειν βιοτὰν στρέψουσι φᾶμαι:",
        [
            "415-16"
        ]
    ],
    [
        "¯ S S ¯ S S ¯ ¯ ¯ S ¯ S ¯ ¯ D ¯ e b a",
        "οὐκέτι δυσκέλαδος φάμα γυναῖκας ἕξει.",
        [
            "420"
        ]
    ],
    [
        "¯ ¯ S S ¯ S S ¯ ¯ ¯ S ¯ ¯ ¯ D ¯ e ¯",
        "μοῦσαι δὲ παλαιγενέων λήξουσ᾽ ἀοιδῶν",
        []
    ],
    [
        "¯ S ¯ ¯ ¯ S S ¯ S S ¯ e ¯ D H s",
        "τὰν ἐμὰν ὑμνεῦσαι ἀπιστοσύναν.",
        []
    ],
    [
        "¯ S S ¯ S S ¯ ¯ ¯ S ¯ D ¯ e",
        "οὐ γὰρ ἐν ἁμετέρᾳ γνώμᾳ λύρας",
        []
    ],
    [
        "¯ S S ¯ S S ¯ ¯ D ¯",
        "ὤπασε θέσπιν ἀοιδὰν",
        [
            "425"
        ]
    ],
    [
        "¯ S ¯ ¯ ¯ S S ¯ S S ¯ ¯ ¯ S ¯ ¯ e ¯ D ¯ e ¯ H B s",
        "Φοῖβος ἁγήτωρ μελέων: ἐπεὶ ἀντάχησ᾽ ἂν ὕμνον",
        []
    ],
    [
        "¯ S ¯ ¯ ¯ S ¯ ¯ ¯ S ¯ E ¯ e = e L e L e H s",
        "ἀρσένων γέννᾳ. μακρὸς δ᾽ αἰὼν ἔχει",
        []
    ],
    [
        "¯ S S ¯ S S ¯ ¯ ¯ S ¯ S ¯ ¯ D ¯ e b a",
        "πολλὰ μὲν ἁμετέραν ἀνδρῶν τε μοῖραν εἰπεῖν.",
        [
            "430"
        ]
    ],
    [
        "S ¯ S ¯ ¯ S S ¯ S ¯ ¯ i a , a r i s t o p h a n e a n",
        "σὺ δ᾽ ἐκ μὲν οἴκων πατρίων ἔπλευσας",
        []
    ],
    [
        "¯ S S ¯ S S ¯ S S ¯ S S ¯ S ¯ ¯ p r a x i l l e a n [ ^ 8 ]",
        "μαινομένᾳ κραδίᾳ διδύμους ὁρίσασα Πόντου",
        []
    ],
    [
        "¯ ¯ S S ¯ S ¯ t e l e s i l l e a n",
        "πέτρας: ἐπὶ δὲ ξένᾳ",
        [
            "435"
        ]
    ],
    [
        "¯ ¯ S S ¯ S ¯ t e l e s i l l e a n ∫",
        "ναίεις χθονί, τᾶς ἀνάν-",
        []
    ],
    [
        "¯ ¯ ¯ S S ¯ S ¯ g l y c o n i c ∫",
        "δρου κοίτας ὀλέσασα λέκ-",
        []
    ],
    [
        "¯ S ¯ S S ¯ S ¯ g l y c o n i c ∫",
        "τρον, τάλαινα, φυγὰς δὲ χώ-",
        []
    ],
    [
        "¯ S ¯ S S ¯ ¯ p h e r e c r a t e a n",
        "ρας ἄτιμος ἐλαύνῃ.",
        []
    ],
    [
        "S ¯ S ¯ ¯ S S ¯ S ¯ ¯ i a , a r i s t o p h a n e a n",
        "βέβακε δ᾽ ὅρκων χάρις, οὐδ᾽ ἔτ᾽ αἰδὼς",
        []
    ],
    [
        "¯ S S ¯ S S ¯ S S ¯ S S ¯ S ¯ ¯ p r a x i l l e a n",
        "Ἑλλάδι τᾷ μεγάλᾳ μένει, αἰθερία δ᾽ ἀνέπτα.",
        [
            "440-41"
        ]
    ],
    [
        "¯ ¯ S S ¯ S ¯ t e l e s i l l e a n",
        "σοὶ δ᾽ οὔτε πατρὸς δόμοι,",
        []
    ],
    [
        "¯ ¯ S S ¯ S ¯ t e l e s i l l e a n ∫",
        "δύστανε, μεθορμίσα-",
        []
    ],
    [
        "¯ ¯ ¯ S S ¯ S ¯ g l y c o n i c ∫",
        "σθαι μόχθων πάρα, σῶν τε λέκ-",
        []
    ],
    [
        "¯ ¯ ¯ S S ¯ S ¯ g l y c o n i c ∫",
        "τρων ἄλλα βασίλεια κρείσ-",
        [
            "445a"
        ]
    ],
    [
        "¯ S ¯ S S ¯ ¯ p h e r e c r a t e a n",
        "σων δόμοισιν ἐπέστα.",
        [
            "445b"
        ]
    ],
    [
        "S L S S L S S L L L S L L L S L S D L e L e",
        "ἔρωτες ὑπὲρ μὲν ἄγαν ἐλθόντες οὐκ εὐδοξίαν",
        []
    ],
    [
        "L S S L S S L S L S S L S S L L D L D L",
        "οὐδ’ ἀρετὰν παρέδωκαν ἀνδράσιν· εἰ δ’ ἅλις ἔλθοι (",
        [
            "630)"
        ]
    ],
    [
        "L S L L L S S L S S L L e L D L",
        "Κύπρις, οὐκ ἄλλα θεὸς εὔχαρις οὕτω.",
        []
    ],
    [
        "L S L L L S S L S S L L L S L L e L D L e L",
        "μήποτ’, ὦ δέσποιν’, ἐπ’ ἐμοὶ χρυσέων τόξων ἀφείης",
        []
    ],
    [
        "L S L L L S L S L L e L i t h [ ^ 9 ]",
        "ἱμέρωι χρίσασ’ ἄφυκτον οἰστόν. (",
        [
            "635)"
        ]
    ],
    [
        "L L S S L S S L L L S L L L S L",
        "στέργοι δέ με σωφροσύνα, δώρημα κάλλιστον θεῶν·",
        [
            "636-7",
            "‒D‒e‒e"
        ]
    ],
    [
        "L S S L S S L L L S S L S S L L",
        "μηδέ ποτ’ ἀμφιλόγους ὀργὰς ἀκόρεστά τε νείκη",
        [
            "638-9",
            "D‒D‒"
        ]
    ],
    [
        "L S L L L S S L S S L L",
        "θυμὸν ἐκπλήξασ’ ἑτέροις ἐπὶ λέκτροις",
        [
            "640-1",
            "e‒D‒"
        ]
    ],
    [
        "L S L L L S S L S S L L L S L L",
        "προσβάλοι δεινὰ Κύπρις, ἀπτολέμους δ’ εὐνὰς σεβίζουσ’",
        [
            "642-3",
            "e‒D‒e‒"
        ]
    ],
    [
        "L S L L L S L S L L",
        "ὀξύφρων κρίνοι λέχη γυναικῶν.",
        [
            "644",
            "e‒ith"
        ]
    ],
    [
        "L S S L L S S L 2 c h o r i a m b s",
        "ὦ πατρίς, ὦ δώματα, μὴ (",
        [
            "645)"
        ]
    ],
    [
        "L S S L S L L a r i s t o p h a n e a n",
        "δῆτ’ ἄπολις γενοίμαν",
        []
    ],
    [
        "L S S S S S L h y p o d o c h m i a c ? [ ^ 1 0 ]",
        "οἰκτρότατον ἀχέων.",
        []
    ],
    [
        "S S L S S L S L S L L",
        "θανάτωι θανάτωι πάρος δαμείην",
        [
            "650",
            "T",
            "+ba[^11]"
        ]
    ],
    [
        "L S L L L S S L w i l a m o w i t z i a n ∫",
        "ἁμέραν τάνδ’ ἐξανύσα-",
        []
    ],
    [
        "S L L L L S S L w i l a m o w i t z i a n ∫",
        "σα· μόχθων δ’ οὐκ ἄλλος ὕπερ-",
        []
    ],
    [
        "S L L S S L S L L h i p p o n a c t e a n",
        "θεν ἢ γᾶς πατρίας στέρεσθαι.",
        []
    ],
    [
        "L S S L L S S L 2 c h o r i a m b s",
        "εἴδομεν, οὐκ ἐξ ἑτέρων",
        []
    ],
    [
        "L S S L S L L a r i s t o p h a n e a n",
        "μῦθον ἔχω φράσασθαι· (",
        [
            "655)"
        ]
    ],
    [
        "L S S S S S L h y p o d o c ?",
        "δεινότατα παθέων.",
        []
    ],
    [
        "S S L S S L S L S L L T + b a",
        "ἀχάριστος ὄλοιθ’ ὅτωι πάρεστιν",
        []
    ],
    [
        "L S L L L S S L w i l a m o w i t z i a n",
        "μὴ φίλους τιμᾶν καθαρᾶν (",
        [
            "660)"
        ]
    ],
    [
        "S L L L L S S L w i l a m o w i t z i a n",
        "ἀνοίξαντα κλῆιδα φρενῶν·",
        []
    ],
    [
        "S L L S S L S L L h i p p o n a c t e a n",
        "ἐμοὶ μὲν φίλος οὔποτ’ ἔσται.",
        []
    ],
    [
        "S L S S L S S L S L S L S D S e",
        "Ἐρεχθεΐδαι τὸ παλαιὸν ὄλβιοι",
        []
    ],
    [
        "L S L L L S S L S S L e L D",
        "καὶ θεῶν παῖδες μακάρων, ἱερᾶς (",
        [
            "825)"
        ]
    ],
    [
        "L L S L L L S S L S S L L e L D",
        "χώρας ἀπορθήτου τ’ ἄπο, φερβόμενοι (",
        [
            "827)"
        ]
    ],
    [
        "L S S L S S L L L S S L S S L D L D",
        "κλεινοτάταν σοφίαν, αἰεὶ διὰ λαμπροτάτου (",
        [
            "829)"
        ]
    ],
    [
        "L L S L L L S S L S S L L L e L D L",
        "βαίνοντες ἁβρῶς αἰθέρος, ἔνθα ποθ’ ἁγνὰς (",
        [
            "830)"
        ]
    ],
    [
        "L S S L S S L L L S L L D L e L",
        "ἐννέα Πιερίδας Μούσας λέγουσι (",
        [
            "833)"
        ]
    ],
    [
        "L L L S S L S L L h i p p o n a c t e a n [ ^ 1 2 ]",
        "ξανθὰν Ἁρμονίαν φυτεῦσαι·",
        []
    ],
    [
        "L L S S L S S L S L S L L D S e",
        "τοῦ καλλινάου τ’ ἐπὶ Κηφισοῦ ῥοαῖς (",
        [
            "835)"
        ]
    ],
    [
        "L S L L L S S L S S L e L D",
        "τὰν Κύπριν κλήιζουσιν ἀφυσσαμέναν",
        []
    ],
    [
        "L L S S L L S S L S S L L e L D",
        "χώρας καταπνεῦσαι μετρίας ἀνέμων (",
        [
            "838-839)"
        ]
    ],
    [
        "L S S L L L L L S S L S S L D L D",
        "ἡδυπνόους αὔρας· αἰεὶ δ’ ἐπιβαλλομέναν (",
        [
            "840)"
        ]
    ],
    [
        "L L S L L L S S L S S L L L e L D L",
        "χαίταισιν εὐώδη ῥοδέων πλόκον ἀνθέων",
        []
    ],
    [
        "L S S L S S L L L S L L D L e L",
        "τᾶι Σοφίαι παρέδρους πέμπειν Ἔρωτας, (",
        [
            "843)"
        ]
    ],
    [
        "L L L S S L S L L h i p p o n a c t e a n",
        "παντοίας ἀρετᾶς ξυνεργούς. (",
        [
            "845)"
        ]
    ],
    [
        "L L S S L S S L L D",
        "πῶς οὖν ἱερῶν ποταμῶν",
        []
    ],
    [
        "L S S L S L d o d r a n s",
        "ἢ πόλις ἢ φίλων",
        []
    ],
    [
        "L S L S L L i t h y p h a l l i c",
        "πόμπιμός σε χώρα",
        []
    ],
    [
        "L L S S L S L L h a g e s i c h o r e a n",
        "τὰν παιδολέτειραν ἕξει,",
        []
    ],
    [
        "L L S S L S L L h a g e s i c h o r e a n",
        "τὰν οὐχ ὁσίαν μέταυλον; (",
        [
            "850)"
        ]
    ],
    [
        "L L S S L L L t e l e s i l l e a n",
        "σκέψαι τεκέων πλαγάν,",
        []
    ],
    [
        "L L S S L S L L h a g e s i c h o r e a n",
        "σκέψαι φόνον οἷον αἴρηι.",
        []
    ],
    [
        "L L S S L S L L h a g e s i c h o r e a n",
        "μή, πρὸς γονάτων σε πάνται",
        []
    ],
    [
        "L L S S L S L t e l e s i l l e a n",
        "πάντως ἱκετεύομεν,",
        []
    ],
    [
        "L S S L L a d o n e a n",
        "τέκνα φονεύσηις. (",
        [
            "855)"
        ]
    ],
    [
        "S L S S L S S L S D",
        "πόθεν θράσος",
        []
    ],
    [
        "L S L S L L i t h y p h a l l i c",
        "καρδίαι τε λήψηι",
        []
    ],
    [
        "L L S S L S L L h a g e s i c h o r e a n",
        "δεινὰν προσάγουσα τόλμαν;",
        []
    ],
    [
        "L L S S L S L L h a g e s i c h o r e a n",
        "πῶς δ’ ὄμματα προσβαλοῦσα (",
        [
            "860)"
        ]
    ],
    [
        "L L S S L L L t e l e s i l l e a n",
        "τέκνοις ἄδακρυν μοῖραν",
        []
    ],
    [
        "L L S S L S L L h a g e s i c h o r e a n",
        "σχήσεις φόνου; οὐ δυνάσηι",
        []
    ],
    [
        "L L S S L S L L h a g e s i c h o r e a n",
        "παίδων ἱκετᾶν πιτνόντων",
        []
    ],
    [
        "L L S S L S L t e l e s i l l e a n",
        "τέγξαι χέρα φοινίαν",
        []
    ],
    [
        "L S S L L a d o n e a n",
        "τλάμονι θυμῶι.",
        []
    ],
    [
        "L L S S L S S L L L S L",
        "νῦν ἐλπίδες οὐκέτι μοι παίδων ζόας,",
        [
            "976",
            "‒D‒e"
        ]
    ],
    [
        "L S L L L S S L S S L L",
        "οὐκέτι· στείχουσι γὰρ ἐς φόνον ἤδη.",
        [
            "977",
            "e‒D‒"
        ]
    ],
    [
        "L S L L L S S L S S L L",
        "δέξεται νύμφα χρυσέων ἀναδεσμᾶν",
        [
            "978",
            "e‒D‒"
        ]
    ],
    [
        "L S L L L S L L",
        "δέξεται δύστανος ἄταν·",
        [
            "979",
            "e‒e‒[^13]"
        ]
    ],
    [
        "L L L S S L L L S L L",
        "ξανθᾶι δ’ ἀμφὶ κόμαι θήσει τὸν Ἅιδα",
        [
            "980-1",
            "D(contr)‒e‒[^14]"
        ]
    ],
    [
        "L S L L S L",
        "κόσμον αὐτὰ χεροῖν.",
        [
            "982",
            "2",
            "cretics"
        ]
    ],
    [
        "L L S S L S S L L L S L",
        "πείσει χάρις ἀμβρόσιός τ’ αὐγὰ πέπλον",
        [
            "983",
            "‒D‒e"
        ]
    ],
    [
        "L S L L L S S L S S L L",
        "χρυσότευκτόν",
        []
    ],
    [
        "L S L L L S S L S S L L",
        "νερτέροις δ’ ἤδη πάρα νυμφοκομήσει.",
        [
            "985",
            "e‒D‒"
        ]
    ],
    [
        "L S L L L S L L",
        "τοῖον εἰς ἕρκος πεσεῖται",
        [
            "986",
            "e‒e‒"
        ]
    ],
    [
        "L L L S S L L L S L L",
        "καὶ μοῖραν θανάτου δύστανος· ἄταν δ’",
        [
            "987",
            "D(contr)‒e‒"
        ]
    ],
    [
        "L S L L S L",
        "οὐχ ὑπεκφεύξεται.",
        [
            "988",
            "2",
            "cretics"
        ]
    ],
    [
        "S L S S L S S L S L S L S L L",
        "σὺ δ’, ὦ τάλαν ὦ κακόνυμφε κηδεμὼν τυράννων,",
        [
            "990-1"
        ]
    ],
    [
        "L S L S L L",
        "παισὶν οὐ κατειδὼς",
        [
            "992",
            "ithyphallic"
        ]
    ],
    [
        "S S L S S L S S L S S L",
        "ὄλεθρον βιοτᾶι προσάγεις ἀλόχωι",
        [
            "993",
            "A[^16]"
        ]
    ],
    [
        "S L S S L S S L",
        "τε σᾶι στυγερὸν θάνατον.",
        [
            "994",
            "⏑D"
        ]
    ],
    [
        "L L S L L S L S L L",
        "δύστανε, μοίρας ὅσον παροίχηι.",
        [
            "995",
            "iambic",
            "+",
            "ithyphallic"
        ]
    ],
    [
        "S L S S L S S L S L S L S L L e r a s m + i t h y p h a l l i c",
        "μεταστένομαι δὲ σὸν ἄλγος, ὦ τάλαινα παίδων",
        [
            "996-7"
        ]
    ],
    [
        "L S L S L L i t h y p h a l l i c",
        "μᾶτερ, ἃ φονεύσεις",
        [
            "998"
        ]
    ],
    [
        "S S L S S L S S L S S L A",
        "τέκνα νυμφιδίων ἕνεκεν λεχέων,",
        [
            "999"
        ]
    ],
    [
        "S L S S L S S L S D",
        "ἅ σοι προλιπὼν ἀνόμως",
        [
            "1000"
        ]
    ],
    [
        "L L S L L S L S L L i a m b i c + i t h y p h a l l i c",
        "ἄλλαι ξυνοικεῖ πόσις συνεύνωι.",
        []
    ],
    [
        "S L L S L L S L b a c c h i a c , d o c h m i a c",
        "ἰὼ Γᾶ τε καὶ παμφαὴς",
        []
    ],
    [
        "L L L S L S S S S S S L 2 d o c h m i a c s",
        "ἀκτὶς Ἁλίου, κατίδετ’ ἴδετε τὰν",
        []
    ],
    [
        "S S S L S L S L L S L 2 d o c h m i a c s",
        "ὀλομέναν γυναῖκα, πρὶν φοινίαν",
        []
    ],
    [
        "S L L S L S L L S L 2 d o c h m i a c s",
        "τέκνοις προσβαλεῖν χέρ’ αὐτοκτόνον·",
        []
    ],
    [
        "L L L S L S S S L m o l + d o c [ ^ 1 7 ]",
        "σᾶς γὰρ χρυσέας ἀπὸ γονᾶς (",
        [
            "1255)"
        ]
    ],
    [
        "S L L S L L S S L S L 2 d o c h m i a c s",
        "ἔβλαστεν, θεοῦ δ’ αἷμα",
        []
    ],
    [
        "S S S L S L d o c h m i a c",
        "φόβος ὑπ’ ἀνέρων.",
        []
    ],
    [
        "L S S L S L S S S L S L 2 d o c h m i a c s ∫",
        "ἀλλά νιν, ὦ φάος διογενές, κάτειρ-",
        []
    ],
    [
        "S S S L S L S L L S L 2 d o c h m i a c s ∫",
        "γε κατάπαυσον ἔξελ’ οἴκων τάλαι-",
        []
    ],
    [
        "L S S L S L S S S L S L 2 d o c h m i a c s",
        "ναν φονίαν τ’ Ἐρινὺν",
        []
    ],
    [
        "S L L S L L S L b a c c h i a c , d o c h m i a c",
        "μάταν μόχθος ἔρρει τέκνων,",
        []
    ],
    [
        "S L S S S L S S S S S S L 2 d o c h m i a c s",
        "μάταν ἄρα γένος φίλιον ἔτεκες, ὦ",
        []
    ],
    [
        "S S S L S L S L L S L 2 d o c h m i a c s",
        "κυανεᾶν λιποῦσα Συμπληγάδων",
        []
    ],
    [
        "S L L S L S L L S L 2 d o c h m i a c s",
        "πετρᾶν ἀξενωτάταν ἐσβολάν.",
        []
    ],
    [
        "L L L S L S S S L m o l + d o c h m i a c",
        "δειλαία, τί σοι φρενοβαρὴς (",
        [
            "1265)"
        ]
    ],
    [
        "S L L S L L S S L S L 2 d o c h m i a c s",
        "χόλος προσπίτνει καὶ ζαμενὴς",
        []
    ],
    [
        "S S S L S L d o c h m i a c",
        "φόνος ἀμείβεται;",
        []
    ],
    [
        "S S S L S L S S S L S L 2 d o c h m i a c s ∫",
        "χαλεπὰ γὰρ βροτοῖς ὁμογενῆ μιά-",
        []
    ],
    [
        "S S S L S L S L L S L 2 d o c h m i a c s ∫",
        "σματ’",
        []
    ],
    [
        "S S S L S L S S S L S L 2 d o c h m i a c s",
        "δὰ θεόθεν πίτνοντ’ ἐπὶ δόμοις ἄχη. (",
        [
            "1270)"
        ]
    ],
    [
        "S L L S L S L L S L",
        "ἀκούεις βοὰν ἀκούεις τέκνων;",
        [
            "1273",
            "2",
            "dochmiacs"
        ]
    ],
    [
        "S L L S L S S S L S L",
        "ἰὼ τλᾶμον, ὦ κακοτυχὲς γύναι.",
        [
            "1274",
            "2",
            "dochmiacs"
        ]
    ],
    [
        "L L S L L / / L S L L L S L",
        "Πα.^α^ οἴμοι, τί δράσω; ποῖ φύγω μητρὸς χέρας;",
        [
            "1271",
            "ia3"
        ]
    ],
    [
        "L L S L S / / L S L S L S L",
        "Πα. οὐκ οἶδ’, ἀδελφὲ φίλτατ’· ὀλλύμεσθα γάρ.",
        [
            "1272",
            "ia3"
        ]
    ],
    [
        "S L L S L S L L S L",
        "Χο. παρέλθω δόμους; ἀρῆξαι φόνον",
        [
            "1275",
            "2",
            "dochmiacs"
        ]
    ],
    [
        "S L L S L",
        "δοκεῖ μοι τέκνοις.",
        [
            "1276",
            "dochmiac"
        ]
    ],
    [
        "L L S L S L S L S L S L",
        "Πα.^α^ ναί, πρὸς θεῶν, ἀρήξατ’· ἐν δέοντι γάρ.",
        [
            "1277",
            "ia3"
        ]
    ],
    [
        "L L S L L / / L S L S L S L",
        "Πα.^β^ ὡς ἐγγὺς ἤδη γ’ ἐσμὲν ἀρκύων ξίφους.",
        [
            "1278",
            "ia3"
        ]
    ],
    [
        "S L L S L S S S L S L 2 d o c h m i a c s ∫",
        "Χο. τάλαιν’, ὡς ἄρ’ ἦσθα πέτρος ἢ σίδα-",
        []
    ],
    [
        "S L L S L d o c h m i a c",
        "ρος ἅτις τέκνων (",
        [
            "1280)"
        ]
    ],
    [
        "S S S S S S S L S L",
        "ὃν ἔτεκες ἄροτον αὐτόχει-",
        [
            "1281a",
            "2",
            "iambic",
            "metra"
        ]
    ],
    [
        "S L L S L",
        "ρι μοίραι κτενεῖς.",
        [
            "1281b",
            "dochmiac"
        ]
    ],
    [
        "S L L S L S L L S L",
        "μίαν δὴ κλύω μίαν τῶν πάρος",
        [
            "1282",
            "2",
            "dochmiacs"
        ]
    ],
    [
        "S L L S L S S S L S L",
        "γυναῖκ’ ἐν φίλοις χέρα βαλεῖν τέκνοις,",
        [
            "1283",
            "2",
            "dochmiacs"
        ]
    ],
    [
        "L L S L L / / L S L S L S L",
        "Ἰνὼ μανεῖσαν ἐκ θεῶν, ὅθ’ ἡ Διὸς",
        [
            "1284",
            "ia3"
        ]
    ],
    [
        "S L S L S L S L S L S L",
        "δάμαρ νιν ἐξέπεμπε δωμάτων ἄλαις·",
        [
            "1285",
            "ia3"
        ]
    ],
    [
        "S L L S L S L L S L",
        "πίτνει δ’ ἁ τάλαιν’ ἐς ἅλμαν φόνωι",
        [
            "1286",
            "2",
            "dochmiacs"
        ]
    ],
    [
        "S L L S L",
        "τέκνων δυσσεβεῖ,",
        [
            "1287",
            "dochmiac",
            "",
            "H"
        ]
    ],
    [
        "S L S L L / / L S L S L S L",
        "δυοῖν τε παίδοιν ξυνθανοῦσ’ ἀπόλλυται.",
        [
            "1289",
            "ia3"
        ]
    ],
    [
        "S L L S L S S S L S L",
        "τί δῆτ’ οὐ γένοιτ’ ἂν ἔτι δεινόν; ὦ",
        [
            "1290",
            "2",
            "dochmiacs"
        ]
    ],
    [
        "S L L S L",
        "γυναικῶν λέχος",
        [
            "1291",
            "dochmiac"
        ]
    ],
    [
        "S S S S S S S L S L",
        "πολύπονον, ὅσα βροτοῖς ἔρε-",
        [
            "1292",
            "2ia∫"
        ]
    ],
    [
        "S L L S L",
        "ξας ἤδη κακά.",
        [
            "1292a",
            "dochmiac"
        ]
    ]
]