[
    [
        "S S L S S L S S L S S L",
        "τί ϲὺ πρὸϲ μελάθροιϲ; τί ϲὺ τῆιδε πολεῖϲ,",
        [
            "29",
            "an2"
        ]
    ],
    [
        "L S S L L L L S S L",
        "Φοῖβʼ; ἀδικεῖϲ αὖ τιμὰϲ ἐνέρων",
        [
            "30",
            "an2"
        ]
    ],
    [
        "S S L S S L L S S L L",
        "ἀφοριζόμενοϲ καὶ καταπαύων;",
        [
            "31",
            "an2"
        ]
    ],
    [
        "L L S S L S S L L L",
        "οὐκ ἤρκεϲέ ϲοι μόρον Ἀδμήτου",
        [
            "32",
            "an2"
        ]
    ],
    [
        "S S L L L L L S S L",
        "διακωλῦϲαι, Μοίραϲ δολίωι",
        [
            "33",
            "an2"
        ]
    ],
    [
        "L L S S L L S S L L",
        "ϲφήλαντι τέχνηι; νῦν δʼ ἐπὶ τῆιδʼ αὖ",
        [
            "34",
            "an2"
        ]
    ],
    [
        "S S L L L L L S S L",
        "χέρα τοξήρη φρουρεῖϲ ὁπλίϲαϲ,",
        [
            "35",
            "an2"
        ]
    ],
    [
        "L S S L L S S L L L",
        "ἣ τόδʼ ὑπέϲτη, πόϲιν ἐκλύϲαϲʼ",
        [
            "36",
            "an2"
        ]
    ],
    [
        "L L S S L S S L L",
        "αὐτὴ προθανεῖν Πελίου παῖϲ;",
        [
            "37",
            "par"
        ]
    ],
    [
        "S S L S S L L L S S L",
        "τί ποθʼ ἡϲυχία πρόϲθεν μελάθρων;",
        [
            "77",
            "an2"
        ]
    ],
    [
        "S S L L L S S L L L",
        "τί ϲεϲίγηται δόμοϲ Ἀδμήτου;",
        [
            "78",
            "an2"
        ]
    ],
    [
        "L L S S L S S L L L",
        "— ἀλλʼ οὐδὲ φίλων πέλαϲ ⟨ἔϲτ᾽⟩ οὐδείϲ,",
        [
            "79",
            "an2"
        ]
    ],
    [
        "L S S L L S S L S S L",
        "ὅϲτιϲ ἂν εἴποι πότερον φθιμένην",
        [
            "80",
            "an2"
        ]
    ],
    [
        "L S S L L L L L L",
        "χρὴ βαϲίλειαν πενθεῖν ἢ ζῶϲʼ",
        [
            "81",
            "an2"
        ]
    ],
    [
        "S S L L L S S L S S L",
        "ἔτι φῶϲ λεύϲϲει Πελίου τόδε παῖϲ",
        [
            "82",
            "an2"
        ]
    ],
    [
        "L L S S L L S S L L",
        "Ἄλκηϲτιϲ, ἐμοὶ πᾶϲί τʼ ἀρίϲτη",
        [
            "83",
            "an2"
        ]
    ],
    [
        "L L S S L",
        "δόξαϲα γυνὴ",
        [
            "84",
            "an"
        ]
    ],
    [
        "S S L L L S S L L",
        "πόϲιν εἰϲ αὑτῆϲ γεγενῆϲθαι.",
        [
            "85",
            "par"
        ]
    ],
    [
        "S L S L S L S L",
        "— κλύει τιϲ ἢ ϲτεναγμὸν ἢ",
        [
            "86",
            "2ia"
        ]
    ],
    [
        "L L S L S L S L",
        "χειρῶν κτύπον κατὰ ϲτέγαϲ",
        [
            "87",
            "2ia"
        ]
    ],
    [
        "L S S L S L S L",
        "ἢ γόον ὡϲ πεπραγμένων;",
        [
            "88",
            "ch+ia"
        ]
    ],
    [
        "L L L S S L S S L",
        "— οὐ μὰν οὐδέ τιϲ ἀμφιπόλων",
        [
            "89",
            "sp+D"
        ]
    ],
    [
        "S L S S L S S L",
        "ϲτατίζεται ἀμφὶ πύλαϲ.",
        [
            "90",
            "⏑D"
        ]
    ],
    [
        "L L S S L S S L L",
        "εἰ γὰρ μετακοίμιοϲ ἄταϲ,",
        [
            "91",
            "erasm"
        ]
    ],
    [
        "L L L S L L",
        "ὦ Παιάν, φανείηϲ.",
        [
            "92",
            "mol+ba"
        ]
    ],
    [
        "L L S S L S S L L",
        "— οὔ τἂν φθιμέναϲ γʼ ἐϲιώπων.",
        [
            "93",
            "par"
        ]
    ],
    [
        "L L L L L L L L S S L L",
        "— †οὐ γὰρ δὴ φροῦδόϲ γʼ ἐξ οἴκων νέκυϲ ἤδη.†",
        [
            "94",
            "?"
        ]
    ],
    [
        "S S L L L S S L L L",
        "— πόθεν; οὐκ αὐχῶ. τί ϲε θαρϲύνει;",
        [
            "95",
            "2an"
        ]
    ],
    [
        "L S S L L S S L L L",
        "— πῶϲ ἂν ἔρημον τάφον Ἄδμητοϲ",
        [
            "96",
            "2an"
        ]
    ],
    [
        "L L S S L S S L L",
        "κεδνῆϲ ἂν ἔπραξε γυναικόϲ;",
        [
            "97",
            "par"
        ]
    ],
    [
        "S L S L S L S L",
        "— πυλῶν πάροιθε δʼ οὐχ ὁρῶ",
        [
            "98",
            "2ia"
        ]
    ],
    [
        "L L S L S L S L",
        "πηγαῖον ὡϲ νομίζεται",
        [
            "99",
            "2ia"
        ]
    ],
    [
        "L S S L S L S L",
        "χέρνιβʼ ἐπὶ φθιτῶν πύλαιϲ.",
        [
            "100",
            "ch+ia"
        ]
    ],
    [
        "L L L S S L S S L",
        "— χαίτα τʼ οὔτιϲ ἐπὶ προθύροιϲ",
        [
            "101",
            "sp+D"
        ]
    ],
    [
        "S L S S L S S L",
        "τομαῖοϲ, †ἃ δὴ νεκύων",
        [
            "102",
            "⏑D"
        ]
    ],
    [
        "L L L L L S S S L L",
        "πένθει πίτνει, οὐδὲ νεολαία†",
        [
            "103",
            "?"
        ]
    ],
    [
        "L L L S L L",
        "δουπεῖ χεὶρ γυναικῶν.",
        [
            "104",
            "mol+ba"
        ]
    ],
    [
        "L L S S L S S L L",
        "— καὶ μὴν τόδε κύριον ἦμαρ",
        [
            "105",
            "par"
        ]
    ],
    [
        "S S L L",
        "— †τί τόδʼ αὐδᾶιϲ;†",
        [
            "106",
            "?"
        ]
    ],
    [
        "L L S S L S S L L",
        "— ὧι χρή ϲφε μολεῖν κατὰ γαίαϲ.",
        [
            "107",
            "par"
        ]
    ],
    [
        "S S L L L S S L S S L",
        "— ἔθιγεϲ ψυχᾶϲ, ἔθιγεϲ δὲ φρενῶν.",
        [
            "108",
            "2an"
        ]
    ],
    [
        "L L S S L S S L S S L",
        "— χρὴ τῶν ἀγαθῶν διακναιομένων",
        [
            "109",
            "2an"
        ]
    ],
    [
        "L S S L L S S L L",
        "χρηϲτὸϲ ἀπʼ ἀρχῆϲ νενόμιϲται.",
        [
            "111",
            "par"
        ]
    ],
    [
        "L L S L L S L",
        "ἀλλ' οὐδὲ ναυκληρίαν",
        [
            "112",
            "ia+cr"
        ]
    ],
    [
        "L S L S L L",
        "ἔϲθʼ ὅποι τιϲ αἴαϲ",
        [
            "113",
            "ith"
        ]
    ],
    [
        "L L L S S L",
        "ϲτείλαϲ, ἢ Λυκίαν",
        [
            "114",
            "D,cont"
        ]
    ],
    [
        "L S S L S S L",
        "εἴτʼ ἐπὶ τὰϲ ἀνύδρουϲ",
        [
            "115",
            "D"
        ]
    ],
    [
        "L L S S L S L",
        "†Ἀμμωνιάδαϲ ἕδραϲ†,",
        [
            "116",
            "?"
        ]
    ],
    [
        "L L L S S L L",
        "δυϲτάνου παραλύϲαι",
        [
            "117",
            "pher"
        ]
    ],
    [
        "L L S L S S S S L",
        "ψυχάν· μόροϲ γὰρ ἀπότομοϲ",
        [
            "118",
            "2ia"
        ]
    ],
    [
        "S L S L S L S L",
        "πλάθει. θεῶν δʼ ἐπʼ ἐϲχάραν",
        [
            "119",
            "2ia"
        ]
    ],
    [
        "L S S L S S L S S L S L L",
        "οὐκέτʼ ἔχω τίνα μηλοθύταν πορευθῶ.",
        [
            "120-1",
            "prax"
        ]
    ],
    [
        "S L S L L S L",
        "μόνα δʼ ἄν, εἰ φῶϲ τόδʼ ἦν",
        [
            "122",
            "ia+cr"
        ]
    ],
    [
        "L S L S L L",
        "ὄμμαϲιν δεδορκὼϲ",
        [
            "123",
            "ith"
        ]
    ],
    [
        "L L L S S L",
        "Φοίβου παῖϲ, προλιποῦϲʼ",
        [
            "124",
            "D,",
            "cont"
        ]
    ],
    [
        "L S S L S S L",
        "ἦλθʼ ἂν ἕδραϲ ϲκοτίουϲ",
        [
            "125",
            "D"
        ]
    ],
    [
        "L L S S L",
        "Ἅιδα τε πύλαϲ·",
        [
            "126",
            "an"
        ]
    ],
    [
        "L L L S S L L",
        "δμαθένταϲ γὰρ ἀνίϲτη,",
        [
            "127",
            "pher"
        ]
    ],
    [
        "S L S L S S S S L",
        "πρὶν αὐτὸν εἷλε διόβολον",
        [
            "128",
            "2ia"
        ]
    ],
    [
        "L L S L S L S L",
        "πλῆκτρον πυρὸϲ κεραυνίου.",
        [
            "129",
            "2ia"
        ]
    ],
    [
        "L S S L S S L S S L S L L",
        "νῦν δὲ βίου τίνʼ ἔτʼ ἐλπίδα προϲδέχωμαι;",
        [
            "130-1",
            "prax"
        ]
    ],
    [
        "L L S S L S S L L",
        "πάντων δὲ θεῶν ἐπὶ βωμοῖϲ",
        [
            "133",
            "2an"
        ]
    ],
    [
        "L L L L S S L L L",
        "αἱμόρραντοι θυϲίαι πλήρειϲ,",
        [
            "134",
            "2an"
        ]
    ],
    [
        "S L L S L L S L S L",
        "— ἰὼ Ζεῦ, τίϲ ἂν πᾶι πόροϲ κακῶν",
        [
            "213",
            "doc+hypodoc"
        ]
    ],
    [
        "S L S L S L S L",
        "γένοιτο καὶ λύϲιϲ τύχαϲ",
        [
            "214a",
            "2ia"
        ]
    ],
    [
        "L S L S L S L",
        "ἃ πάρεϲτι κοιράνοιϲ;",
        [
            "214b",
            "lek"
        ]
    ],
    [
        "L S S L L L S L",
        "καὶ μέλανα ϲτολμὸν πέπλων",
        [
            "216",
            "chor+ia"
        ]
    ],
    [
        "L S S L S L L",
        "ἀμφιβαλώμεθʼ ἤδη;",
        [
            "217",
            "arist"
        ]
    ],
    [
        "L S L S L L S L S L",
        "— δεινὰ μέν, φίλοι, δεινά γʼ, ἀλλʼ ὅμωϲ",
        [
            "218",
            "hypodoc+hypodoc"
        ]
    ],
    [
        "L L S S L S L L",
        "θεῶν γὰρ δύναμιϲ μεγίϲτα.",
        [
            "220",
            "hagesichorean",
            "",
            "Has"
        ]
    ],
    [
        "L L S L",
        "— ὦναξ Παιάν,",
        [
            "221a",
            "ia"
        ]
    ],
    [
        "L L S L S L S L L L S L",
        "ἔξευρε μηχανάν τινʼ Ἀδμήτωι κακῶν.",
        [
            "221b",
            "3ia"
        ]
    ],
    [
        "S L S L S L S L S L L",
        "— πόριζε δὴ πόριζε· καὶ πάροϲ γὰρ",
        [
            "222",
            "2ia+ba"
        ]
    ],
    [
        "L S L L L L",
        "†τοῦδʼ ἐφεῦρεϲ† καὶ νῦν",
        [
            "223",
            "?"
        ]
    ],
    [
        "S L S S L S S L S L",
        "λυτήριοϲ ἐκ θανάτου γενοῦ,",
        [
            "224",
            "⏑ibyc"
        ]
    ],
    [
        "S S L S S L S L L",
        "φόνιον δʼ ἀπόπαυϲον Ἅιδαν.",
        [
            "225",
            "diomedean"
        ]
    ],
    [
        "S L",
        "παπαῖ ⟨ ⟩",
        [
            "226",
            "?"
        ]
    ],
    [
        "L L S L S L S L",
        "ὦ παῖ Φέρητοϲ, οἷʼ ἔπρα-",
        [
            "227a",
            "2ia∫"
        ]
    ],
    [
        "L S L S L S L",
        "ξαϲ δάμαρτοϲ ϲᾶϲ ϲτερείϲ.",
        [
            "227b",
            "lek"
        ]
    ],
    [
        "L S S L S L S L",
        "καὶ πλέον ἢ βρόχωι δέραν",
        [
            "229a",
            "chor+ia"
        ]
    ],
    [
        "L S S L S L L",
        "οὐρανίωι πελάϲϲαι.",
        [
            "229b",
            "arist"
        ]
    ],
    [
        "L S L S L L S L S L",
        "— τὰν γὰρ οὐ φίλαν ἀλλὰ φιλτάταν",
        [
            "230",
            "hypodoc+hypodoc"
        ]
    ],
    [
        "S L S S L S L L",
        "ἐν ἄματι τῶιδʼ ἐπόψηι.",
        [
            "232",
            "hagesichorean",
            "",
            "Hsa"
        ]
    ],
    [
        "S L S L",
        "— ἰδοὺ ἰδού·",
        [
            "233a",
            "ia",
            "",
            "H"
        ]
    ],
    [
        "L L S L L L S L S L S L",
        "ἥδʼ ἐκ δόμων δὴ καὶ πόϲιϲ πορεύεται.",
        [
            "233b",
            "3ia"
        ]
    ],
    [
        "S L S L S L S L S L L",
        "— βόαϲον ὦ ϲτέναξον ὦ Φεραία",
        [
            "234",
            "2ia+ba"
        ]
    ],
    [
        "L L S L L",
        "χθὼν τὰν ἀρίϲταν",
        [
            "235",
            "penthimeres"
        ]
    ],
    [
        "S L S S L S S L S L",
        "γυναῖκα μαραινομέναν νόϲωι",
        [
            "236",
            "⏑ibyc"
        ]
    ],
    [
        "S S L S S L S L L",
        "κατὰ γᾶϲ χθόνιον παρʼ Ἄιδαν.",
        [
            "237",
            "diomedean"
        ]
    ],
    [
        "L S S L L S S L L L",
        "οὔποτε φήϲω γάμον εὐφραίνειν",
        [
            "238",
            "an2"
        ]
    ],
    [
        "S S L L L L S S L L",
        "πλέον ἢ λυπεῖν, τοῖϲ τε πάροιθεν",
        [
            "239",
            "an2"
        ]
    ],
    [
        "L L S S L L L S S L",
        "τεκμαιρόμενοϲ καὶ τάϲδε τύχαϲ",
        [
            "240",
            "an2"
        ]
    ],
    [
        "L L S S L L S S L L",
        "λεύϲϲων βαϲιλέωϲ, ὅϲτιϲ ἀρίϲτηϲ",
        [
            "241",
            "an2"
        ]
    ],
    [
        "S S L S S L L S S L L",
        "ἀπλακὼν ἀλόχου τῆϲδʼ ἀβίωτον",
        [
            "242",
            "an2"
        ]
    ],
    [
        "S S L S S L S S L L",
        "τὸν ἔπειτα χρόνον βιοτεύϲει.",
        [
            "243",
            "par"
        ]
    ],
    [
        "L S S L S S L S L",
        "ΑΛΚΗϹΤΙϹ Ἅλιε καὶ φάοϲ ἁμέραϲ",
        [
            "244",
            "ibycean"
        ]
    ],
    [
        "L S S L S L",
        "οὐράνιαί τε δῖ-",
        [
            "245a",
            "dodrans∫"
        ]
    ],
    [
        "L S S L S L L",
        "ναι νεφέλαϲ δρομαίου.",
        [
            "245b",
            "arist"
        ]
    ],
    [
        "S L S L S S S S L S L S L",
        "ΑΔΜΗΤΟϹ ὁρᾶι ϲε κἀμέ, δύο κακῶϲ πεπραγόταϲ,",
        [
            "246",
            "3ia"
        ]
    ],
    [
        "L L S L S L S L S L S L",
        "οὐδὲν θεοὺϲ δράϲανταϲ ἀνθʼ ὅτου θανῆι.",
        [
            "247",
            "3ia"
        ]
    ],
    [
        "L S S L S S L S L",
        "Αλ. γαῖά τε καὶ μελάθρων ϲτέγαι",
        [
            "248",
            "ibycean"
        ]
    ],
    [
        "L S S L S L",
        "νυμφίδιοί τε κοῖ-",
        [
            "249a",
            "dodrans∫"
        ]
    ],
    [
        "L S S L S L L",
        "ται πατρίαϲ Ἰωλκοῦ.",
        [
            "249b",
            "arist"
        ]
    ],
    [
        "S L S L S S L S S L",
        "Αλ. ὁρῶ δίκωπον ὁρῶ ϲκάφοϲ ἐν",
        [
            "252",
            "\\^ssdd"
        ]
    ],
    [
        "L L S S L S L L",
        "λίμναι· νεκύων δὲ πορθμεὺϲ",
        [
            "253",
            "hagesichorean"
        ]
    ],
    [
        "S L S S S L L S L",
        "ἔχων χέρʼ ἐπὶ κοντῶι Χάρων",
        [
            "254",
            "2ia"
        ]
    ],
    [
        "L L S L S L L",
        "μʼ ἤδη καλεῖ· Τί μέλλειϲ;",
        [
            "255",
            "ia+ba"
        ]
    ],
    [
        "S L L S S L L S S L L",
        "ἐπείγου· ϲὺ κατείργειϲ. τάδε τοί με",
        [
            "256a",
            "pher+chor"
        ]
    ],
    [
        "L S S L S L L",
        "ϲπερχόμενοϲ ταχύνει.",
        [
            "256b",
            "arist"
        ]
    ],
    [
        "S L S L S S L S S L",
        "Αλ. ἄγει μʼ ἄγει τιϲ, ἄγει με τιϲ (οὐχ",
        [
            "259",
            "\\^ssdd"
        ]
    ],
    [
        "S L S S L S L L",
        "ὁρᾶιϲ;) νεκύων ἐϲ αὐλάν,",
        [
            "260",
            "hagesichorean"
        ]
    ],
    [
        "S L S S S L L S L",
        "ὑπʼ ὀφρύϲι κυαναυγέϲι",
        [
            "261",
            "2ia"
        ]
    ],
    [
        "S L S L S L L",
        "βλέπων πτερωτὸϲ Ἅιδαϲ.",
        [
            "262",
            "ia+ba"
        ]
    ],
    [
        "S L L S S L L S S L L",
        "τί ῥέξειϲ; ἄφεϲ. οἵαν ὁδὸν ἁ δει-",
        [
            "263a",
            "ph+chor∫"
        ]
    ],
    [
        "L S S L S L L",
        "λαιοτάτα προβαίνω.",
        [
            "263b",
            "arist"
        ]
    ],
    [
        "S S S S S S L L",
        "Αλ. μέθετε μέθετέ μʼ ἤδη·",
        [
            "266",
            "ith"
        ]
    ],
    [
        "L S L S L S L",
        "κλίνατʼ, οὐ ϲθένω ποϲίν.",
        [
            "267",
            "lek"
        ]
    ],
    [
        "L S S L L S S L",
        "πληϲίον Ἅιδαϲ, ϲκοτία",
        [
            "268",
            "chor+chor"
        ]
    ],
    [
        "S L L S L S L L",
        "δʼ ἐπʼ ὄϲϲοιϲι νὺξ ἐφέρπει.",
        [
            "269",
            "doc+ba"
        ]
    ],
    [
        "S S S L S S L",
        "τέκνα τέκνʼ, οὐκέτι δὴ",
        [
            "270",
            "hexasyllable?[^1]",
            "",
            "H"
        ]
    ],
    [
        "L S S L L L L L",
        "οὐκέτι μάτηρ ϲφῶιν ἔϲτιν.",
        [
            "271",
            "paroemiac"
        ]
    ],
    [
        "L L S L S S S S S S S L L",
        "χαίροντεϲ, ὦ τέκνα, τόδε φάοϲ ὁρῶιτον.",
        [
            "272",
            "2ia+ba"
        ]
    ],
    [
        "* * L L S S L L S S L L * *",
        "οἴμοι· τόδʼ ἔποϲ λυπρὸν ἀκούειν",
        [
            "273",
            "an2"
        ]
    ],
    [
        "L L S S L L L L L L",
        "καὶ παντὸϲ ἐμοὶ θανάτου μεῖζον.",
        [
            "274",
            "an2"
        ]
    ],
    [
        "L L S S L L S S L L",
        "μὴ πρόϲ ⟨ϲε⟩ θεῶν τλῆιϲ με προδοῦναι,",
        [
            "275",
            "an2"
        ]
    ],
    [
        "L L L L L L S S L",
        "μὴ πρὸϲ παίδων οὓϲ ὀρφανιεῖϲ,",
        [
            "276a",
            "an2"
        ]
    ],
    [
        "L S S L L",
        "ἀλλʼ ἄνα, τόλμα.",
        [
            "276b",
            "an"
        ]
    ],
    [
        "L L S S L L S S L L",
        "ϲοῦ γὰρ φθιμένηϲ οὐκέτʼ ἂν εἴην,",
        [
            "277",
            "an2"
        ]
    ],
    [
        "S L L S L L S L S L",
        "ΠΑΙϹ ἰώ μοι τύχαϲ. μαῖα δὴ κάτω",
        [
            "393",
            "doc",
            "hypodoc"
        ]
    ],
    [
        "S L S L S L S L",
        "βέβακεν, οὐκέτʼ ἔϲτιν, ὦ",
        [
            "394",
            "2ia"
        ]
    ],
    [
        "S S S L S L",
        "πάτερ, ὑφʼ ἁλίωι,",
        [
            "395",
            "doc"
        ]
    ],
    [
        "S S L S S L S S L S S L L L",
        "προλιποῦϲα δʼ ἐμὸν βίον ὠρφάνιϲεν τλάμων.",
        [
            "396-7",
            "A+sp"
        ]
    ],
    [
        "S S S S S S S L [ ^ 2 ] L",
        "†ἴδε γὰρ ἴδε βλέφαρον καὶ†",
        [
            "398",
            "?"
        ]
    ],
    [
        "S S S L S L",
        "παρατόνουϲ χέραϲ.",
        [
            "399",
            "doc",
            "",
            "Ba"
        ]
    ],
    [
        "S S L S S L S L L S L S L L",
        "ὑπάκουϲον ἄκουϲον, ὦ μᾶτερ, ἀντιάζω.",
        [
            "400",
            "T+ith",
            "",
            "H"
        ]
    ],
    [
        "S L S L L L",
        "ἐγώ ϲʼ ἐγώ, μᾶτερ,",
        [
            "401",
            "ia+sp"
        ]
    ],
    [
        "S L L S L S S L S L",
        "†καλοῦμαι ὁ ϲὸϲ ποτὶ ϲοῖϲι πίτ-",
        [
            "402",
            "?"
        ]
    ],
    [
        "L S S L S L L",
        "νων† ϲτόμαϲιν νεοϲϲόϲ.",
        [
            "403",
            "arist"
        ]
    ],
    [
        "S S S L S L L S L S L",
        "Πα. νέοϲ ἐγώ, πάτερ, λείπομαι φίλαϲ",
        [
            "406",
            "doc",
            "hypodoc"
        ]
    ],
    [
        "S L S L S L S L",
        "μονόϲτολόϲ τε ματρόϲ· ὦ",
        [
            "407",
            "2ia"
        ]
    ],
    [
        "S S S L S L",
        "ϲχέτλια δὴ παθὼν",
        [
            "408",
            "doc"
        ]
    ],
    [
        "S S L S S L S S L S S L L L",
        "ἐγὼ ἔργʼ, ἃ ϲὺ ϲύγκαϲί μοι ϲυνέτλαϲ κούρα.",
        [
            "409-10",
            "A+sp"
        ]
    ],
    [
        "S S L S S L S L L L L S L L",
        "ἀνόνατʼ ἀνόνατʼ ἐνύμφευϲαϲ οὐδὲ γήρωϲ",
        [
            "412",
            "T+ith"
        ]
    ],
    [
        "S L S L L L",
        "ἔβαϲ τέλοϲ ϲὺν τᾶιδʼ·",
        [
            "413",
            "ia+sp"
        ]
    ],
    [
        "L S S L S S L S S L S L",
        "ἔφθιτο γὰρ πάροϲ· οἰχομέναϲ δὲ ϲοῦ,",
        [
            "414",
            "ddds‒"
        ]
    ],
    [
        "L S S L S L L",
        "μᾶτερ, ὄλωλεν οἶκοϲ.",
        [
            "415",
            "arist"
        ]
    ],
    [
        "L S S L S S L",
        "ὦ Πελίου θύγατερ,",
        [
            "435",
            "D"
        ]
    ],
    [
        "L L S S L S S L S L L",
        "χαίρουϲά μοι εἰν Ἀίδα δόμοιϲιν",
        [
            "436",
            "‒D+ba"
        ]
    ],
    [
        "S S L S S L S L S L L",
        "τὸν ἀνάλιον οἶκον οἰκετεύοιϲ.",
        [
            "437",
            "T+ba"
        ]
    ],
    [
        "L L S S L S S L L",
        "ἴϲτω δʼ Ἀίδαϲ ὁ μελαγχαί-",
        [
            "438",
            "erasm∫"
        ]
    ],
    [
        "L S S L S S L L",
        "ταϲ θεὸϲ ὅϲ τʼ ἐπὶ κώπαι",
        [
            "439",
            "D‒"
        ]
    ],
    [
        "L S S L S S L",
        "πηδαλίωι τε γέρων",
        [
            "440",
            "D"
        ]
    ],
    [
        "L S L S L L",
        "νεκροπομπὸϲ ἵζει",
        [
            "441",
            "ith"
        ]
    ],
    [
        "S S L S S L S L S L L",
        "πολὺ δὴ πολὺ δὴ γυναῖκʼ ἀρίϲταν",
        [
            "442",
            "T+ba"
        ]
    ],
    [
        "L L S S L S L S L",
        "λίμναν Ἀχεροντίαν πορεύ-",
        [
            "443",
            "‒dss∫"
        ]
    ],
    [
        "L S S L S L L",
        "ϲαϲ ἐλάται δικώπωι.",
        [
            "444",
            "arist"
        ]
    ],
    [
        "L S S L S S L",
        "πολλά ϲε μουϲοπόλοι",
        [
            "445",
            "D"
        ]
    ],
    [
        "L L S S L S S L S L L",
        "μέλψουϲι καθʼ ἑπτάτονόν τʼ ὀρείαν",
        [
            "446",
            "‒D+ba"
        ]
    ],
    [
        "S S L S S L S L S L L",
        "χέλυν ἔν τʼ ἀλύροιϲ κλέοντεϲ ὕμνοιϲ,",
        [
            "447",
            "T++ba"
        ]
    ],
    [
        "L L S S L S S L L",
        "Ϲπάρται κυκλὰϲ ἁνίκα Καρνεί-",
        [
            "448",
            "erasm∫"
        ]
    ],
    [
        "L S S L S S L L",
        "ου περινίϲεται ὥρα",
        [
            "449",
            "D‒"
        ]
    ],
    [
        "L S S L S S L",
        "μηνόϲ, ἀειρομέναϲ",
        [
            "450",
            "D"
        ]
    ],
    [
        "L S L S L L",
        "παννύχου ϲελάναϲ,",
        [
            "451",
            "ith"
        ]
    ],
    [
        "S S L S S L S L S L L",
        "λιπαραῖϲί τʼ ἐν ὀλβίαιϲ Ἀθάναιϲ.",
        [
            "452",
            "T+ba"
        ]
    ],
    [
        "L L S S L S L S L",
        "τοίαν ἔλιπεϲ θανοῦϲα μολ-",
        [
            "453",
            "‒dss∫"
        ]
    ],
    [
        "L S S L S L L",
        "πὰν μελέων ἀοιδοῖϲ.",
        [
            "454",
            "arist"
        ]
    ],
    [
        "L S S L S L L",
        "εἴθʼ ἐπʼ ἐμοὶ μὲν εἴη,",
        [
            "455",
            "arist"
        ]
    ],
    [
        "S L L S S L L",
        "δυναίμαν δέ ϲε πέμψαι",
        [
            "456",
            "pher"
        ]
    ],
    [
        "S S L S S L S L L",
        "φάοϲ ἐξ Ἀίδα τεράμνων",
        [
            "457",
            "diomedean"
        ]
    ],
    [
        "L L L L S S L L",
        "καὶ Κωκυτοῖο ῥεέθρων",
        [
            "458",
            "paroemiac"
        ]
    ],
    [
        "S S S L L S L S L L",
        "ποταμίαι νερτέραι τε κώπαι.",
        [
            "459",
            "2cr+ba"
        ]
    ],
    [
        "S S L S S L S L S L L",
        "ϲὺ γάρ, ὦ μόνα ὦ φίλα γυναικῶν,",
        [
            "460",
            "T+ba"
        ]
    ],
    [
        "S S L L",
        "ϲὺ τὸν αὑτᾶϲ",
        [
            "461a",
            "\\^s‒"
        ]
    ],
    [
        "S L S L S S L S L S L L",
        "ἔτλαϲ ⟨ἔτλαϲ⟩ πόϲιν ἀντὶ ϲᾶϲ ἀμεῖψαι",
        [
            "461b",
            "\\^ssdss‒"
        ]
    ],
    [
        "L S S L S S L S S L S S",
        "χθὼν ἐπάνωθε πέϲοι, γύναι. εἰ δέ τι",
        [
            "463",
            "4da"
        ]
    ],
    [
        "L S S L S S L S S L S S",
        "καινὸν ἕλοιτο πόϲιϲ λέχοϲ, ἦ μάλʼ ἂν",
        [
            "464",
            "4da"
        ]
    ],
    [
        "S L S L L S L",
        "ἔμοιγʼ ἂν εἴη ϲτυγη-",
        [
            "465a",
            "ia+cr∫"
        ]
    ],
    [
        "L S L S L L",
        "θεὶϲ τέκνοιϲ τε τοῖϲ ϲοῖϲ.",
        [
            "465b",
            "ith"
        ]
    ],
    [
        "L S S L S L L",
        "ματέροϲ οὐ θελούϲαϲ",
        [
            "466",
            "arist"
        ]
    ],
    [
        "S L L S S L L",
        "πρὸ παιδὸϲ χθονὶ κρύψαι",
        [
            "467",
            "pher"
        ]
    ],
    [
        "S S L S S L S L L",
        "δέμαϲ οὐδὲ πατρὸϲ γεραιοῦ",
        [
            "468a",
            "diomedean"
        ]
    ],
    [
        "S S S L L S L S L L",
        "ὃν ἔτεκον δʼ, οὐκ ἔτλαν ῥύεϲθαι,",
        [
            "469",
            "2cr+ba"
        ]
    ],
    [
        "S S L S S L S L S L L",
        "ϲχετλίω, πολιὰν ἔχοντε χαίταν.",
        [
            "470",
            "T+ba"
        ]
    ],
    [
        "S S L L",
        "ϲὺ δʼ ἐν ἥβαι",
        [
            "471a",
            "\\^s‒"
        ]
    ],
    [
        "S L S L S S L S L S L L",
        "νέαι νέου προθανοῦϲα φωτὸϲ οἴχηι.",
        [
            "471b",
            "\\^sdss‒"
        ]
    ],
    [
        "L S S L S S L S S L S S",
        "ϲυνδυάδοϲ φιλίαϲ ἀλόχου· τὸ γὰρ",
        [
            "473",
            "4da"
        ]
    ],
    [
        "L S S L S S L S S L S S",
        "ἐν βιότωι ϲπάνιον μέροϲ· ἦ γὰρ ἂν",
        [
            "474",
            "4da"
        ]
    ],
    [
        "S L S L L S L",
        "ἔμοιγʼ ἄλυποϲ δι᾽ αἰ-",
        [
            "475a",
            "ia+cr∫"
        ]
    ],
    [
        "L S L S L L",
        "ῶνοϲ ἂν ξυνείη.",
        [
            "475b",
            "ith"
        ]
    ],
    [
        "L S L L L S S L S S L S S L S L L",
        "ὦ πολύξεινοϲ καὶ ἐλευθέρου ἀνδρὸϲ ἀεί ποτʼ οἶκοϲ,",
        [
            "568-9",
            "e‒prax",
            "",
            "Ba"
        ]
    ],
    [
        "S L S S L S S L S L S L L",
        "ϲέ τοι καὶ ὁ Πύθιοϲ εὐλύραϲ Ἀπόλλων",
        [
            "570-1",
            "⏑D⏑e‒"
        ]
    ],
    [
        "L S L S L L",
        "ἠξίωϲε ναίειν,",
        [
            "572",
            "ith"
        ]
    ],
    [
        "S L S L S L S S L",
        "ἔτλα δὲ ϲοῖϲι μηλονόμαϲ",
        [
            "573",
            "⏑e⏑D"
        ]
    ],
    [
        "L S L S L L",
        "ἐν νομοῖϲ γενέϲθαι,",
        [
            "574",
            "ith"
        ]
    ],
    [
        "L S L S S L S L",
        "δοχμιᾶν διὰ κλειτύων",
        [
            "575",
            "gly"
        ]
    ],
    [
        "L L S S L S L L L",
        "βοϲκήμαϲι ϲοῖϲι ϲυρίζων",
        [
            "576",
            "tel+sp"
        ]
    ],
    [
        "L S L S S L L",
        "ποιμνίταϲ ὑμεναίουϲ.",
        [
            "577",
            "ph"
        ]
    ],
    [
        "L S L L L S S L S S L S S L S L L",
        "ϲὺν δʼ ἐποιμαίνοντο χαρᾶι μελέων βαλιαί τε λύγκεϲ,",
        [
            "578-9",
            "e‒prax",
            "",
            "Ba"
        ]
    ],
    [
        "S L S S L S S L S L S L L",
        "ἔβα δὲ λιποῦϲʼ Ὄθρυοϲ νάπαν λεόντων",
        [
            "580-81",
            "⏑D⏑e‒"
        ]
    ],
    [
        "L S L S L L",
        "ἁ δαφοινὸϲ ἴλα·",
        [
            "582",
            "ith"
        ]
    ],
    [
        "S L S L S L S S L",
        "χόρευϲε δʼ ἀμφὶ ϲὰν κιθάραν,",
        [
            "583",
            "⏑e⏑D"
        ]
    ],
    [
        "L S L S L L",
        "Φοῖβε, ποικιλόθριξ",
        [
            "584",
            "ith"
        ]
    ],
    [
        "L S L S S L S L",
        "νεβρὸϲ ὑψικόμων πέραν",
        [
            "585",
            "gly"
        ]
    ],
    [
        "L L S S L S L L L",
        "βαίνουϲʼ ἐλατᾶν ϲφυρῶι κούφωι,",
        [
            "586",
            "tel+sp"
        ]
    ],
    [
        "L L L S S L L",
        "χαίρουϲʼ εὔφρονι μολπᾶι.",
        [
            "587",
            "ph"
        ]
    ],
    [
        "L L S S L S S L",
        "τοιγὰρ πολυμηλοτάταν",
        [
            "588",
            "‒D"
        ]
    ],
    [
        "L S L L L S S L S S L",
        "ἑϲτίαν οἰκεῖ παρὰ καλλίναον",
        [
            "589",
            "e‒D"
        ]
    ],
    [
        "L S L L L S S L S S L",
        "Βοιβίαν λίμναν. ἀρότοιϲ δὲ γυᾶν",
        [
            "590",
            "e‒D"
        ]
    ],
    [
        "L S S L S S L S S L S S",
        "καὶ πεδίων δαπέδοιϲ ὅρον ἀμφὶ μὲν",
        [
            "591",
            "4da"
        ]
    ],
    [
        "L S S L S L L",
        "ἀελίου κνεφαίαν",
        [
            "592",
            "arist",
            "",
            "Ha"
        ]
    ],
    [
        "L L S S L S S L S L",
        "ἱππόϲταϲιν †αἰθέρα τὰν† Μολοϲ-",
        [
            "593",
            "?"
        ]
    ],
    [
        "L S S L",
        "ϲῶν ⟨        ⟩ τίθεται,",
        [
            "594",
            "?"
        ]
    ],
    [
        "L S L L L S S L L",
        "πόντιον δʼ Αἰγαῖον ἐπʼ ἀκτὰν",
        [
            "595",
            "e‒D‒"
        ]
    ],
    [
        "S S S L L S L S L L",
        "ἀλίμενον Πηλίου κρατύνει.",
        [
            "596",
            "cr+ith"
        ]
    ],
    [
        "L L S S L S S L",
        "καὶ νῦν δόμον ἀμπετάϲαϲ",
        [
            "597",
            "‒D"
        ]
    ],
    [
        "L S L L L S S L S S L",
        "δέξατο ξεῖνον νοτερῶι βλεφάρωι,",
        [
            "598",
            "e‒D"
        ]
    ],
    [
        "L S L L L S S L S S L",
        "τᾶϲ φίλαϲ κλαίων ἀλόχου νέκυν ἐν",
        [
            "599",
            "e‒D"
        ]
    ],
    [
        "L S S L S S L S S L S S",
        "δώμαϲιν ἀρτιθανῆ· τὸ γὰρ εὐγενὲϲ",
        [
            "600",
            "4da"
        ]
    ],
    [
        "L S S L S L L",
        "ἐκφέρεται πρὸϲ αἰδῶ.",
        [
            "601",
            "arist",
            "",
            "Ha"
        ]
    ],
    [
        "L L S S L S S L S L",
        "ἐν τοῖϲ ἀγαθοῖϲι δὲ πάντʼ ἔνε-",
        [
            "602",
            "‒dds∫"
        ]
    ],
    [
        "L S S L S S L",
        "ϲτιν· ϲοφίαϲ ἄγαμαι.",
        [
            "603",
            "D"
        ]
    ],
    [
        "L S L L L S S L L",
        "πρὸϲ δʼ ἐμᾶι ψυχᾶι θράϲοϲ ἧϲται",
        [
            "604",
            "e‒D‒"
        ]
    ],
    [
        "S S S L L S L S L L",
        "θεοϲεβῆ φῶτα κεδνὰ πράξειν.",
        [
            "605",
            "cr+ith"
        ]
    ],
    [
        "L L L L L S S L L",
        "ἰὼ ἰώ. ϲχετλία τόλμηϲ,",
        [
            "741",
            "an2"
        ]
    ],
    [
        "L L L L L S S L L",
        "ὦ γενναία καὶ μέγʼ ἀρίϲτη,",
        [
            "742",
            "an2"
        ]
    ],
    [
        "L S S L L S S L L L",
        "χαῖρε· πρόφρων ϲε χθόνιόϲ θʼ Ἑρμῆϲ",
        [
            "743",
            "an2"
        ]
    ],
    [
        "L L S S L L S S L L",
        "Ἅιδηϲ τε δέχοιτ᾽. εἰ δέ τι κἀκεῖ",
        [
            "744",
            "an2"
        ]
    ],
    [
        "S S L S S L L L S S L",
        "πλέον ἔϲτʼ ἀγαθοῖϲ, τούτων μετέχουϲʼ",
        [
            "745",
            "an2"
        ]
    ],
    [
        "L L L L S S L L",
        "Ἅιδου νύμφηι παρεδρεύοιϲ.",
        [
            "746",
            "par"
        ]
    ],
    [
        "L L S S L L L L L",
        "ϲτυγναὶ πρόϲοδοι, ϲτυγναὶ δʼ ὄψειϲ",
        [
            "861b",
            "an2"
        ]
    ],
    [
        "L L S S L",
        "χήρων μελάθρων.",
        [
            "861c",
            "an"
        ]
    ],
    [
        "L L L L S S L S S L",
        "ποῖ βῶ; ποῖ ϲτῶ; τί λέγω; τί δὲ μή;",
        [
            "863",
            "an2"
        ]
    ],
    [
        "L S S L L",
        "πῶϲ ἂν ὀλοίμην;",
        [
            "864",
            "an"
        ]
    ],
    [
        "L S S L S S L L S S L",
        "ἦ βαρυδαίμονα μήτηρ μʼ ἔτεκεν.",
        [
            "865",
            "an2"
        ]
    ],
    [
        "L L S S L L L S S L",
        "ζηλῶ φθιμένουϲ, κείνων ἔραμαι,",
        [
            "866",
            "an2"
        ]
    ],
    [
        "L S S L L L S S L L",
        "κεῖνʼ ἐπιθυμῶ δώματα ναίειν.",
        [
            "867",
            "an2"
        ]
    ],
    [
        "L S S L L L L S S L",
        "οὔτε γὰρ αὐγὰϲ χαίρω προϲορῶν",
        [
            "868",
            "an2"
        ]
    ],
    [
        "L S S L L S S L L L",
        "οὔτʼ ἐπὶ γαίαϲ πόδα πεζεύων·",
        [
            "869",
            "an2"
        ]
    ],
    [
        "L S S L L S S L L L",
        "τοῖον ὅμηρόν μʼ ἀποϲυλήϲαϲ",
        [
            "870",
            "an2"
        ]
    ],
    [
        "L L S S L S S L L",
        "Ἅιδηι Θάνατοϲ παρέδωκεν.",
        [
            "871",
            "par"
        ]
    ],
    [
        "S L S L L S L S L L",
        "Χο. πρόβα πρόβα, βᾶθι κεῦθοϲ οἴκων.",
        [
            "872",
            "ia+ith"
        ]
    ],
    [
        "S L S L S L L S L",
        "Χο. πέπονθαϲ ἄξι᾽ αἰαγμάτων.",
        [
            "873",
            "ia+doc"
        ]
    ],
    [
        "S S",
        "Αδ. ἒ ἔ.",
        [
            "873a",
            "extrametric"
        ]
    ],
    [
        "L L S L S L S L",
        "Χο. τὰν νέρθε δʼ οὐδὲν ὠφελεῖϲ.",
        [
            "875",
            "2ia"
        ]
    ],
    [
        "S L L L",
        "Αδ. ἰώ μοί μοι.",
        [
            "875a",
            "extrametric"
        ]
    ],
    [
        "S L S L S L S S L S S L",
        "Χο. τὸ μήποτʼ εἰϲιδεῖν φιλίαϲ ἀλόχου",
        [
            "876",
            "⏑e⏑D"
        ]
    ],
    [
        "L L S S L S S L L L",
        "Αδ. ἔμνηϲαϲ ὅ μου φρέναϲ ἥλκωϲεν·",
        [
            "878",
            "2an"
        ]
    ],
    [
        "S S L S S L L S S L L",
        "τί γὰρ ἀνδρὶ κακὸν μεῖζον ἁμαρτεῖν",
        [
            "879",
            "2an"
        ]
    ],
    [
        "L L S S L L S S L L",
        "πιϲτῆϲ ἀλόχου; μήποτε γήμαϲ",
        [
            "880",
            "2an"
        ]
    ],
    [
        "L S S L L S S L L L L",
        "ὤφελον οἰκεῖν μετὰ τῆϲδε δόμουϲ.",
        [
            "881",
            "2an"
        ]
    ],
    [
        "L L S S L S S L S S L",
        "ζηλῶ δʼ ἀγάμουϲ ἀτέκνουϲ τε βροτῶν·",
        [
            "882",
            "2an"
        ]
    ],
    [
        "S S L L L L S S L L",
        "μία γὰρ ψυχή, τῆϲ ὑπεραλγεῖν",
        [
            "883",
            "2an"
        ]
    ],
    [
        "L S S L L",
        "μέτριον ἄχθοϲ.",
        [
            "884",
            "an"
        ]
    ],
    [
        "L L S S L L L S S L",
        "παίδων δὲ νόϲουϲ καὶ νυμφιδίουϲ",
        [
            "885",
            "2an"
        ]
    ],
    [
        "L L S S L S S L S S L",
        "εὐνὰϲ θανάτοιϲ κεραϊζομέναϲ",
        [
            "886",
            "2an"
        ]
    ],
    [
        "L L S S L L S S L L",
        "οὐ τλητὸν ὁρᾶν, ἐξὸν ἀτέκνουϲ",
        [
            "887",
            "2an"
        ]
    ],
    [
        "S S L L L S S L L",
        "ἀγάμουϲ τʼ εἶναι διὰ παντόϲ.",
        [
            "888",
            "par"
        ]
    ],
    [
        "S L S L L S L S L L",
        "Χο. τύχα τύχα δυϲπάλαιϲτοϲ ἥκει.",
        [
            "889",
            "ia+ith"
        ]
    ],
    [
        "S L S L S L L S L",
        "Χο. πέραϲ δέ γʼ οὐδὲν ἀλγέων τίθηϲ.",
        [
            "890",
            "ia+doc"
        ]
    ],
    [
        "S S",
        "Αδ. ἒ ἔ.",
        [
            "890a",
            "extrametric"
        ]
    ],
    [
        "L L S L S L S L",
        "Χο. τλᾶθ᾽· οὐ ϲὺ πρῶτοϲ ὤλεϲαϲ…",
        [
            "892",
            "2ia"
        ]
    ],
    [
        "S L L L",
        "Αδ. ἰώ μοί μοι.",
        [
            "892a",
            "extrametric"
        ]
    ],
    [
        "S L S L S L S S L S S L",
        "Χο. γυναῖκα· ϲυμφορὰ δʼ ἑτέρουϲ ἑτέρα",
        [
            "893",
            "⏑e⏑D"
        ]
    ],
    [
        "S L L S L S L L",
        "πιέζει φανεῖϲα θνατῶν.",
        [
            "894",
            "doc+ba"
        ]
    ],
    [
        "L S S L L L L S S L",
        "Αδ. ὦ μακρὰ πένθη λῦπαί τε φίλων",
        [
            "895",
            "2an"
        ]
    ],
    [
        "L S S L L",
        "τῶν ὑπὸ γαίαϲ.",
        [
            "896",
            "an"
        ]
    ],
    [
        "S S L L L L L L L",
        "τί μʼ ἐκώλυϲαϲ ῥῖψαι τύμβου",
        [
            "897",
            "2an"
        ]
    ],
    [
        "S S L L L L S S L L",
        "τάφρον ἐϲ κοίλην καὶ μετʼ ἐκείνηϲ",
        [
            "898",
            "2an"
        ]
    ],
    [
        "L S S L L L L S S L",
        "τῆϲ μέγʼ ἀρίϲτηϲ κεῖϲθαι φθίμενον;",
        [
            "899",
            "2an"
        ]
    ],
    [
        "S S L S S L L L L L",
        "δύο δʼ ἀντὶ μιᾶϲ Ἅιδηϲ ψυχὰϲ",
        [
            "900",
            "2an"
        ]
    ],
    [
        "L L S S L S S L S S L",
        "τὰϲ πιϲτοτάταϲ ϲὺν ἂν ἔϲχεν, ὁμοῦ",
        [
            "901",
            "2an"
        ]
    ],
    [
        "S L S L",
        "Χο. ἐμοί τιϲ ἦν",
        [
            "903",
            "ia"
        ]
    ],
    [
        "L S S L S S L S S L",
        "ἐν γένει, ὧι κόροϲ ἀξιόθρη-",
        [
            "904",
            "4da\\^∫"
        ]
    ],
    [
        "S L S L S L L",
        "νοϲ ὤλετʼ ἐν δόμοιϲιν",
        [
            "905",
            "ia+ba"
        ]
    ],
    [
        "S S L L L L",
        "μονόπαιϲ· ἀλλʼ ἔμπαϲ",
        [
            "906",
            "\\^ds,",
            "chol‒"
        ]
    ],
    [
        "S S S S S S S S S S L",
        "ἔφερε κακὸν ἅλιϲ, ἄτεκνοϲ ὤν,",
        [
            "907-8",
            "2ia"
        ]
    ],
    [
        "S S L S S L L",
        "πολιὰϲ ἐπὶ χαίταϲ",
        [
            "909",
            "\\^dd‒"
        ]
    ],
    [
        "L L S S L L",
        "ἤδη προπετὴϲ ὢν",
        [
            "910",
            "‒d‒"
        ]
    ],
    [
        "S S L S L L",
        "βιότου τε πόρϲω.",
        [
            "911",
            "\\^ds‒"
        ]
    ],
    [
        "L L S S L L L L L",
        "Αδ. ὦ ϲχῆμα δόμων, πῶϲ εἰϲέλθω,",
        [
            "912",
            "2an"
        ]
    ],
    [
        "L L L L S S L L L",
        "πῶϲ δʼ οἰκήϲω, μεταπίπτοντοϲ",
        [
            "913",
            "2an"
        ]
    ],
    [
        "L S S L L S S L S S L",
        "δαίμονοϲ; οἴμοι. πολὺ γὰρ τὸ μέϲον·",
        [
            "914",
            "2an"
        ]
    ],
    [
        "S S L L L L L S S L",
        "τότε μὲν πεύκαιϲ ϲὺν Πηλιάϲιν",
        [
            "915",
            "2an"
        ]
    ],
    [
        "L S S L L L L S S L",
        "ϲύν θʼ ὑμεναίοιϲ ἔϲτειχον ἔϲω",
        [
            "916",
            "2an"
        ]
    ],
    [
        "S S L S S L S S L L L",
        "φιλίαϲ ἀλόχου χέρα βαϲτάζων,",
        [
            "917",
            "2an"
        ]
    ],
    [
        "S S L L L L S S L L",
        "πολυάχητοϲ δʼ εἵπετο κῶμοϲ",
        [
            "918",
            "2an"
        ]
    ],
    [
        "L S S L L L L L L",
        "την τε θανοῦϲαν κἄμʼ ὀλβίζων",
        [
            "919",
            "2an"
        ]
    ],
    [
        "L L S S L L L S S L",
        "ὡϲ εὐπατρίδαι κἀπʼ ἀμφοτέρων",
        [
            "920",
            "2an"
        ]
    ],
    [
        "L S S L L L S S L L",
        "ὄντεϲ ἀριϲτέων ϲύζυγεϲ εἶμεν·",
        [
            "921",
            "2an"
        ]
    ],
    [
        "L S S L L S S L S S L",
        "νῦν δʼ ὑμεναίων γόοϲ ἀντίπαλοϲ",
        [
            "922",
            "2an"
        ]
    ],
    [
        "L L S S L S S L L L",
        "λευκῶν τε πέπλων μέλανεϲ ϲτολμοὶ",
        [
            "923",
            "2an"
        ]
    ],
    [
        "L L S S L",
        "πέμπουϲί μʼ ἔϲω",
        [
            "924",
            "an"
        ]
    ],
    [
        "L L L L S S L L",
        "λέκτρων κοίταϲ ἐϲ ἐρήμουϲ.",
        [
            "925",
            "par"
        ]
    ],
    [
        "S L S L",
        "Χο. παρʼ εὐτυχῆ",
        [
            "926",
            "ia"
        ]
    ],
    [
        "L S S L S S L S S L",
        "ϲοι πότμον ἦλθεν ἀπειροκάκωι",
        [
            "927",
            "4da\\^"
        ]
    ],
    [
        "S L S L S L L",
        "τόδʼ ἄλγοϲ· ἀλλʼ ἔϲωϲαϲ",
        [
            "928",
            "ia+ba"
        ]
    ],
    [
        "S S L L L L",
        "βίοτον καὶ ψυχάν.",
        [
            "929",
            "\\^ds,chol‒"
        ]
    ],
    [
        "S S S S S S S S S S L",
        "ἔθανε δάμαρ, ἔλιπε φιλίαν·",
        [
            "930-1",
            "2ia"
        ]
    ],
    [
        "S S L S S L L",
        "τί νέον τόδε; πολλοὺϲ",
        [
            "932",
            "\\^dd‒"
        ]
    ],
    [
        "L L S S L L",
        "ἤδη παρέλυϲεν",
        [
            "933",
            "‒d‒"
        ]
    ],
    [
        "S S L S L L",
        "θάνατοϲ δάμαρτοϲ.",
        [
            "934",
            "\\^ds‒"
        ]
    ],
    [
        "S L L S S L L",
        "ἐγὼ καὶ διὰ μούϲαϲ",
        [
            "962",
            "pher"
        ]
    ],
    [
        "L S L S S L S L",
        "καὶ μετάρϲιοϲ ἦιξα, καὶ",
        [
            "963",
            "gly"
        ]
    ],
    [
        "L L L S S L S L",
        "πλείϲτων ἁψάμενοϲ λόγων",
        [
            "964",
            "gly"
        ]
    ],
    [
        "L S L S S L L",
        "κρεῖϲϲον οὐδὲν Ἀνάγκαϲ",
        [
            "965",
            "pher"
        ]
    ],
    [
        "L S L S S L S L",
        "ηὗρον οὐδέ τι φάρμακον",
        [
            "966",
            "gly"
        ]
    ],
    [
        "L L L S S L L",
        "Θρήιϲϲαιϲ ἐν ϲανίϲιν, τὰϲ",
        [
            "967",
            "pher"
        ]
    ],
    [
        "L L L S S L L",
        "Ὀρφεία κατέγραψεν",
        [
            "968",
            "pher"
        ]
    ],
    [
        "L S L S S L S L",
        "γῆρυϲ, οὐδʼ ὅϲα Φοῖβοϲ Ἀ-",
        [
            "969",
            "gly∫"
        ]
    ],
    [
        "L S S S S S L",
        "φάρμακα πολυπόνοιϲ",
        [
            "971",
            "dod"
        ]
    ],
    [
        "L S S L S L L",
        "ἀντιτεμὼν βροτοῖϲιν.",
        [
            "972",
            "arist"
        ]
    ],
    [
        "S L L S S L L",
        "μόναϲ δʼ οὔτʼ ἐπὶ βωμοὺϲ",
        [
            "973",
            "pher"
        ]
    ],
    [
        "L L L S S L S L",
        "ἐλθεῖν οὔτε βρέταϲ θεᾶϲ",
        [
            "974",
            "gly"
        ]
    ],
    [
        "L S L S S L S L",
        "ἔϲτιν, οὐ ϲφαγίων κλύει.",
        [
            "975",
            "gly"
        ]
    ],
    [
        "L L L S S L L",
        "μή μοι, πότνια, μείζων",
        [
            "976",
            "pher"
        ]
    ],
    [
        "L L L S S L S L",
        "ἔλθοιϲ ἢ τὸ πρὶν ἐν βίωι.",
        [
            "977",
            "gly"
        ]
    ],
    [
        "L L L S S L L",
        "καὶ γὰρ Ζεὺϲ ὅτι νεύϲηι",
        [
            "978",
            "pher"
        ]
    ],
    [
        "L L L S S L L",
        "ϲὺν ϲοὶ τοῦτο τελευτᾶι.",
        [
            "979",
            "pher"
        ]
    ],
    [
        "L S L S S L S L",
        "καὶ τὸν ἐν Χαλύβοιϲ δαμά-",
        [
            "980",
            "gly∫"
        ]
    ],
    [
        "L S S S S S L",
        "οὐδέ τιϲ ἀποτόμου",
        [
            "982",
            "dod"
        ]
    ],
    [
        "L S S L S L L",
        "λήματόϲ ἐϲτιν αἰδώϲ.",
        [
            "983",
            "arist"
        ]
    ],
    [
        "L S S L L S S L L S S L L L",
        "καί ϲʼ ἐν ἀφύκτοιϲι χερῶν εἷλε θεὰ δεϲμοῖϲ.",
        [
            "984-5",
            "3ch+sp"
        ]
    ],
    [
        "L L L S S L L S S L L",
        "τόλμα δ᾽· οὐ γὰρ ἀνάξειϲ ποτʼ ἔνερθεν",
        [
            "986-7",
            "pher+chor",
            "(internal)"
        ]
    ],
    [
        "L L L S S L S L",
        "κλαίων τοὺϲ φθιμένουϲ ἄνω.",
        [
            "988",
            "gly"
        ]
    ],
    [
        "L L S S L S L",
        "καὶ θεῶν ϲκότιοι φθίνου-",
        [
            "989",
            "tel∫"
        ]
    ],
    [
        "S L S L S S L",
        "ϲι παῖδεϲ ἐν θανάτωι.",
        [
            "990",
            "heptasyllable",
            "Ha"
        ]
    ],
    [
        "S [ ^ 4 ] L S S L S L L",
        "φίλα μὲν ὅτʼ ἦν μεθʼ ἡμῶν,",
        [
            "991",
            "hagesichorean"
        ]
    ],
    [
        "S [ ^ 5 ] L S S L S L L",
        "φίλα δὲ θανοῦϲʼ ἔτʼ ἔϲται,",
        [
            "992",
            "hagesichorean"
        ]
    ],
    [
        "L L S S L S L L",
        "γενναιοτάταν δὲ παϲᾶν",
        [
            "993",
            "hagesichorean"
        ]
    ],
    [
        "L L L S S L S L L",
        "ἐζεύξω κλιϲίαιϲ ἄκοιτιν.",
        [
            "994",
            "hipponactean"
        ]
    ],
    [
        "L S S L L S S L L S S L L L",
        "μηδὲ νεκρῶν ὡϲ φθιμένων χῶμα νομιζέϲθω",
        [
            "995-6",
            "2cho+sp"
        ]
    ],
    [
        "L L L S S L L S S L L",
        "τύμβοϲ ϲᾶϲ ἀλόχου, θεοῖϲι δʼ ὁμοίωϲ",
        [
            "997-8",
            "pher+chor",
            "(internal)"
        ]
    ],
    [
        "L L L S S L S L",
        "τιμάϲθω, ϲέβαϲ ἐμπόρων.",
        [
            "999",
            "gly"
        ]
    ],
    [
        "L L S S L S L",
        "καί τιϲ δοχμίαν κέλευ-",
        [
            "1000",
            "tel∫"
        ]
    ],
    [
        "S L L L S S L",
        "θον ἐμβαίνων τόδʼ ἐρεῖ·",
        [
            "1001",
            "heptasyllable",
            "",
            "H"
        ]
    ],
    [
        "L L S S L S L L",
        "Αὕτα ποτὲ προύθανʼ ἀνδρόϲ,",
        [
            "1002",
            "hagesichorean"
        ]
    ],
    [
        "L L S S L S L L",
        "νῦν δʼ ἔϲτι μάκαιρα δαίμων·",
        [
            "1003",
            "hagesichorean"
        ]
    ],
    [
        "L L S S L S L L",
        "χαῖρʼ, ὦ πότνι᾽, εὖ δὲ δοίηϲ.",
        [
            "1004",
            "hagesichorean"
        ]
    ],
    [
        "L L L S S L S L L",
        "τοῖαί νιν προϲεροῦϲι φῆμαι.",
        [
            "1005",
            "hipponactean"
        ]
    ],
    [
        "* * L L L L L L S S L * *",
        "πολλαὶ μορφαὶ τῶν δαιμονίων,",
        [
            "1159",
            "an2"
        ]
    ],
    [
        "L S S L L L L S S L",
        "πολλὰ δʼ ἀέλπτωϲ κραίνουϲι θεοί·",
        [
            "1160",
            "an2"
        ]
    ],
    [
        "L S S L L L S S L L",
        "καὶ τὰ δοκηθέντʼ οὐκ ἐτελέϲθη,",
        [
            "1161",
            "an2"
        ]
    ],
    [
        "L S S L L S S L S S L",
        "τῶν δʼ ἀδοκήτων πόρον ηὗρε θεόϲ.",
        [
            "1162",
            "an2"
        ]
    ]
]