[
    [
        "L L L L S S L",
        "γενναίων δʼ ἐκ τοκάδων,",
        [
            "42",
            "hept"
        ]
    ],
    [
        "L L L L L S S L",
        "πᾶι δή μοι νίϲηι ϲκοπέλουϲ;",
        [
            "43",
            "wil"
        ]
    ],
    [
        "L L S L S S L",
        "οὐ τᾶιδʼ ὑπήνεμοϲ αὔ-",
        [
            "44",
            "hept∫"
        ]
    ],
    [
        "L L L L L S S L",
        "ρα καὶ ποιηρὰ βοτάνα,",
        [
            "45",
            "wil"
        ]
    ],
    [
        "L L L S L S S L",
        "δινᾶέν θʼ ὕδωρ ποταμῶν",
        [
            "46",
            "wil"
        ]
    ],
    [
        "L L L L L S S L",
        "ἐν πίϲτραιϲ κεῖται πέλαϲ ἄν-",
        [
            "47",
            "wil∫"
        ]
    ],
    [
        "L L L L L S S L",
        "τρων, οὗ ϲοι βλαχαὶ τεκέων;",
        [
            "48",
            "wil"
        ]
    ],
    [
        "L L S S L L L S S L",
        "οὐ τᾶιδε νεμῆι  κλειτὺν δροϲεράν;",
        [
            "50",
            "an2"
        ]
    ],
    [
        "L L L L L L S S L",
        "ὠή, ῥίψω  πέτρον τάχα ϲου·",
        [
            "51",
            "an2",
            "",
            "H"
        ]
    ],
    [
        "S S L S S L S L L",
        "ὕπαγʼ ὦ ὕπαγʼ ὦ κεράϲτα",
        [
            "52",
            "diomed"
        ]
    ],
    [
        "L L S S L S S L L",
        "〈πρὸϲ〉 μηλοβότα ϲ ταϲιωρὸν",
        [
            "53",
            "par"
        ]
    ],
    [
        "S L S L S S L",
        "Κύκλωποϲ ἀγροβάτα.",
        [
            "54",
            "hept"
        ]
    ],
    [
        "L L L L L S S L",
        "ϲπαργῶνταϲ μαϲτοὺϲ χάλαϲον·",
        [
            "55",
            "wil"
        ]
    ],
    [
        "L L L L S S L",
        "δέξαι θηλὰϲ πορίϲαϲʼ",
        [
            "56",
            "hept"
        ]
    ],
    [
        "L L L L L S S L",
        "οὓϲ λείπειϲ ἀρνῶν θαλάμοιϲ.",
        [
            "57",
            "wil"
        ]
    ],
    [
        "S L S L S S L",
        "ποθοῦϲί ϲʼ ἁμερόκοι-",
        [
            "58",
            "hept∫"
        ]
    ],
    [
        "L L L L L S S L",
        "τοι βλαχαὶ ϲμικρῶν τεκέων.",
        [
            "59",
            "wil"
        ]
    ],
    [
        "L L L S L S L L",
        "εἰϲ αὐλὰν πότʼ †ἀμφιβαίνειϲ†",
        [
            "60",
            "?"
        ]
    ],
    [
        "L L L S L S S L",
        "ποιηροὺϲ λιποῦϲα νομοὺϲ",
        [
            "61",
            "wil"
        ]
    ],
    [
        "L L L L L S S L",
        "Αἰτναίων εἴϲω ϲκοπελῶν;",
        [
            "62",
            "wil"
        ]
    ],
    [
        "L S S S S S L S S S L",
        "οὐ τάδε Βρόμιο ϲ, οὐ τάδε χοροὶ",
        [
            "63",
            "ia2"
        ]
    ],
    [
        "L L S L S S L",
        "Βάκχαι τε θυρϲοφόροι,",
        [
            "64",
            "hept",
            "",
            "H"
        ]
    ],
    [
        "L L S L S S L L",
        "οὐ τυμπάνων ἀλαλαγμοί,",
        [
            "65",
            "oct",
            "",
            "H"
        ]
    ],
    [
        "L L L L L S S L",
        "οὐκ οἴνου χλωραὶ ϲταγόνεϲ",
        [
            "67",
            "wil"
        ]
    ],
    [
        "L L S L S S L",
        "κρήναιϲ παρʼ ὑδροχύτοιϲ·",
        [
            "66",
            "hept"
        ]
    ],
    [
        "L L L L S S L",
        "οὐδʼ ἐν Νύϲαι μετὰ Νυμ-",
        [
            "68",
            "hept∫"
        ]
    ],
    [
        "L S L S S L S L",
        "φᾶν ἴακχον ἴακχον ὠι-",
        [
            "69",
            "gly∫"
        ]
    ],
    [
        "L L L L L S S L",
        "δὰν μέλπω πρὸϲ τὰν Ἀφροδί-",
        [
            "70",
            "wil∫"
        ]
    ],
    [
        "L L L L L S S L",
        "ταν, ἃν θηρεύων πετόμαν",
        [
            "71",
            "wil"
        ]
    ],
    [
        "L L S S L",
        "ποῖ οἰοπολεῖϲ",
        [
            "74",
            "an?"
        ]
    ],
    [
        "S L S L S S L",
        "ἐγὼ δʼ ὁ ϲὸϲ πρόπολοϲ",
        [
            "76",
            "hept"
        ]
    ],
    [
        "S L S L L L",
        "Κύκλωπι θη τεύω",
        [
            "77",
            "ia",
            "+",
            "sp"
        ]
    ],
    [
        "L S S L L L S S L L",
        "τῶι μονοδέρκται  δοῦλοϲ ἀλαίνων",
        [
            "78-9",
            "an2"
        ]
    ],
    [
        "L L S S L L L S S L",
        "ϲὺν τᾶιδε τράγου   χλαίναι μελέαι",
        [
            "80",
            "an2"
        ]
    ],
    [
        "L L L S S L",
        "ϲᾶϲ χωρὶϲ φιλίαϲ.",
        [
            "81",
            "‘an",
            "colarion’[^2]"
        ]
    ],
    [
        "S L S L S L S L S L S L",
        "ἀναϲτόμου τὸ χεῖλοϲ· ὡϲ ἕτοιμά ϲοι",
        [
            "357",
            "ia3"
        ]
    ],
    [
        "L S S L S S L S S L S S L L",
        "ἑφθὰ καὶ ὀπτὰ καὶ ἀνθρακιᾶϲ ἄπο ⟨θερμὰ⟩",
        [
            "358a",
            "da5"
        ]
    ],
    [
        "S S S L S L S L",
        "κρεοκοπεῖν μέλη ξένων",
        [
            "359",
            "lek"
        ]
    ],
    [
        "S S L S S L S S L S S L",
        "δαϲυμάλλωι ἐν αἰγίδι κλινομένωι.",
        [
            "360",
            "an2"
        ]
    ],
    [
        "L L L L S L",
        "μὴ ʼμοὶ μὴ προϲδίδου·",
        [
            "361",
            "mol",
            "+cr"
        ]
    ],
    [
        "S L S L S L S L S L S L",
        "μόνοϲ μόνωι γέμιζε πορθμίδοϲ ϲκάφοϲ.",
        [
            "362",
            "ia3"
        ]
    ],
    [
        "L S L S L S L S",
        "χαιρέτω μὲν αὖλιϲ ἅδε,",
        [
            "363",
            "tr2"
        ]
    ],
    [
        "L S L S L S L",
        "χαιρέτω δὲ θυμάτων",
        [
            "364",
            "lek"
        ]
    ],
    [
        "S S L S S L S L L S L",
        "ἀποβώμιοϲ †ἃν ἔχει θυϲίαν†",
        [
            "365",
            "?[^3]"
        ]
    ],
    [
        "L L L L L S S L",
        "Κύκλωψ Αἰτναῖοϲ ξενικῶν",
        [
            "366-7",
            "wil"
        ]
    ],
    [
        "S L S L S L S L",
        "κρεῶν κεχαρμένοϲ βορᾶι.",
        [
            "368-9",
            "ia2"
        ]
    ],
    [
        "L L L L S L L L S L",
        "†νηλὴϲ ὦ τλᾶμον ὅϲτιϲ δωμάτων†",
        [
            "370",
            "?"
        ]
    ],
    [
        "S L S L L L S L S L S L",
        "ἐφεϲτίουϲ ἱκτῆραϲ ἐκθύει δόμων,",
        [
            "371",
            "ia3[^4]"
        ]
    ],
    [
        "L S S L S S L S S L S S L L",
        "ἑφθά τε δαινύμενοϲ μυϲαροῖϲί τʼ ὀδοῦϲιν",
        [
            "373",
            "da5"
        ]
    ],
    [
        "L S L S L S L",
        "θέρμʼ ἀπʼ ἀνθράκων κρέα",
        [
            "374",
            "lek"
        ]
    ],
    [
        "L L L L L L S S L",
        "ταχθεὶϲ δαλοῦ κώπην ὀχμάϲαι",
        [
            "484",
            "an2"
        ]
    ],
    [
        "L L S S L S S L L L",
        "Κύκλωποϲ ἔϲω βλεφάρων ὤϲαϲ",
        [
            "485",
            "an2"
        ]
    ],
    [
        "L L L L L L S S L",
        "ϲίγα ϲίγα. καὶ δὴ μεθύων",
        [
            "488",
            "an2"
        ]
    ],
    [
        "S S L S S L L L S S L",
        "ἄχαριν κέλαδον μουϲιζόμενοϲ",
        [
            "489",
            "an2"
        ]
    ],
    [
        "L S S L L L L S S L",
        "ϲκαιὸϲ ἀπωιδὸϲ καὶ κλαυϲόμενοϲ",
        [
            "490",
            "an2"
        ]
    ],
    [
        "L L S S L L L S S L",
        "χωρεῖ πετρίνων ἔξω μελάθρων.",
        [
            "491",
            "an2"
        ]
    ],
    [
        "S S L L L L L L L",
        "φέρε νιν κώμοιϲ παιδεύϲωμεν",
        [
            "492",
            "an2"
        ]
    ],
    [
        "S S L L L",
        "τὸν ἀπαίδευτον·",
        [
            "493",
            "an"
        ]
    ],
    [
        "S S L S L S L L",
        "μάκαρ ὅϲτιϲ εὐιάζει",
        [
            "495",
            "anacr"
        ]
    ],
    [
        "S S L S L S L L",
        "βοτρύων φίλαιϲι πηγαῖϲ",
        [
            "496",
            "anacr"
        ]
    ],
    [
        "S S L S L S L L",
        "ἐπὶ κῶμον ἐκπεταϲθεὶϲ",
        [
            "497",
            "anacr"
        ]
    ],
    [
        "S S L S L S L L",
        "φίλον ἄνδρʼ ὑπαγκαλίζων,",
        [
            "498",
            "anacr"
        ]
    ],
    [
        "S S L S L S L L",
        "ἐπὶ δεμνίοιϲ τε †ξανθὸν†",
        [
            "499 ?[^6]"
        ]
    ],
    [
        "S S L S L S L L",
        "χλιδανᾶϲ ἔχων ἑταίραϲ",
        [
            "500",
            "anacr"
        ]
    ],
    [
        "S S L L S S L L",
        "μυρόχριϲτοϲ λιπαρὸν βό-",
        [
            "501",
            "io2∫"
        ]
    ],
    [
        "S S L L S S L S L L L",
        "ϲτρυχον, αὐδᾶι δέ· Θύραν τίϲ οἴξει μοι;",
        [
            "502",
            "io^sync^2",
            "+",
            "mol"
        ]
    ],
    [
        "S S L S L S L L",
        "γάνυμαι ⟨δὲ⟩ δαιτὸϲ ἥβαι,",
        [
            "504",
            "anacr"
        ]
    ],
    [
        "S S L S L S L L",
        "ϲκάφοϲ ὁλκὰϲ ὣϲ γεμιϲθεὶϲ",
        [
            "505",
            "anacr"
        ]
    ],
    [
        "S S L S L S L L",
        "ποτὶ ϲέλμα γαϲτρὸϲ ἄκραϲ.",
        [
            "506",
            "anacr"
        ]
    ],
    [
        "S S L S L S L L",
        "ὑπάγει μʼ ὁ φόρτοϲ εὔφρων",
        [
            "507",
            "anacr"
        ]
    ],
    [
        "S S L S L S L L",
        "ἐπὶ κῶμον ἦροϲ ὥραιϲ",
        [
            "508",
            "anacr"
        ]
    ],
    [
        "S S L L S S L L",
        "ἐπὶ Κύκλωπαϲ ἀδελφούϲ.",
        [
            "509",
            "io2"
        ]
    ],
    [
        "S S L L S S L S L L L",
        "φέρε μοι, ξεῖνε, φέρʼ, ἀϲκὸν ἔνδοϲ μοι.",
        [
            "510",
            "io^sync^2",
            "+",
            "mol"
        ]
    ],
    [
        "S S L S L S L L",
        "καλὸϲ ἐκπερᾶι μελάθρων.",
        [
            "512",
            "anacr"
        ]
    ],
    [
        "S L S L L",
        "⟨                ⟩ φιλεῖ τίϲ ἡμᾶϲ;",
        [
            "513",
            "?"
        ]
    ],
    [
        "S S L S L S S S L",
        "λύχνα δʼ †ἀμμένει δαΐα ϲὸν",
        [
            "514",
            "?[^7]"
        ]
    ],
    [
        "S S L S L S L L",
        "χρόα χὡϲ† τέρεινα νύμφα",
        [
            "515",
            "?"
        ]
    ],
    [
        "S S L S L S L L",
        "δροϲερῶν ἔϲωθεν ἄντρων.",
        [
            "516",
            "anacr"
        ]
    ],
    [
        "S S L L S S L L",
        "ϲτεφάνων δʼ οὐ μία χροιὰ",
        [
            "517",
            "io2"
        ]
    ],
    [
        "S S L L S S L S L L L",
        "περὶ ϲὸν κρᾶτα τάχʼ ἐξομιλήϲει.",
        [
            "518",
            "io^sync^2",
            "+",
            "mol"
        ]
    ],
    [
        "L S L S L S L",
        "ἐντόνωϲ ὁ καρκίνοϲ",
        [
            "609",
            "lek"
        ]
    ],
    [
        "L S S L S S L S S L S S",
        "τοῦ ξενοδαιτυμόνοϲ· πυρὶ γὰρ τάχα",
        [
            "610-11",
            "da4"
        ]
    ],
    [
        "L S L S L S L",
        "φωϲφόρουϲ ὀλεῖ κόραϲ.",
        [
            "612",
            "lek"
        ]
    ],
    [
        "L L L S L S L S L",
        "ἤδη δαλὸϲ ἠνθρακωμένοϲ",
        [
            "613-14",
            "sp",
            "+",
            "lek"
        ]
    ],
    [
        "L S S L S S L S S L S S",
        "κρύπτεται ἐϲ ϲποδιάν, δρυὸϲ ἄϲπετον",
        [
            "615-6",
            "da4"
        ]
    ],
    [
        "L S L S L S L L S L",
        "ἔρνοϲ. ἀλλʼ ἴτω Μάρων, πραϲϲέτω,",
        [
            "617",
            "lek",
            "+",
            "cr"
        ]
    ],
    [
        "L S S L S S L S S L",
        "μαινομένου ʼξελέτω βλέφαρον",
        [
            "618",
            "da^cat^4"
        ]
    ],
    [
        "S L S L S L S L",
        "Κύκλωποϲ, ὡϲ πίηι κακῶϲ.",
        [
            "619",
            "ia2"
        ]
    ],
    [
        "L L L S S L S S L S S L",
        "κἀγὼ τὸν φιλοκιϲϲοφόρον Βρόμιον",
        [
            "620",
            "da^cat^5"
        ]
    ],
    [
        "S L S L S L S L",
        "ποθεινὸν εἰϲιδεῖν θέλω,",
        [
            "621",
            "ia2"
        ]
    ],
    [
        "L L L S L S L S L",
        "Κύκλωποϲ λιπὼν ἐρημίαν·",
        [
            "622",
            "sp",
            "+",
            "lek"
        ]
    ],
    [
        "L L S L S L S L",
        "ἆρʼ ἐϲ τοϲόνδʼ ἀφίξομαι;",
        [
            "623",
            "ia2"
        ]
    ],
    [
        "L L L S L L S S L S L",
        "θεῖτε ϲπεύδετʼ, ἐκκαίετε τὰν ὀφρὺν",
        [
            "657",
            "(2doc)?"
        ]
    ],
    [
        "L L L S S L L",
        "θηρὸϲ τοῦ ξενοδαίτα.",
        [
            "658",
            "pher"
        ]
    ],
    [
        "L S L L S L",
        "τύφετʼ ὦ, καίετʼ ὦ",
        [
            "659",
            "cr2"
        ]
    ],
    [
        "S L L L S S L",
        "τὸν Αἴτναϲ μηλονόμον.",
        [
            "660",
            "hept"
        ]
    ],
    [
        "L L L S L L S S L L",
        "τόρνευ᾽ ἕλκε, μή ϲʼ ἐξοδυνηθεὶϲ",
        [
            "661",
            "(doc",
            "+",
            "?)"
        ]
    ]
]