[
    [
        "S S S L S S S S L L S L",
        "ὄρεγέ νυν ὄρεγε γεραιὰν νέᾳ",
        [
            "103",
            "2doc"
        ]
    ],
    [
        "L S S L S L",
        "χεῖρ᾽ ἀπὸ κλιμάκων",
        [
            "104",
            "doc"
        ]
    ],
    [
        "S S L S S L L L",
        "ποδὸς ἴχνος ἐπαντέλλων.",
        [
            "105",
            "Tchol"
        ]
    ],
    [
        "S L S S S L",
        "ἰὼ πότνια παῖ",
        [
            "109",
            "doc"
        ]
    ],
    [
        "L L S S L S S L S S L",
        "Λατοῦς Ἑκάτα, κατάχαλκον ἅπαν",
        [
            "110",
            "A"
        ]
    ],
    [
        "S S S L L L",
        "πεδίον ἀστράπτει.",
        [
            "111",
            "doc"
        ]
    ],
    [
        "L S S L L L L S S S L S S",
        "ἆρα †πύλαι κλῄθροις — χαλκόδετα τ᾽ ἔμβολα†",
        [
            "114",
            "?"
        ]
    ],
    [
        "S S S L S L S S S L S L",
        "λαϊνέοισιν Ἀμφίονος ὀργάνοις",
        [
            "115",
            "doc"
        ]
    ],
    [
        "L S S L L L",
        "τείχεος ἥρμοσται;",
        [
            "116",
            "doc"
        ]
    ],
    [
        "S L S S L S S L",
        "τίς οὗτος ὁ λευκολόφας,",
        [
            "119",
            "⏑D"
        ]
    ],
    [
        "S S S L L L S L",
        "πρόπαρ ὃς ἁγεῖται στρατοῦ",
        [
            "120",
            "lek"
        ]
    ],
    [
        "L L S L S L S S L S S L L L",
        "πάγχαλκον ἀσπίδ᾽ ἀμφὶ βραχίονι κουφίζων;",
        [
            "121-2",
            "‒e⏑ibyc",
            "with",
            "cholosis"
        ]
    ],
    [
        "S S",
        "ἒ ἒ",
        [
            "126a",
            "extra",
            "metric"
        ]
    ],
    [
        "L L S L S S S L S L",
        "ὡς γαῦρος, ὡς φοβερὸς εἰσιδεῖν,",
        [
            "127",
            "ia+doc"
        ]
    ],
    [
        "S L S L S S L S S L S",
        "γίγαντι γηγενέτᾳ προσόμοιος",
        [
            "128",
            "enop",
            "",
            "?B"
        ]
    ],
    [
        "S L S L S L S S L S S L L L",
        "γραφαῖσιν, οὐχὶ πρόσφορος ἁμερίῳ γέννᾳ.",
        [
            "130",
            "⏑e⏑ibyc",
            "with",
            "cholosis"
        ]
    ],
    [
        "L S S L S S L S S L S S",
        "οὗτος ὁ τᾶς Πολυνείκεος, ὦ γέρον,",
        [
            "135",
            "4da"
        ]
    ],
    [
        "L S S L L L L L",
        "αὐτοκασιγνήτᾳ νύμφας",
        [
            "136",
            "4da\\^"
        ]
    ],
    [
        "S S S L S L",
        "ὁμόγαμος κυρεῖ;",
        [
            "137",
            "doc",
            "",
            "H"
        ]
    ],
    [
        "L L S L S L S L S L S L",
        "ὡς ἀλλόχρως ὅπλοισι, μειξοβάρβαρος.",
        [
            "138",
            "3ia"
        ]
    ],
    [
        "S S L S S L S S L S",
        "καταβόστρυχος, ὄμμασι γοργὸς",
        [
            "146",
            "enop",
            "paroemiac"
        ]
    ],
    [
        "L S L S L S L",
        "εἰσιδεῖν νεανίας,",
        [
            "147",
            "lek"
        ]
    ],
    [
        "S L S L S L S L S L S S",
        "λοχαγός, ὡς ὄχλος νιν ὑστέρῳ ποδὶ",
        [
            "148",
            "3ia,",
            "B"
        ]
    ],
    [
        "S S S L S L",
        "πάνοπλος ἀμφέπει;",
        [
            "149",
            "doc",
            "",
            "H"
        ]
    ],
    [
        "L S S L S S L S S L S S",
        "ἀλλά νιν ἁ κατ᾽ ὄρη μετὰ ματέρος",
        [
            "151",
            "4da"
        ]
    ],
    [
        "L S S L S S L L L S S L S S L S",
        "Ἄρτεμις ἱεμένα τόξοις δαμάσασ᾽ ὀλέσειεν,",
        [
            "152",
            "6da",
            "",
            "B"
        ]
    ],
    [
        "S S S L S S S L L L",
        "ὃς ἐπ᾽ ἐμὰν πόλιν ἔβα πέρσων.",
        [
            "153",
            "cr+doc"
        ]
    ],
    [
        "L S S L S L S S S L S L",
        "ποῦ δ᾽ ὃς ἐμοὶ μιᾶς ἐγένετ᾽ ἐκ ματρὸς",
        [
            "156",
            "2doc"
        ]
    ],
    [
        "S S S L L L",
        "πολυπόνῳ μοίρᾳ;",
        [
            "157",
            "doc"
        ]
    ],
    [
        "S S L S S L S S L S S L",
        "ἀνεμώκεος εἴθε δρόμον νεφέλας",
        [
            "163",
            "2an"
        ]
    ],
    [
        "S S L S S L S S L S L",
        "ποσὶν ἐξανύσαιμι δι᾽ αἰθέρος",
        [
            "164",
            "enop"
        ]
    ],
    [
        "S S S S S S S S S S S L S L",
        "πρὸς ἐμὸν ὁμογενέτορα, περὶ δ᾽ ὠλένας",
        [
            "165",
            "2doc"
        ]
    ],
    [
        "S L L S L S L L S L",
        "δέρᾳ φιλτάτᾳ βάλοιμ᾽ ἐν χρόνῳ",
        [
            "166",
            "2doc"
        ]
    ],
    [
        "S S S S S S L",
        "φυγάδα μέλεον. ὡς",
        [
            "167",
            "doc"
        ]
    ],
    [
        "S L S L S L S L S L S S",
        "ὅπλοισι χρυσέοισιν ἐκπρεπής, γέρον,",
        [
            "168",
            "3ia,",
            "B"
        ]
    ],
    [
        "S L L S L S S S L S L",
        "ἑῴοις ὅμοια φλεγέθων βολαῖς.",
        [
            "169",
            "2doc"
        ]
    ],
    [
        "L S S L L L S S S L S S L",
        "ὦ λιπαροζώνου θύγατερ †Ἀελίου",
        [
            "175",
            "?"
        ]
    ],
    [
        "S L L S L S S S L L S",
        "Σελαναία, χρυσεόκυκλον φέγγος,†",
        [
            "176",
            "?"
        ]
    ],
    [
        "L S S L S L S L L S S",
        "ὡς ἀτρεμαῖα κέντρα †καὶ σώφρονα",
        [
            "177",
            "?"
        ]
    ],
    [
        "L L S S S L S L L",
        "πώλοις μεταφέρων ἰθύνει.†",
        [
            "178",
            "?"
        ]
    ],
    [
        "S S S L S L S S S L L L",
        "Νέμεσι καὶ Διὸς βαρύβρομοι βρονταί,",
        [
            "182",
            "2doc"
        ]
    ],
    [
        "S L S L S L L S S L S L",
        "κεραύνιόν τε φῶς αἰθαλόεν, σύ τοι",
        [
            "183",
            "docKaibel+doc"
        ]
    ],
    [
        "S S L S S L S S L S S L L L",
        "μεγαλαγορίαν ὑπεράνορα κοιμίζεις:",
        [
            "184",
            "A+sp"
        ]
    ],
    [
        "S L S L S L S L",
        "ὅδ᾽ ἐστίν, αἰχμαλώτιδας",
        [
            "185",
            "2ia"
        ]
    ],
    [
        "L S S L L L S L L S S",
        "ὃς δορὶ Θηβαίας †Μυκηνηΐσι",
        [
            "186",
            "dochmiacs?"
        ]
    ],
    [
        "L L L S L L S L L",
        "Λερναίᾳ τε δώσειν τριαίνᾳ,",
        [
            "187",
            "dochmiacs?"
        ]
    ],
    [
        "S L L S L S L L S L",
        "Ποσειδανίοις Ἀμυμωνίοις",
        [
            "188",
            "dochmiacs?[^1]"
        ]
    ],
    [
        "S S S L L L S S S L",
        "ὕδασι δουλείαν περιβαλών.†",
        [
            "189",
            "dochmiacs?"
        ]
    ],
    [
        "L S S L S S L L L S S",
        "μήποτε μήποτε τάνδ᾽, ὦ πότνια,",
        [
            "190",
            "4da"
        ]
    ],
    [
        "L S S L S S L S S L S",
        "χρυσεοβόστρυχον ὦ Διὸς ἔρνος",
        [
            "191",
            "4da,B"
        ]
    ],
    [
        "L S S L S S L L L",
        "Ἄρτεμι, δουλοσύναν τλαίην.",
        [
            "192",
            "4da\\^"
        ]
    ],
    [
        "S S S L S S L S L",
        "Τύριον οἶδμα λιποῦσ᾽ ἔβαν",
        [
            "202",
            "gly"
        ]
    ],
    [
        "L S L S S L S L",
        "ἀκροθίνια Λοξίᾳ",
        [
            "203",
            "gly"
        ]
    ],
    [
        "L L L S S L L",
        "Φοινίσσας ἀπὸ νάσου",
        [
            "204",
            "ph"
        ]
    ],
    [
        "L L L L S S L",
        "Φοίβῳ δούλα μελάθρων,",
        [
            "205",
            "heptasyllable"
        ]
    ],
    [
        "S S S L S S S S S L",
        "ἵν᾽ ὑπὸ δειράσι νιφοβόλοις",
        [
            "206",
            "gly",
            "(resolved)"
        ]
    ],
    [
        "L L L S S L L",
        "Παρνασοῦ κατενάσθη,",
        [
            "207",
            "ph",
            "",
            "H"
        ]
    ],
    [
        "S S S L S S L S S S",
        "Ἰόνιον κατὰ πόντον ἐλά-",
        [
            "208",
            "gly∫",
            "(res.",
            "final",
            "syl.)"
        ]
    ],
    [
        "L L L S S L S L",
        "τᾳ πλεύσασα περιρρύτῳ",
        [
            "209",
            "gly"
        ]
    ],
    [
        "S S S L L L S S L",
        "ὑπὲρ ἀκαρπίστων πεδίων",
        [
            "210",
            "wil"
        ]
    ],
    [
        "S S S L S S L S L",
        "Σικελίας Ζεφύρου πνοαῖς",
        [
            "211",
            "gly"
        ]
    ],
    [
        "L L L S S L S L",
        "ἱππεύσαντος, ἐν οὐρανῷ",
        [
            "212",
            "gly"
        ]
    ],
    [
        "L L L S S L S",
        "κάλλιστον κελάδημα.",
        [
            "213",
            "ph",
            "",
            "B"
        ]
    ],
    [
        "S S S L S S L S L",
        "πόλεος ἐκπροκριθεῖσ᾽ ἐμᾶς",
        [
            "214",
            "gly"
        ]
    ],
    [
        "L L L S S L S L",
        "καλλιστεύματα Λοξίᾳ",
        [
            "215",
            "gly"
        ]
    ],
    [
        "L L L S S L L",
        "Καδμείων ἔμολον γᾶν,",
        [
            "216",
            "ph"
        ]
    ],
    [
        "L L L L S S L",
        "κλεινῶν Ἀγηνοριδᾶν",
        [
            "217",
            "hept"
        ]
    ],
    [
        "S S S L S S L S L",
        "ὁμογενεῖς ἐπὶ Λαΐου",
        [
            "218",
            "gly"
        ]
    ],
    [
        "L L L S S L L",
        "πεμφθεῖσ᾽ ἐνθάδε πύργους.",
        [
            "219",
            "ph"
        ]
    ],
    [
        "S S S L S S L S L",
        "ἴσα δ᾽ ἀγάλμασι χρυσοτεύ-",
        [
            "220",
            "gly∫"
        ]
    ],
    [
        "L L L S S S S S L",
        "κτοις Φοίβῳ λάτρις ἐγενόμαν:",
        [
            "221",
            "gly"
        ]
    ],
    [
        "S S S L S S L S L",
        "ἔτι δὲ Κασταλίας ὕδωρ",
        [
            "222",
            "gly"
        ]
    ],
    [
        "S S S L S S L S L",
        "περιμένει με κόμας ἐμᾶς",
        [
            "223",
            "gly"
        ]
    ],
    [
        "L L L S S L S L",
        "δεῦσαι παρθένιον χλιδὰν",
        [
            "224",
            "gly"
        ]
    ],
    [
        "L L L S S L L",
        "Φοιβείαισι λατρείαις.",
        [
            "225",
            "ph"
        ]
    ],
    [
        "L L L S S L S L",
        "ὦ λάμπουσα πέτρα πυρὸς",
        [
            "226",
            "gly"
        ]
    ],
    [
        "S S S L S S S S S L",
        "δικόρυφον σέλας ὑπὲρ ἄκρων",
        [
            "227",
            "gly",
            "(resolved)"
        ]
    ],
    [
        "L L L S S L L",
        "βακχειῶν Διονύσου,",
        [
            "228",
            "ph",
            "",
            "H"
        ]
    ],
    [
        "L L L S L S S L",
        "οἴνα θ᾽ ἃ καθαμέριον",
        [
            "229",
            "wil"
        ]
    ],
    [
        "L L L x [ ^ 2 ] L S S L",
        "οἰνάνθας ἱεῖσα βότρυν,",
        [
            "231",
            "wil"
        ]
    ],
    [
        "S S S L S S L S L",
        "ζάθεά τ᾽ ἄντρα δράκοντος οὔ-",
        [
            "232",
            "gly"
        ]
    ],
    [
        "L L L S S L S L",
        "ρειαί τε σκοπιαὶ θεᾶν",
        [
            "233",
            "gly"
        ]
    ],
    [
        "S S S L S S S S S L",
        "νιφόβολόν τ᾽ ὄρος ἱερόν, εἱ-",
        [
            "234",
            "gly",
            "(resolved)"
        ]
    ],
    [
        "L L L S S L S L",
        "λίσσων ἀθανάτας θεοῦ",
        [
            "235",
            "gly"
        ]
    ],
    [
        "S L S L L S S L",
        "χορὸς γενοίμαν ἄφοβος",
        [
            "236",
            "ia+chor"
        ]
    ],
    [
        "S S S L S S S S S L",
        "παρὰ μεσόμφαλα γύαλα Φοί-",
        [
            "237",
            "gly",
            "(resolved)"
        ]
    ],
    [
        "L S L S L S L",
        "νῦν δέ μοι πρὸ τειχέων",
        [
            "239",
            "[]{#OLE_LINK1",
            ".anchor}l[]{#OLE_LINK2"
        ]
    ],
    [
        "L S L S L S L",
        "θούριος μολὼν Ἄρης",
        [
            "240",
            "lek"
        ]
    ],
    [
        "L S L S L S L",
        "αἷμα δάιον φλέγει",
        [
            "241",
            "lek"
        ]
    ],
    [
        "L S L S L S L",
        "τᾷδ᾽, ὃ μὴ τύχοι, πόλει:",
        [
            "242",
            "lek"
        ]
    ],
    [
        "L S L S L S L",
        "κοινὰ γὰρ φίλων ἄχη,",
        [
            "243",
            "lek"
        ]
    ],
    [
        "L S L S L S L",
        "κοινὰ δ᾽, εἴ τι πείσεται",
        [
            "244",
            "lek",
            "",
            "H"
        ]
    ],
    [
        "L S L S L S L",
        "ἑπτάπυργος ἅδε γᾶ,",
        [
            "245",
            "lek"
        ]
    ],
    [
        "L S L S L S S S S",
        "κοινὸν αἷμα, κοινὰ τέκεα",
        [
            "247",
            "tr"
        ]
    ],
    [
        "L S L S L S L S L L",
        "τᾶς κερασφόρου πέφυκεν Ἰοῦς:",
        [
            "248",
            "lek+ba"
        ]
    ],
    [
        "L S L S L S L",
        "ὧν μέτεστί μοι πόνων.",
        [
            "249",
            "lek"
        ]
    ],
    [
        "L S L S L S L",
        "ἀσπίδων πυκνὸν φλέγει",
        [
            "251",
            "lek"
        ]
    ],
    [
        "L S L S L S L",
        "σχῆμα φοινίου μάχας,",
        [
            "252",
            "lek"
        ]
    ],
    [
        "L S L S L S L",
        "ἃν Ἄρης τάχ᾽ εἴσεται",
        [
            "253",
            "lek"
        ]
    ],
    [
        "L S L S L S L",
        "παισὶν Οἰδίπου φέρων",
        [
            "254",
            "lek"
        ]
    ],
    [
        "L S L S L S L",
        "πημονὰν Ἐρινύων.",
        [
            "255",
            "lek",
            "",
            "Hs"
        ]
    ],
    [
        "L S L S L S L",
        "Ἄργος ὦ Πελασγικόν,",
        [
            "256",
            "lek"
        ]
    ],
    [
        "L S L S L S L S L L",
        "εἰς ἀγῶνα τόνδ᾽ ἔνοπλος ὁρμὰν",
        [
            "259",
            "lek+ba"
        ]
    ],
    [
        "L S L S L S L",
        "παῖς μετέρχεται δόμους.",
        [
            "260",
            "lek"
        ]
    ],
    [
        "S S S L S L L S L S L",
        "γονυπετεῖς ἕδρας προσπίτνω σ᾽, ἄναξ,",
        [
            "293",
            "doc+hypodoc"
        ]
    ],
    [
        "S L S L S L S S S",
        "τὸν οἴκοθεν σέβουσα νόμον·",
        [
            "294",
            "2ia"
        ]
    ],
    [
        "S L L S L L S L L",
        "ἔβας ὢ χρόνῳ γᾶν πατρῴαν.",
        [
            "295",
            "3ba"
        ]
    ],
    [
        "S S S L S S S S S S S S S S S",
        "ἰὼ ἰώ: πότνια, πότνια , μόλε πρόδομος,",
        [
            "296",
            "2doc"
        ]
    ],
    [
        "L S S L S L",
        "ἀμπέτασον πύλας.",
        [
            "297",
            "doc"
        ]
    ],
    [
        "S L L S L S L S L L",
        "κλύεις, ὦ τεκοῦσα τόνδε μᾶτερ;",
        [
            "298",
            "ba+ia+ba"
        ]
    ],
    [
        "S L L S L S S S S S S L",
        "τί μέλλεις ὑπώροφα μέλαθρα περᾶν",
        [
            "299",
            "2doc"
        ]
    ],
    [
        "S L L S L S L L",
        "θιγεῖν τ᾽ ὠλέναισι τέκνου;",
        [
            "300",
            "doc+ba"
        ]
    ],
    [
        "L S L S L L L L S S S S L",
        "ὦ νεάνιδες, γηραιῷ πόδι τρομερὰν",
        [
            "302",
            "?"
        ]
    ],
    [
        "S L S L S L S L",
        "ἰὼ τέκνον, χρόνῳ σὸν ὄμ-",
        [
            "304",
            "2ia∫"
        ]
    ],
    [
        "S L S L S L S L",
        "μα μυρίαις τ᾽ ἐν ἁμέραις",
        [
            "305",
            "2ia"
        ]
    ],
    [
        "S L S L S L S L",
        "προσεῖδον: ἀμφίβαλλε μα-",
        [
            "306a",
            "2ia∫"
        ]
    ],
    [
        "S L S L S L S L",
        "στὸν ὠλέναισι ματέρος,",
        [
            "306b",
            "2ia"
        ]
    ],
    [
        "S L S L S L S L",
        "παρηίδων τ᾽ ὄρεγμα δὸς",
        [
            "307",
            "2ia"
        ]
    ],
    [
        "S L S S S [ ^ 4 ] S L S L",
        "τρίχων τε κυανόχρωτι χαί-",
        [
            "308",
            "2ia"
        ]
    ],
    [
        "L S S L S L S L L S L",
        "τας πλόκαμῳ, δέραν σκιάζων ἁμάν.",
        [
            "309",
            "2doc"
        ]
    ],
    [
        "S L S L S L S L",
        "ἰὼ ἰώ, μόλις φανεὶς",
        [
            "310",
            "2ia"
        ]
    ],
    [
        "S L S L S L S L S L S L",
        "ἄελπτα κἀδόκητα ματρὸς ὠλέναις.",
        [
            "311",
            "3ia"
        ]
    ],
    [
        "S L S L S L L",
        "τί φῶ σε; πῶς ἁπάντᾳ",
        [
            "312",
            "ia+ba"
        ]
    ],
    [
        "S S S L S L S L",
        "πολυέλικτον ἁδονὰν",
        [
            "314",
            "lek"
        ]
    ],
    [
        "S S S L L S L L S L L S L",
        "περιχορεύουσα τέρψιν παλαιᾶν λάβω",
        [
            "316",
            "4cr"
        ]
    ],
    [
        "S L L S L S S S L S L",
        "ἔρημον πατρῷον ἔλιπες δόμον",
        [
            "318",
            "2doc"
        ]
    ],
    [
        "S S S L S L S L L L L",
        "φυγὰς ἀποσταλεὶς ὁμαίμου λώβᾳ,",
        [
            "319",
            "2doc",
            "",
            "H"
        ]
    ],
    [
        "L S L L S L",
        "ἦ ποθεινὸς φίλοις,",
        [
            "320",
            "2cr"
        ]
    ],
    [
        "L S L L L L",
        "ἦ ποθεινὸς Θήβαις.",
        [
            "321",
            "cr+mol"
        ]
    ],
    [
        "S S S L S L S S L L S",
        "ὅθεν ἐμάν τε λευκόχροα κείρομαι",
        [
            "322",
            "2doc"
        ]
    ],
    [
        "S S S L S L S L L S L",
        "δακρυόεσσ᾽ ἀνεῖσα πένθει κόμαν,",
        [
            "323",
            "2doc"
        ]
    ],
    [
        "S S L S S L L L L L",
        "ἄπεπλος φαρέων λευκῶν, τέκνον,",
        [
            "324",
            "2an"
        ]
    ],
    [
        "S L L S L S L L S L",
        "δυσόρφναια δ᾽ ἀμφὶ τρύχη τάδε",
        [
            "325",
            "2doc"
        ]
    ],
    [
        "S S S L S L",
        "σκότι᾽ ἀμείβομαι.",
        [
            "326",
            "doc",
            "",
            "H"
        ]
    ],
    [
        "S L S L S L S L S L S L",
        "ὁ δ᾽ ἐν δόμοισι πρέσβυς ὀμματοστερὴς",
        [
            "327",
            "3ia"
        ]
    ],
    [
        "S L L S L S L L S L",
        "ἀπήνας ὁμοπτέρου τᾶς ἀπο-",
        [
            "328",
            "2doc∫"
        ]
    ],
    [
        "S L L S L",
        "ζυγείσας δόμων",
        [
            "329",
            "doc"
        ]
    ],
    [
        "S S L S S L S S L S S L",
        "πόθον ἀμφιδάκρυτον ἀεὶ κατέχων",
        [
            "330",
            "an2"
        ]
    ],
    [
        "S L L L S L",
        "ἀνῇξεν μὲν ξίφους",
        [
            "331",
            "ba+cr"
        ]
    ],
    [
        "S L S L S L S L",
        "ἐπ᾽ αὐτόχειρά τε σφαγάν,",
        [
            "332",
            "2ia"
        ]
    ],
    [
        "S L S L S L S L",
        "ὑπὲρ τέραμνά τ᾽ ἀγχόνας,",
        [
            "333",
            "2ia"
        ]
    ],
    [
        "S L L S L S L",
        "στενάζων ἀρὰς τέκνοις:",
        [
            "334",
            "ba+ia",
            "",
            "[^5]"
        ]
    ],
    [
        "S S S L S L S L L S L",
        "σὺν ἀλαλαῖσι δ᾽ αἰὲν αἰαγμάτων",
        [
            "335",
            "2doc"
        ]
    ],
    [
        "S S S L S L",
        "σκότια κρύπτεται.",
        [
            "336",
            "doc"
        ]
    ],
    [
        "S L S L S L S L",
        "σὲ δ᾽, ὦ τέκνον, γάμοισιν ἤ-",
        [
            "337",
            "2ia∫"
        ]
    ],
    [
        "L S L S L S L",
        "παιδοποιὸν ἁδονὰν",
        [
            "338b",
            "lek"
        ]
    ],
    [
        "S L S L S L S L",
        "ξένοισιν ἐν δόμοις ἔχειν",
        [
            "339",
            "2ia"
        ]
    ],
    [
        "S L S L S L S L",
        "ξένον τε κῆδος ἀμφέπειν,",
        [
            "340",
            "2ia"
        ]
    ],
    [
        "S L S L S L S L",
        "ἄλαστα ματρὶ τᾷδε Λα-",
        [
            "341",
            "2ia∫"
        ]
    ],
    [
        "S L S L S L S L",
        "ίῳ τε τῷ παλαι γενεῖ,",
        [
            "342",
            "2ia"
        ]
    ],
    [
        "S L S L S L L",
        "γάμων ἐπακτὸν ἄταν.",
        [
            "343",
            "ia+ba[^6]"
        ]
    ],
    [
        "S L L S L S S S L S L",
        "ἐγὼ δ᾽ οὔτι σοι πυρὸς ἀνῆψα φῶς",
        [
            "344",
            "2doc"
        ]
    ],
    [
        "S S S L S L L S S L L L",
        "ἀνυμέναια δ᾽ Ἰσμηνὸς ἐκηδεύθη",
        [
            "347",
            "2doc"
        ]
    ],
    [
        "L S S L S L S S S L L L",
        "λουτροφόρου χλιδᾶς, ἀνὰ δὲ Θηβαίων",
        [
            "348",
            "2doc"
        ]
    ],
    [
        "S S S L S L L S S L L L",
        "πόλιν ἐσιγάθεν σᾶς ἔσοδοι νύμφας.",
        [
            "349",
            "2doc"
        ]
    ],
    [
        "S L S S L S S L S",
        "ὄλοιτο, τάδ᾽ εἴτε σίδαρος",
        [
            "350",
            "erasmonidean"
        ]
    ],
    [
        "L S S L S S L S S L S S",
        "εἴτ᾽ ἔρις εἴτε πατὴρ ὁ σὸς αἴτιος,",
        [
            "351",
            "4da"
        ]
    ],
    [
        "L S S L S S L S S L S S",
        "εἴτε τὸ δαιμόνιον κατεκώμασε",
        [
            "352",
            "4da"
        ]
    ],
    [
        "L S S L S S L",
        "δώμασιν Οἰδιπόδα:",
        [
            "353",
            "D"
        ]
    ],
    [
        "S S S L S L S S S L S L",
        "πρὸς ἐμὲ γὰρ κακῶν ἔμολε τῶνδ᾽ ἄχη.",
        [
            "354",
            "2doc"
        ]
    ],
    [
        "L S S S S L S L",
        "Κάδμος ἔμολε τάνδε γᾶν",
        [
            "638",
            "lek"
        ]
    ],
    [
        "S S S L S L S S",
        "Τύριος, ᾧ τετρασκελὴς",
        [
            "639",
            "lek"
        ]
    ],
    [
        "L S S S S L S L S",
        "μόσχος ἀδάματος πέσημα",
        [
            "640",
            "2tr"
        ]
    ],
    [
        "S S S L S L S L S",
        "δίκε τελεσφόρον διδοῦσα",
        [
            "641",
            "2tr"
        ]
    ],
    [
        "L S L S L S L",
        "χρησμόν, οὗ κατοικίσαι",
        [
            "642",
            "lek"
        ]
    ],
    [
        "S S S L S L S L",
        "πεδία νιν τὸ θέσφατον",
        [
            "643",
            "lek"
        ]
    ],
    [
        "S S S S S L S L S",
        "πυροφόρα †δόμων ἔχρησε†,",
        [
            "644",
            "?"
        ]
    ],
    [
        "L S S S S S S S S S S",
        "καλλιπόταμος ὕδατος ἵνα τε",
        [
            "645",
            "2tr"
        ]
    ],
    [
        "S S S L S L L L",
        "νοτὶς ἐπέρχεται †γυίας",
        [
            "646",
            "?"
        ]
    ],
    [
        "L L S L S L",
        "Δίρκας χλοηφόρους",
        [
            "647",
            "?"
        ]
    ],
    [
        "L S L S L L L",
        "καὶ βαθυσπόρους γυίας†:",
        [
            "648",
            "?"
        ]
    ],
    [
        "S S S L S S S S L L",
        "Βρόμιον ἔνθα τέκετο †μάτηρ",
        [
            "649",
            "?"
        ]
    ],
    [
        "S L S L S",
        "Διὸς γάμοισι†,",
        [
            "650",
            "?"
        ]
    ],
    [
        "L S L S L S L",
        "κισσὸς ὃν περιστεφὴς",
        [
            "651",
            "lek"
        ]
    ],
    [
        "S L S L S S S S L",
        "ἕλικος εὐθὺς ἔτι βρέφος",
        [
            "652",
            "2ia"
        ]
    ],
    [
        "S L S L S L S L",
        "χλοηφόροισιν ἔρνεσιν",
        [
            "653",
            "2ia"
        ]
    ],
    [
        "S L S L S L S L S L S L",
        "κατασκίοισιν ὀλβίσας ἐνώτισεν,",
        [
            "654",
            "3ia"
        ]
    ],
    [
        "L S L S L S L S",
        "Βάκχιον χόρευμα παρθέ-",
        [
            "655",
            "2tr∫"
        ]
    ],
    [
        "L S L L S L S",
        "νοισι Θηβαΐαισι",
        [
            "655b",
            "cr+tr"
        ]
    ],
    [
        "L S L S L S L",
        "καὶ γυναιξὶν εὐίοις.",
        [
            "656",
            "lek"
        ]
    ],
    [
        "L S S S L L S L",
        "ἔνθα φόνιος ἦν δράκων",
        [
            "657",
            "lek"
        ]
    ],
    [
        "S S S L S L S L",
        "Ἄρεος ὠμόφρων φύλαξ",
        [
            "658",
            "lek"
        ]
    ],
    [
        "L S S S S L S L S",
        "νάματ᾽ ἔνυδρα καὶ ῥέεθρα",
        [
            "659",
            "2tr"
        ]
    ],
    [
        "S S S L S L S L S",
        "χλοερὰ δεργμάτων κόραισι",
        [
            "660",
            "2tr"
        ]
    ],
    [
        "S S S L S L S L",
        "πολυπλάνοις ἐπισκοπῶν:",
        [
            "661",
            "lek"
        ]
    ],
    [
        "S S S L S L S L",
        "ὃν ἐπὶ χέρνιβας μολὼν",
        [
            "662",
            "lek"
        ]
    ],
    [
        "L S S S S L S L",
        "Κάδμος ὄλεσε μαρμάρῳ:",
        [
            "663",
            "lek"
        ]
    ],
    [
        "L S S S S S S S L S",
        "κρᾶτα φόνιον ὀλεσίθηρος",
        [
            "664",
            "2tr"
        ]
    ],
    [
        "L S L S L S L",
        "ὠλένας †δικὼν† βολαῖς,",
        [
            "665",
            "lek?"
        ]
    ],
    [
        "L L S L S L",
        "δίας ἀμάτορος",
        [
            "666",
            "palimbacchiac+cr"
        ]
    ],
    [
        "L S L S L S",
        "†Παλλάδος φραδαῖσι†",
        [
            "667",
            "?"
        ]
    ],
    [
        "L S L S L S L S",
        "γαπετεῖς δικὼν ὀδόντας",
        [
            "668",
            "2tr"
        ]
    ],
    [
        "L S L S L S L",
        "ἐς βαθυσπόρους γύας·",
        [
            "669",
            "lek"
        ]
    ],
    [
        "L S L S L S L",
        "ἔνθεν ἐξανῆκε γᾶ",
        [
            "670",
            "lek"
        ]
    ],
    [
        "S L S L S S S S L",
        "πάνοπλον ὄψιν ὑπὲρ ἄκρων",
        [
            "671",
            "2ia"
        ]
    ],
    [
        "S L S L S L S L",
        "ὅρων χθονός: σιδαρόφρων",
        [
            "672",
            "2ia"
        ]
    ],
    [
        "S L S L S L S L S L S L",
        "δέ νιν φόνος ξυνῆψε γᾷ φόνος πάλιν.",
        [
            "673",
            "3ia"
        ]
    ],
    [
        "L S L S L S L S",
        "αἵματος δ᾽ ἔδευσε γαῖαν,",
        [
            "674a",
            "2tr"
        ]
    ],
    [
        "L S L L S L S",
        "ἅ νιν εὐηλίοισι",
        [
            "674a",
            "cr+tr"
        ]
    ],
    [
        "L S L S L S L",
        "δεῖξεν αἰθέρος πνοαῖς.",
        [
            "675",
            "lek"
        ]
    ],
    [
        "S S S L S L S L S",
        "Ἔπαφον, ὦ Διὸς γένεθλον,",
        [
            "678",
            "2tr"
        ]
    ],
    [
        "S S S S S S S L S L S L",
        "†ἐκάλεσ᾽ ἐκάλεσα βαρβάρῳ βοᾷ,",
        [
            "679",
            "?"
        ]
    ],
    [
        "S L L S L S L",
        "ἰώ, βαρβάροις λιταῖς†·",
        [
            "680",
            "ba+ia?[^7]"
        ]
    ],
    [
        "L S L S L S L",
        "βᾶθι βᾶθι τάνδε γᾶν·",
        [
            "681",
            "lek"
        ]
    ],
    [
        "L S L S L S L",
        "σοί νιν ἔκγονοι κτίσαν",
        [
            "682",
            "lek"
        ]
    ],
    [
        "L S L S L S L",
        "καὶ διώνυμοι θεαί,",
        [
            "683",
            "lek"
        ]
    ],
    [
        "L S L S L S L",
        "Περσέφασσα καὶ φίλα",
        [
            "684",
            "lek"
        ]
    ],
    [
        "L L L S L",
        "Δαμάτηρ θεά,",
        [
            "685",
            "sp+cr"
        ]
    ],
    [
        "L L S L S L L S L S L",
        "πάντων ἄνασσα, πάντων δὲ Γᾶ τροφός,",
        [
            "686",
            "ia+ba+ia"
        ]
    ],
    [
        "L L S L S L S L",
        "κτήσαντο· πέμπε πυρφόρους",
        [
            "687",
            "2ia"
        ]
    ],
    [
        "S L S L S L S L",
        "θεάς, ἄμυνε τᾷδε γᾷ:",
        [
            "688",
            "2ia"
        ]
    ],
    [
        "L S L S L S L",
        "πάντα δ᾽ εὐπετῆ θεοῖς.",
        [
            "689",
            "lek"
        ]
    ],
    [
        "L S S L S S L S S L S S",
        "ὦ πολύμοχθος Ἄρης, τί ποθ᾽ αἵματι",
        [
            "784",
            "4da"
        ]
    ],
    [
        "L S S L S S L S S L S S L S S L L",
        "καὶ θανάτῳ κατέχῃ Βρομίου παράμουσος ἑορταῖς;",
        [
            "785",
            "6da"
        ]
    ],
    [
        "L S S L S S L S S L S S L S S L L",
        "οὐκ ἐπὶ καλλιχόροις στεφάνοισι νεάνιδος ὥρας",
        [
            "786",
            "6da"
        ]
    ],
    [
        "L S S L S S L L L S S L S S L L",
        "βόστρυχον ἀμπετάσας λωτοῦ κατὰ πνεύματα μέλπῃ",
        [
            "787",
            "6da"
        ]
    ],
    [
        "L S S L S S L S S L L",
        "μοῦσαν, ἐν ᾇ χάριτες χοροποιοί,",
        [
            "788",
            "4da",
            "",
            "Hs"
        ]
    ],
    [
        "L S S L S S L S S L L L S S L L",
        "ἀλλὰ σὺν ὁπλοφόροις στρατὸν Ἀργείων †ἐπιπνεύσας",
        [
            "789",
            "6da?"
        ]
    ],
    [
        "L S S L L",
        "αἵματι Θήβας†",
        [
            "790a",
            "2da"
        ]
    ],
    [
        "L S S L S S L S S L L",
        "κῶμον ἀναυλότατον προχορεύεις.",
        [
            "790b",
            "4da"
        ]
    ],
    [
        "L S S L S S L S S L S S L L L",
        "οὐδ᾽ ὑπὸ θυρσομανεῖ νεβρίδων μέτα †δινεύεις,",
        [
            "791",
            "?"
        ]
    ],
    [
        "L S S L S S L S S L S S L S S L L",
        "ἅρμασι καὶ ψαλίων τετραβάμοσι μώνυχα πώλων†",
        [
            "792",
            "6da?"
        ]
    ],
    [
        "L L L S S L S S L L",
        "ἱππείαις ἐπὶ χεύμασι βαίνων",
        [
            "793",
            "4da"
        ]
    ],
    [
        "L L L S S L L",
        "Ἰσμηνοῖο θοάζεις,",
        [
            "794a",
            "3da"
        ]
    ],
    [
        "L L L S S L L",
        "Ἀργείοις ἐπιπνεύσας",
        [
            "794b",
            "3da"
        ]
    ],
    [
        "L S S L S S S S S S S S",
        "ἀσπιδοφέρμονα †θίασον ἐνόπλον†",
        [
            "796",
            "?"
        ]
    ],
    [
        "L S S L S S L S S L S S",
        "ἀντίπαλον κατὰ λάινα τείχεα",
        [
            "797a",
            "4da"
        ]
    ],
    [
        "L L L S S L S S L S S",
        "ἦ δεινά τις Ἔρις θεός, ἃ τάδε",
        [
            "798",
            "4da"
        ]
    ],
    [
        "L S S L S S L S S L L",
        "μήσατο πήματα γᾶς βασιλεῦσιν,",
        [
            "799",
            "4da"
        ]
    ],
    [
        "L S S L S S L S S L S S",
        "ὦ ζαθέων πετάλων πολυθηρότα-",
        [
            "801",
            "4da∫[^8]"
        ]
    ],
    [
        "L S S L S S L S S L S S L S S L L",
        "τον νάπος, Ἀρτέμιδος χιονοτρόφον ὄμμα Κιθαιρών,",
        [
            "802",
            "6da"
        ]
    ],
    [
        "L S S L S S L S S L S S L S S L L",
        "μήποτε τὸν θανάτῳ προτεθέντα, λόχευμ᾽ Ἰοκάστας,",
        [
            "803",
            "6da"
        ]
    ],
    [
        "L S S L S S L L L S S L S S L L",
        "ὤφελες Οἰδιπόδαν θρέψαι, βρέφος ἔκβολον οἴκων,",
        [
            "804",
            "6da"
        ]
    ],
    [
        "L S S L S S L S S L L",
        "χρυσοδέτοις περόναις ἐπίσαμον:",
        [
            "805",
            "4da"
        ]
    ],
    [
        "L S S L S S L S S L L L S S L L",
        "μηδὲ τὸ παρθένιον πτερόν, οὔρειον τέρας, ἐλθεῖν",
        [
            "806",
            "6da"
        ]
    ],
    [
        "L S S L L",
        "πένθεα γαίας",
        [
            "807a",
            "2da"
        ]
    ],
    [
        "L S S L S S L S S L L",
        "Σφιγγὸς ἀμουσοτάταισι σὺν ᾠδαῖς,",
        [
            "807b",
            "4da"
        ]
    ],
    [
        "L S S L S S L S S L S S L L",
        "ἅ ποτε Καδμογενῆ τετραβάμοσι χαλαῖς",
        [
            "808",
            "5da"
        ]
    ],
    [
        "L S S L S S L S S L S S L S S L L",
        "τείχεσι χριμπτομένα φέρεν αἰθέρος εἰς ἄβατον φῶς",
        [
            "809",
            "6da"
        ]
    ],
    [
        "L L L S S L S S L L",
        "†γένναν, ἃν† ὁ κατὰ χθονὸς Ἅιδας",
        [
            "810",
            "4da"
        ]
    ],
    [
        "L L L S S L L",
        "Καδμείοις ἐπιπέμπει:",
        [
            "811a",
            "3da"
        ]
    ],
    [
        "L L L S S L L",
        "δυσδαίμων δ᾽ ἔρις ἄλλα",
        [
            "811b",
            "3da"
        ]
    ],
    [
        "L S S L S S L S S L S S",
        "Οἰδιπόδα κατὰ δώματα καὶ πόλιν.",
        [
            "813",
            "4da"
        ]
    ],
    [
        "L S S L S S L S S L S S",
        "οὐ γὰρ ὃ μὴ καλὸν οὔποτ᾽ ἔφυ καλόν,",
        [
            "814",
            "4da"
        ]
    ],
    [
        "L L L S S L",
        "†οὐδ᾽ οἱ μὴ νόμιμοι",
        [
            "815",
            "?"
        ]
    ],
    [
        "L L L S S L S S L S S S",
        "παῖδες ματρὶ λόχευμα, μίασμα πατρός:",
        [
            "816",
            "?"
        ]
    ],
    [
        "L S S L S S L S S L L",
        "ἣ δὲ συναίμονος ἐς λέχος ἦλθεν. †",
        [
            "817",
            "4da?"
        ]
    ],
    [
        "S S S L L S S L S S",
        "ἔτεκες, ὦ Γαῖ᾽, ἔτεκές ποτε,",
        [
            "818",
            "cr+2da"
        ]
    ],
    [
        "L S S L S S L S S L S S L S S L L",
        "βάρβαρον ὡς ἀκοὰν ἐδάην ἐδάην ποτ᾽ ἐν οἴκοις,",
        [
            "819",
            "6da"
        ]
    ],
    [
        "L S S L S S L L L S S L S S L L",
        "τὰν ἀπὸ θηροτρόφου φοινικολόφοιο δράκοντος",
        [
            "820",
            "6da"
        ]
    ],
    [
        "L S S L S S L S S L L",
        "Ἁρμονίας δέ ποτ᾽ εἰς ὑμεναίους",
        [
            "822",
            "4da"
        ]
    ],
    [
        "L S S L S S L L L S S L S S L L",
        "ἤλυθον οὐρανίδαι, φόρμιγγί τε τείχεα Θήβας",
        [
            "823",
            "6da"
        ]
    ],
    [
        "L L L S S L S S L S S L S S L L",
        "τᾶς Ἀμφιονίας τε λύρας ὕπο πύργος ἀνέστα",
        [
            "824",
            "6da"
        ]
    ],
    [
        "S S L S S L S S L S S L",
        "διδύμων ποταμῶν πόρον ἀμφὶ μέσον,",
        [
            "825",
            "2an"
        ]
    ],
    [
        "L L S S L S S L S S L",
        "Δίρκα χλοεροτρόφον ᾇ πεδίον",
        [
            "826",
            "2an"
        ]
    ],
    [
        "S S L L L S S L L",
        "πρόπαρ Ἰσμηνοῦ καταδεύει:",
        [
            "827",
            "paroemiac",
            "",
            "H"
        ]
    ],
    [
        "L L L S S L S S L L",
        "Ἰώ θ᾽, ἁ κερόεσσα προμάτωρ,",
        [
            "828",
            "4da"
        ]
    ],
    [
        "L L L S S L S S L S S",
        "Καδμείων βασιλῆας ἐγείνατο,",
        [
            "829",
            "4da"
        ]
    ],
    [
        "L S S L S S L S S L S S",
        "μυριάδας δ᾽ ἀγαθῶν ἑτέροις ἑτέ-",
        [
            "830",
            "4da∫"
        ]
    ],
    [
        "L S S L S S L S S L S S L",
        "ρας μεταμειβομένα πόλις ἅδ᾽ ἐπ᾽ ἄκροις",
        [
            "831-2",
            "?[^9]"
        ]
    ],
    [
        "L L S S L S S L L",
        "ἕστακ᾽ Ἄρεος στεφάνοισιν.",
        [
            "833",
            "erasmonidean"
        ]
    ],
    [
        "S L S L",
        "ἔβας ἔβας,",
        [
            "1019a",
            "ia"
        ]
    ],
    [
        "L S L S L S L S",
        "ὦ πτεροῦσσα, γᾶς λόχευμα",
        [
            "1019b",
            "2tr"
        ]
    ],
    [
        "L S L S L L",
        "νερτέρου τ᾽ Ἐχίδνας,",
        [
            "1020",
            "ith"
        ]
    ],
    [
        "L L L L S L",
        "Καδμείων ἁρπαγά,",
        [
            "1021",
            "mol+cr"
        ]
    ],
    [
        "S L S L S L S L",
        "πολύφθορος πολύστονος",
        [
            "1022",
            "2ia"
        ]
    ],
    [
        "L S L S L",
        "μειξοπάρθενος,",
        [
            "1023a",
            "hypodoch"
        ]
    ],
    [
        "L S L S L",
        "δάιον τέρας,",
        [
            "1023b",
            "hypodoch"
        ]
    ],
    [
        "L S L S L",
        "φοιτάσι πτεροῖς",
        [
            "1024",
            "hypodoch"
        ]
    ],
    [
        "S L S L S L L",
        "χαλαῖσί τ᾽ ὠμοσίτοις:",
        [
            "1025",
            "ia+ba"
        ]
    ],
    [
        "L L L L S L",
        "Διρκαίων ἅ ποτ᾽ ἐκ",
        [
            "1026",
            "mol+cr"
        ]
    ],
    [
        "S L S L S L L",
        "τόπων νέους πεδαίρουσ᾽",
        [
            "1027",
            "ia+ba"
        ]
    ],
    [
        "S S S S S S S S S S S S",
        "ἔφερες ἔφερες ἄχεα πατρίδι",
        [
            "1030",
            "2ia"
        ]
    ],
    [
        "S S S S S S L S L",
        "φόνια: φόνιος ἐκ θεῶν",
        [
            "1031",
            "ia+cr"
        ]
    ],
    [
        "L S L S L L",
        "ὃς τάδ᾽ ἦν ὁ πράξας.",
        [
            "1032",
            "ith"
        ]
    ],
    [
        "S L S L S L S L",
        "ἰάλεμοι δὲ ματέρων,",
        [
            "1033",
            "2ia"
        ]
    ],
    [
        "S L S L S L S L",
        "ἰάλεμοι δὲ παρθένων",
        [
            "1034",
            "2ia"
        ]
    ],
    [
        "L S L S L L",
        "ἐστέναζον οἴκοις:",
        [
            "1035",
            "ith"
        ]
    ],
    [
        "S L S L S L S L",
        "ἰηιήιον βοάν,",
        [
            "1036",
            "2ia"
        ]
    ],
    [
        "L S L S S S L S",
        "ἄλλος ἄλλ᾽ ἐποτότυζε",
        [
            "1038a",
            "2tr"
        ]
    ],
    [
        "S S S L S L S L",
        "διαδοχαῖς ἀνὰ πτόλιν.",
        [
            "1038b",
            "lek"
        ]
    ],
    [
        "L L L S L S",
        "βροντᾷ δὲ στεναγμὸς",
        [
            "1039",
            "sp+tr"
        ]
    ],
    [
        "L L L S L S",
        "ἀχά τ᾽ ἦν ὅμοιος,",
        [
            "1040",
            "sp+tr"
        ]
    ],
    [
        "S S S S S S S S S L S",
        "ὁπότε πόλεος ἀφανίσειεν",
        [
            "1041",
            "2tr"
        ]
    ],
    [
        "L S L S L S L S L L",
        "ἁ πτεροῦσσα παρθένος τιν᾽ ἀνδρῶν.",
        [
            "1042",
            "tr+ith"
        ]
    ],
    [
        "S L S L",
        "χρόνῳ δ᾽ ἔβα",
        [
            "1043a",
            "ia"
        ]
    ],
    [
        "L S L S L S L S",
        "Πυθίαις ἀποστολαῖσιν",
        [
            "1043b",
            "2tr"
        ]
    ],
    [
        "L S L S L L",
        "Οἰδίπους ὁ τλάμων",
        [
            "1044",
            "ith"
        ]
    ],
    [
        "L L L L S L",
        "Θηβαίαν τάνδε γᾶν",
        [
            "1045",
            "mol+cr"
        ]
    ],
    [
        "S L S L S L S L",
        "τότ᾽ ἀσμένοις, πάλιν δ᾽ ἄχη:",
        [
            "1046",
            "2ia"
        ]
    ],
    [
        "L S L S L",
        "ματρὶ γὰρ γάμους",
        [
            "1047a",
            "hypodoch"
        ]
    ],
    [
        "L S L S L",
        "δυσγάμους τάλας",
        [
            "1047b[^11]",
            "hypodoch"
        ]
    ],
    [
        "L S L S L",
        "καλλίνικος ὢν",
        [
            "1048",
            "hypodoch"
        ]
    ],
    [
        "L L S L S L L",
        "αἰνιγμάτων συνάπτει,",
        [
            "1049",
            "ia+ba"
        ]
    ],
    [
        "S L L L S L",
        "μιαίνει δὲ πτόλιν:",
        [
            "1050",
            "ba+cr"
        ]
    ],
    [
        "S L S L S L L",
        "δι᾽ αἱμάτων δ᾽ ἀμείβει",
        [
            "1051",
            "ia+ba"
        ]
    ],
    [
        "S S S L S L S",
        "καταβαλὼν ἀραῖσι",
        [
            "1052",
            "ith",
            "",
            "Ba"
        ]
    ],
    [
        "S S S S S S S S S S S S",
        "τέκεα μέλεος. ἀγάμεθ᾽ ἀγάμεθ᾽,",
        [
            "1053",
            "2ia"
        ]
    ],
    [
        "S S S S S S L S L",
        "ὃς ἐπὶ θάνατον οἴχεται",
        [
            "1055",
            "ia+cr"
        ]
    ],
    [
        "L S L S L L",
        "γᾶς ὑπὲρ πατρῴας,",
        [
            "1056",
            "ith"
        ]
    ],
    [
        "S L S L S L S L",
        "Κρέοντι μὲν λιπὼν γόους,",
        [
            "1057",
            "2ia"
        ]
    ],
    [
        "S L S L S L S L",
        "τὰ δ᾽ ἑπτάπυργα κλῇθρα γᾶς",
        [
            "1058",
            "2ia"
        ]
    ],
    [
        "L S L S L L",
        "καλλίνικα θήσων.",
        [
            "1059",
            "ith"
        ]
    ],
    [
        "S L S L S L S L",
        "γενοίμεθ᾽ ὧδε ματέρες",
        [
            "1060",
            "2ia"
        ]
    ],
    [
        "S L S L S L S L",
        "γενοίμεθ᾽ εὔτεκνοι, φίλα",
        [
            "1061",
            "2ia"
        ]
    ],
    [
        "L S L S L S L S",
        "Παλλάς, ἃ δράκοντος αἷμα",
        [
            "1062a",
            "2tr"
        ]
    ],
    [
        "S S S L S L S L",
        "λιθόβολον κατηργάσω,",
        [
            "1062b",
            "lek"
        ]
    ],
    [
        "L L L S L S",
        "Καδμείαν μέριμναν",
        [
            "1063",
            "sp+tr"
        ]
    ],
    [
        "L L L S L S",
        "ὁρμήσασ᾽ ἐπ᾽ ἔργον,",
        [
            "1064",
            "sp+tr"
        ]
    ],
    [
        "S S S S S S L S L L",
        "ὅθεν ἐπέσυτο τάνδε γαῖαν",
        [
            "1065",
            "2tr"
        ]
    ],
    [
        "L S L S L S L S L L",
        "ἁρπαγαῖσι δαιμόνων τις ἄτα.",
        [
            "1066",
            "tr+ith"
        ]
    ],
    [
        "L L L L S S L L L",
        "αἰαῖ αἰαῖ, τρομερὰν φρίκᾳ",
        [
            "1284",
            "2an"
        ]
    ],
    [
        "S S L S S L S S L S S L",
        "τρομερὰν φρέν᾽ ἔχω: διὰ σάρκα δ᾽ ἐμὰν",
        [
            "1285",
            "2an"
        ]
    ],
    [
        "S S S S S S S S S L",
        "ἔλεος ἔλεος ἔμολε μα-",
        [
            "1286",
            "ia+cr∫"
        ]
    ],
    [
        "S L L L L",
        "τέρος δειλαίας.",
        [
            "1287",
            "doc"
        ]
    ],
    [
        "S S S S S S S S S S S",
        "δίδυμα τέκεα πότερος ἄρα",
        [
            "1288",
            "lek"
        ]
    ],
    [
        "S S S L L L",
        "πότερον αἱμάξει —",
        [
            "1289",
            "doc"
        ]
    ],
    [
        "S L L S L S L L S L L",
        "ἰώ μοι πόνων, ἰὼ Ζεῦ, ἰὼ γᾶ —",
        [
            "1290",
            "doc+2ba",
            "",
            "H"
        ]
    ],
    [
        "S S S L S L S S S L L [ ^ 1 2 ] L",
        "ὁμογενῆ δέραν, ὁμογενῆ ψυχὰν",
        [
            "1291",
            "2doc"
        ]
    ],
    [
        "S L S L S L S L",
        "δι᾽ ἀσπίδων, δι᾽ αἱμάτων;",
        [
            "1292",
            "2ia"
        ]
    ],
    [
        "S L S L S L S",
        "τάλαιν᾽ ἐγὼ τάλαινα,",
        [
            "1293",
            "ia+ba",
            "",
            "Bs"
        ]
    ],
    [
        "S S S S S S S S S S S L L L",
        "πότερον ἄρα νέκυν ὀλόμενον ἀχήσω;",
        [
            "1295",
            "2doc"
        ]
    ],
    [
        "L L L L S S L L L",
        "φεῦ δᾶ φεῦ δᾶ, δίδυμοι θῆρες,",
        [
            "1296",
            "2an"
        ]
    ],
    [
        "S S L L L S S L S S L",
        "φόνιαι ψυχαὶ δορὶ παλλόμεναι",
        [
            "1297",
            "2an"
        ]
    ],
    [
        "S S S S S S L S L",
        "πέσεα πέσεα δάι᾽ αὐ-",
        [
            "1298",
            "ia+cr∫"
        ]
    ],
    [
        "S L L S L",
        "τίχ᾽ αἱμάξετον.",
        [
            "1299",
            "doc"
        ]
    ],
    [
        "S S S S S S S S S S S",
        "τάλανες, ὅ τι ποτὲ μονομάχον",
        [
            "1300",
            "lek"
        ]
    ],
    [
        "S S S L S L",
        "ἐπὶ φρέν᾽ ἠλθέτην,",
        [
            "1301",
            "doc"
        ]
    ],
    [
        "S L L S L S L L S L L",
        "βοᾷ βαρβάρῳ στενακτὰν ἰαχὰν",
        [
            "1302",
            "ia+2ba"
        ]
    ],
    [
        "S S S L S L S S S L L L",
        "μελομέναν νεκροῖς δάκρυσι θρηνήσω.",
        [
            "1303",
            "2doc"
        ]
    ],
    [
        "S L S L S L S L",
        "σχεδὸν τύχα πέλας φόνου:",
        [
            "1304",
            "2ia"
        ]
    ],
    [
        "S S S L S L L",
        "κρινεῖ φάος τὸ μέλλον.",
        [
            "1305",
            "ia+ba"
        ]
    ],
    [
        "S S S S S S S S S S S L L L",
        "πότμος ἄποτμος ὁ φόνος ἕνεκ᾽ Ἐρινύων.",
        [
            "1306-1307",
            "2doc"
        ]
    ],
    [
        "S S S L S L S S S L S S",
        "μεγάλα μοι θροεῖς πάθεα καὶ πόλει.",
        [
            "1341",
            "2doc"
        ]
    ],
    [
        "L L L S L S S S L S L",
        "οἴμοι ξυμφορᾶς βαρυποτμωτάτας,",
        [
            "1345",
            "2doc"
        ]
    ],
    [
        "S S S S S S S L S S",
        "ἀνάγετ᾽ ἀνάγετε κωκυτόν",
        [
            "1350",
            "?[^14]"
        ]
    ],
    [
        "S S S S S L S L L S L S L",
        "ἐπὶ κάρα τε λευκοπήχεις κτύπους χεροῖν.",
        [
            "1351",
            "?"
        ]
    ],
    [
        "* * L L S S L S S L S S L * *",
        "ΧΟ. οὐκ εἰϲ ἀκοὰϲ ἔτι δυϲτυχία",
        [
            "1480",
            "an2"
        ]
    ],
    [
        "L S S L L S S L L L",
        "δώματοϲ ἥκει· παρὰ γὰρ λεὺϲϲειν",
        [
            "1481",
            "an2"
        ]
    ],
    [
        "L S S L L L L L L",
        "πτώματα νεκρῶν τριϲϲῶν ἤδη",
        [
            "1482",
            "an2"
        ]
    ],
    [
        "S S L S S L L L S S L",
        "τάδε πρὸϲ μελάθροιϲ κοινῶι θανάτωι",
        [
            "1483",
            "an2"
        ]
    ],
    [
        "S S L L L S S L L",
        "ϲκοτίαν αἰῶνα λαχόντων.",
        [
            "1484",
            "par"
        ]
    ],
    [
        "L S S L S S L S S L S S",
        "οὐδ᾽ ὑπὸ παρθενίας τὸν ὑπὸ βλεφά-",
        [
            "1487",
            "4da∫"
        ]
    ],
    [
        "L L L S S L S S L L",
        "ροις φοίνικ᾽, ἐρύθημα προσώπου,",
        [
            "1488",
            "4da",
            "",
            "H"
        ]
    ],
    [
        "L S S L S S L L L S S",
        "αἰδομένα φέρομαι βάκχα νεκύ-",
        [
            "1489",
            "4da∫"
        ]
    ],
    [
        "L L L S S L S S S S S",
        "ων, κράδεμνα δικοῦσα κόμας ἀπ᾽ ἐ-",
        [
            "1490",
            "4da∫[^15]"
        ]
    ],
    [
        "L S S L S S L S S L L L L",
        "μᾶς, στολίδος κροκόεσσαν ἀνεῖσα τρυφάν,",
        [
            "1491",
            "5da\\^"
        ]
    ],
    [
        "L S S L S S L S S L S S L S S L L",
        "ἁγεμόνευμα νεκροῖσι πολύστονον. αἰαῖ, ἰώ μοι.",
        [
            "1492-3",
            "6da",
            "",
            "H"
        ]
    ],
    [
        "L S S L S S L S S L S S L L L L",
        "ὦ Πολύνεικες, ἔφυς ἄρ᾽ ἐπώνυμος: ὤμοι Θῆβαι:",
        [
            "1493-4",
            "6da"
        ]
    ],
    [
        "L S S L S S L S S L S S",
        "σὰ δ᾽ ἔρις — οὐκ ἔρις, ἀλλὰ φόνῳ φόνος —",
        [
            "1495",
            "4da"
        ]
    ],
    [
        "L S S L S S",
        "Οἰδιπόδα δόμον",
        [
            "1496",
            "2da"
        ]
    ],
    [
        "L S S L L L S S L L",
        "ὤλεσε κρανθεῖσ᾽ αἵματι δεινῷ,",
        [
            "1497a",
            "4da",
            "",
            "H"
        ]
    ],
    [
        "L S S L L",
        "αἵματι λυγρῷ.",
        [
            "1497b",
            "2da"
        ]
    ],
    [
        "S S S L S",
        "†τίνα προσῳδὸν†",
        [
            "1498",
            "?"
        ]
    ],
    [
        "L S S L S S L S S L S S",
        "ἢ τίνα μουσοπόλον στοναχὰν ἐπὶ",
        [
            "1499",
            "4da"
        ]
    ],
    [
        "L S S L S S L S S L S S",
        "δάκρυσι δάκρυσιν, ὦ δόμος, ὦ δόμος,",
        [
            "1500",
            "4da"
        ]
    ],
    [
        "L S S L L",
        "ἀγκαλέσωμαι,",
        [
            "1501",
            "2da"
        ]
    ],
    [
        "L S S L S S S L S S L S S",
        "τρισσὰ φέρουσα †τάδε σώματα† σύγγονα,",
        [
            "1502",
            "?"
        ]
    ],
    [
        "L S S L S S L S S L S S",
        "ματέρα καὶ τέκνα, χάρματ᾽ Ἐρινύος;",
        [
            "1503",
            "4da"
        ]
    ],
    [
        "L S S L S S L S S L S S",
        "ἃ δόμον Οἰδιπόδα πρόπαν ὤλεσε,",
        [
            "1504",
            "4da"
        ]
    ],
    [
        "L S S L S S",
        "τᾶς ἀγρίας ὅτε",
        [
            "1505",
            "2da"
        ]
    ],
    [
        "L S S L S S L S S L L",
        "δυσξυνέτου ξυνετὸν μέλος ἔγνω",
        [
            "1506",
            "4da"
        ]
    ],
    [
        "L S S L L L S S L L",
        "Σφιγγὸς ἀοιδοῦ σῶμα φονεύσας.",
        [
            "1507",
            "4da"
        ]
    ],
    [
        "S L L L",
        "ἰώ μοί μοι·",
        [
            "1508",
            "extrametric"
        ]
    ],
    [
        "S L S L L S S L",
        "τίς Ἑλλὰς ἢ βάρβαρος ἢ",
        [
            "1509",
            "ia+cho"
        ]
    ],
    [
        "L S S L L S S L",
        "τῶν προπάροιθ᾽ εὐγενετᾶν",
        [
            "1510",
            "2cho"
        ]
    ],
    [
        "S S S S L S L S L",
        "ἕτερος ἔτλα κακῶν τοσῶνδ᾽",
        [
            "1511",
            "2ia"
        ]
    ],
    [
        "L S S L S S L",
        "αἵματος ἁμερίου",
        [
            "1512",
            "D"
        ]
    ],
    [
        "S L L S S L L",
        "†τάλαιν᾽, ὡς ἐλελίζει†;",
        [
            "1514",
            "?"
        ]
    ],
    [
        "S S L L S S L",
        "τίς ἄρ᾽ ὄρνις, δρυὸς ἢ",
        [
            "1515",
            "2io\\^[^16]",
            "",
            "H"
        ]
    ],
    [
        "S S L L S S L L S S L",
        "ἐλάτας ἀκροκόμοις ἂμ πετάλοις",
        [
            "1516",
            "3io\\^[^17]"
        ]
    ],
    [
        "S S L L S S L L",
        "μονομάτορσιν ὀδυρμοῖς",
        [
            "1517",
            "2io?"
        ]
    ],
    [
        "L S S L L S S L L S S L",
        "αἴλινον αἰάγμασιν ἃ τοῖσδε προκλαί-",
        [
            "1519",
            "3cho"
        ]
    ],
    [
        "L S S L L S S L L S S L",
        "ω μονάδ᾽ αἰῶνα διάξουσα τὸν αἰ-",
        [
            "1520-1",
            "3cho"
        ]
    ],
    [
        "L S S L L S S L L S S L",
        "εὶ χρόνον ἐν λειβομένοισιν δάκρυσιν",
        [
            "1522-3",
            "3cho"
        ]
    ],
    [
        "S S S L S S S L L S L",
        "τίν᾽ ἐπὶ πρῶτον ἀπὸ χαίας σπαραγ-",
        [
            "1524",
            "3cr∫"
        ]
    ],
    [
        "L S L L S L",
        "μοῖς ἀπαρχὰς βάλω;",
        [
            "1525",
            "2cr"
        ]
    ],
    [
        "L S S L L S S L",
        "ματρὸς ἐμᾶς ἢ διδύμοις",
        [
            "1526",
            "2cho"
        ]
    ],
    [
        "S S L L S S L L",
        "ἀγαλάκτοις παρὰ μαστοῖς",
        [
            "1527",
            "2ion"
        ]
    ],
    [
        "L S S L L",
        "ἢ πρὸς ἀδελφῶν",
        [
            "1528",
            "adon"
        ]
    ],
    [
        "L S S L L S S L L",
        "οὐλόμεν᾽ αἰκίσματα νεκρῶν;",
        [
            "1529",
            "cho+adon"
        ]
    ],
    [
        "S S S L L S L",
        "ὀτοτοτοῖ λεῖπε σοὺς",
        [
            "1530",
            "2cr"
        ]
    ],
    [
        "S L S S S L S S L",
        "δόμους, ἀλαὸν ὄμμα φέρων,",
        [
            "1531",
            "ia+cho"
        ]
    ],
    [
        "L S S L S L L S S S S S S S",
        "Οἰδιπόδα, σὸν αἰῶνα μέλεον, ὃς ἔτι",
        [
            "1533",
            "2doc"
        ]
    ],
    [
        "L S S L S S L S S L S S",
        "† δώμασιν ἀέριον σκότον† ὄμμασι",
        [
            "1534",
            "?"
        ]
    ],
    [
        "L S S L L L S L L S L",
        "σοῖσι βαλὼν ἕλκεις μακρόπνουν ζόαν.",
        [
            "1535",
            "2doc"
        ]
    ],
    [
        "S L L S L L S L L S L L",
        "κλύεις, ὦ κατ᾽ αὐλὰν ἀλαίνων γεραιὸν",
        [
            "1536",
            "4ba"
        ]
    ],
    [
        "S L L S L",
        "πόδ᾽ ἢ δεμνίοις",
        [
            "1537",
            "doc"
        ]
    ],
    [
        "L L S S L L",
        "δύστανος ἰαύων;",
        [
            "1538",
            "reiz"
        ]
    ],
    [
        "S L L S S L L S S L L",
        "τί μ᾽, ὦ παρθένε, βακτρεύμασι τυφλοῦ",
        [
            "1539",
            "ba+2ion"
        ]
    ],
    [
        "S S L L S S L L",
        "ποδὸς ἐξάγαγες ἐς φῶς",
        [
            "1540",
            "2ion"
        ]
    ],
    [
        "S L L S S L L S S L L",
        "λεχήρη σκοτίων ἐκ θαλάμων οἰκ-",
        [
            "1541",
            "ba+2ion∫"
        ]
    ],
    [
        "S S L L S S L L",
        "τροτάτοισιν δακρύοισιν,",
        [
            "1542",
            "2ion"
        ]
    ],
    [
        "S S S L S S S S S L L S L",
        "πολιὸν αἰθέρος ἀφανὲς εἴδωλον ἢ",
        [
            "1543",
            "2doc"
        ]
    ],
    [
        "S S S L S L",
        "νέκυν ἔνερθεν ἢ",
        [
            "1554",
            "doc"
        ]
    ],
    [
        "L S S L L",
        "πτανὸν ὄνειρον;",
        [
            "1545",
            "adon"
        ]
    ],
    [
        "L S S L S S L S S L L",
        "δυστυχὲς ἀγγελίας ἔπος εἴσῃ,",
        [
            "1546",
            "2an(4da)"
        ]
    ],
    [
        "S S L S S L S S L L",
        "πάτερ, οὐκέτι σοι τέκνα λεύσσει",
        [
            "1547",
            "par"
        ]
    ],
    [
        "S S L S S L S S L L",
        "φάος οὐδ᾽ ἄλοχος, παραβάκτροις",
        [
            "1548",
            "par"
        ]
    ],
    [
        "L S S L S S L S S L S S L S S L L",
        "ἃ πόδα σὸν τυφλόπουν θεραπεύμασιν αἰὲν ἐμόχθει,",
        [
            "1549",
            "(6da)",
            "",
            "H"
        ]
    ],
    [
        "L S S L S S L S S L S S L S S L L",
        "ὤμοι ἐμῶν παθέων: πάρα γὰρ †στενάχειν τάδ᾽, ἀυτεῖν†.",
        [
            "1551-2",
            "6da?[^18]"
        ]
    ],
    [
        "L S S L S S L S S L L",
        "πῶς ἔλιπον φάος; ὦ τέκνον, αὔδα.",
        [
            "1554",
            "2an",
            "(4da)",
            "",
            "H"
        ]
    ],
    [
        "L S S L S S L S S L S S",
        "οὐκ ἐπ᾽ ὀνείδεσιν οὐδ᾽ ἐπιχάρμασιν,",
        [
            "1555",
            "2an(4da)"
        ]
    ],
    [
        "L S S L S S L S S L L",
        "ἀλλ᾽ ὀδύναισι λέγω: σὸς ἀλάστωρ",
        [
            "1556",
            "2an(4da)"
        ]
    ],
    [
        "S S L L L",
        "ξίφεσιν βρίθων",
        [
            "1557",
            "an"
        ]
    ],
    [
        "L S S L S S L S S L S S L S S L L",
        "καὶ πυρὶ καὶ σχετλίαισι μάχαις ἐπὶ παῖδας ἔβα σούς,",
        [
            "1558",
            "(6da)"
        ]
    ],
    [
        "L S S L L",
        "ὦ πάτερ, ὤ μοι.",
        [
            "1559",
            "(2da)",
            "",
            "H"
        ]
    ],
    [
        "L S S L S S L S S L L",
        "εἰ δὲ τέθριππά γ᾽ ἔθ᾽ ἅρματα λεύσσων",
        [
            "1562",
            "4da"
        ]
    ],
    [
        "L S S L S S L S S L L",
        "ἀελίου τάδε σώματα νεκρῶν",
        [
            "1563",
            "4da"
        ]
    ],
    [
        "L S S L L L S S L L",
        "ὄμματος αὐγαῖς σαῖς ἐπενώμας —",
        [
            "1564",
            "4da"
        ]
    ],
    [
        "L S S L S S L S S L S S",
        "τῶν μὲν ἐμῶν τεκέων φανερὸν κακόν:",
        [
            "1565",
            "4da"
        ]
    ],
    [
        "L S S L S S L S S L S S L S S L L",
        "ἁ δὲ τάλαιν᾽ ἄλοχος τίνι μοι, τέκνον, ὤλετο μοίρᾳ;",
        [
            "1566",
            "6da"
        ]
    ],
    [
        "S S S S S S",
        "δάκρυα γοερὰ",
        [
            "1567a",
            "tr"
        ]
    ],
    [
        "S S S L S S S S L",
        "φανερὰ πᾶσι τιθεμένα,",
        [
            "1567b",
            "tr+cr"
        ]
    ],
    [
        "S S S L S S S S S S S",
        "τέκεσι μαστὸν ἔφερεν ἔφερεν",
        [
            "1568",
            "2tr"
        ]
    ],
    [
        "S S S S S S S S S S",
        "ἱκέτις ἱκέτιν ὀρομένα.",
        [
            "1569",
            "lek",
            "",
            "H[^19]"
        ]
    ],
    [
        "L S S L S S L S S L L",
        "λωτοτρόφον κατὰ λείμακα λόγχαις,",
        [
            "1571",
            "4da"
        ]
    ],
    [
        "L S S L S S L",
        "κοινὸν ἐνυάλιον,",
        [
            "1572",
            "D"
        ]
    ],
    [
        "L L L S S L S S L L",
        "μάτηρ, ὥστε λέοντας ἐναύλους,",
        [
            "1573",
            "4da"
        ]
    ],
    [
        "L S S L S S L S S L S S",
        "μαρναμένους ἐπὶ τραύμασιν, αἵματος",
        [
            "1574",
            "4da"
        ]
    ],
    [
        "L L L L L L S S L",
        "ἤδη ψυχρὰν λοιβὰν φονίαν,",
        [
            "1575",
            "2an"
        ]
    ],
    [
        "L S S L S S L S S L S S L S S L L",
        "χαλκόκροτον δὲ λαβοῦσα νεκρῶν πάρα φάσγανον εἴσω",
        [
            "1577",
            "6da"
        ]
    ],
    [
        "L S S L S S L S S L S S S S S L",
        "σαρκὸς ἔβαψεν, ἄχει δὲ τέκνων ἔπεσ᾽ ἀμφὶ νεκροῖσιν.",
        [
            "1578",
            "6da"
        ]
    ],
    [
        "L S S L S S L S S L S S",
        "πάντα δ᾽ ἐν ἄματι τῷδε συνάγαγεν,",
        [
            "1579",
            "4da"
        ]
    ],
    [
        "L S S L S S L S S L S S L",
        "ὦ πάτερ, ἁμετέροισι δόμοισιν ἄχη",
        [
            "1580",
            "5da\\^"
        ]
    ],
    [
        "S S L S S L S L S L L",
        "μελάθροις θέος ὃς τάδ᾽ ἐκτελευτᾷ.",
        [
            "1581",
            "T+ba"
        ]
    ],
    [
        "S L S L S L S S S S S S S L",
        "ἴθ᾽ ἐς φυγὰν τάλαιναν: ὄρεγε χέρα φίλαν,",
        [
            "1710",
            "3ia"
        ]
    ],
    [
        "S L S L S L S L",
        "πάτερ γεραιέ, πομπίμαν",
        [
            "1711",
            "2ia"
        ]
    ],
    [
        "S L S L S L S L S L L",
        "ἔχων ἔμ᾽ ὥστε ναυσίπομπον αὔραν.",
        [
            "1712",
            "2ia+ba"
        ]
    ],
    [
        "S L",
        "ἰδοὺ·",
        [
            "1713",
            "extrametric"
        ]
    ],
    [
        "S L S L S L S L",
        "πορεύομαι, τέκνον, σύ μοι",
        [
            "1714",
            "2ia"
        ]
    ],
    [
        "S L S L S L S L",
        "ποδαγὸς ἀθλία γενοῦ.",
        [
            "1715",
            "2ia"
        ]
    ],
    [
        "S S S S S S S L S L",
        "γενόμεθα γενόμεθ᾽, ἄθλιοί",
        [
            "1716",
            "2ia"
        ]
    ],
    [
        "S L S L L L S L S L S L",
        "γε δῆτα Θηβαιᾶν μάλιστα παρθένων.",
        [
            "1717",
            "3ia"
        ]
    ],
    [
        "S S S S S S L S L S",
        "πόθι γεραιὸν ἴχνος τίθημι;",
        [
            "1718",
            "2tr"
        ]
    ],
    [
        "L S L S L S L",
        "βάκτρα πρόσφερ᾽, ὦ τέκνον.",
        [
            "1719",
            "lek"
        ]
    ],
    [
        "L S L S L S L",
        "τᾷδε τᾷδε βᾶθί μοι,",
        [
            "1720",
            "lek"
        ]
    ],
    [
        "L S L S S S S L",
        "τᾷδε τᾷδε πόδα τίθει,",
        [
            "1721",
            "lek",
            "",
            "H"
        ]
    ],
    [
        "L S L S L L",
        "ὥστ᾽ ὄνειρον ἰσχύν.",
        [
            "1722",
            "ith"
        ]
    ],
    [
        "S L S L L S L S L S L",
        "ἰὼ ἰώ, δυστυχεστάτας φυγὰς",
        [
            "1723",
            "ia+cr+ia"
        ]
    ],
    [
        "S L L L S L S L S L",
        "ἐλαύνων τὸν γέροντά μ᾽ ἐκ πάτρας.",
        [
            "1724",
            "ba+",
            "cr+ia"
        ]
    ],
    [
        "S L S L L S L S L L",
        "ἰὼ ἰώ, δεινὰ δείν᾽ ἐγὼ τλάς.",
        [
            "1725",
            "ia+ith"
        ]
    ],
    [
        "S L S L L S L S L S L",
        "τί τλάς; τί τλάς; οὐχ ὁρᾷ Δίκα κακούς,",
        [
            "1726",
            "ia+",
            "cr+ia"
        ]
    ],
    [
        "L S L S L S L S S S S L",
        "οὐδ᾽ ἀμείβεται βροτῶν ἀσυνεσίας.",
        [
            "1727",
            "cr+2ia"
        ]
    ],
    [
        "S L S L S S S S L",
        "ὅδ᾽ εἰμὶ μοῦσαν ὃς ἐπὶ καλ-",
        [
            "1728",
            "2ia∫"
        ]
    ],
    [
        "S L S L S S S S L",
        "λίνικον οὐράνιον ἔβαν",
        [
            "1729",
            "2ia"
        ]
    ],
    [
        "L S L S L",
        "†παρθένου κόρας†",
        [
            "1730",
            "?"
        ]
    ],
    [
        "L L S S S S L L",
        "αἴνιγμ᾽ ἀσύνετον εὑρών.",
        [
            "1731",
            "ia+ba"
        ]
    ],
    [
        "L S S S S L S L S",
        "Σφιγγὸς ἀναφέρεις ὄνειδος;",
        [
            "1732",
            "2tr"
        ]
    ],
    [
        "S S S S S S L S L S L L",
        "ἄπαγε τὰ πάρος εὐτυχήματ᾽ αὐδῶν.",
        [
            "1733",
            "tr+ith"
        ]
    ],
    [
        "S S S S S S S S S S S S",
        "τάδε σ᾽ ἐπέμενε μέλεα πάθεα",
        [
            "1734",
            "2tr"
        ]
    ],
    [
        "S S S S S S S S S S S S",
        "φυγάδα πατρίδος ἄπο γενόμενον,",
        [
            "1735",
            "2tr"
        ]
    ],
    [
        "L S L S L L",
        "ὦ πάτερ, θανεῖν που.",
        [
            "1736",
            "ith"
        ]
    ],
    [
        "S L S S S S S S S L S L S L",
        "ποθεινὰ δάκρυα παρὰ φίλαισι παρθένοις",
        [
            "1737",
            "3ia"
        ]
    ],
    [
        "S L S L S S S S S S S L L",
        "λιποῦσ᾽ ἄπειμι πατρίδος ἀποπρὸ γαίας",
        [
            "1738",
            "2ia+ba"
        ]
    ],
    [
        "S L S L S L S L",
        "ἀπαρθένευτ᾽ ἀλωμένα.",
        [
            "1739",
            "2ia"
        ]
    ],
    [
        "L S L S L S L",
        "φεῦ τὸ χρήσιμον φρενῶν",
        [
            "1740",
            "lek"
        ]
    ],
    [
        "L S L S L S L",
        "ἐς πατρός γε συμφορὰς",
        [
            "1741",
            "lek"
        ]
    ],
    [
        "L S L S L L",
        "εὐκλεᾶ με θήσει:",
        [
            "1742",
            "ith"
        ]
    ],
    [
        "S L S L S S S L S L S L",
        "ὃς ἐκ δόμων νέκυς ἄθαπτος οἴχεται",
        [
            "1744",
            "ia+",
            "cr+ia"
        ]
    ],
    [
        "S S S S L S L S L S L S L",
        "μέλεος, ὅν, εἴ με καὶ θανεῖν, πάτερ, χρεών,",
        [
            "1745",
            "3ia"
        ]
    ],
    [
        "S S S L S L L",
        "σκότια γᾷ καλύψω.",
        [
            "1746",
            "ith"
        ]
    ],
    [
        "S L S L S L S L",
        "σὺ δ᾽ ἀμφὶ βωμίους λιτὰς —",
        [
            "1749",
            "2ia"
        ]
    ],
    [
        "S L S L S L S L",
        "πρὸς ἥλικας φάνηθι σάς.",
        [
            "1747",
            "2ia"
        ]
    ],
    [
        "S S S L S L S L",
        "ἅλις ὀδυρμάτων ἐμῶν.",
        [
            "1748",
            "lek"
        ]
    ],
    [
        "S S S L S L S L",
        "κόρον ἔχουσ᾽ ἐμῶν κακῶν.",
        [
            "1750",
            "lek"
        ]
    ],
    [
        "S L S S S S S S S L",
        "ἴθ᾽ ἀλλὰ Βρόμιος ἵνα τε ση-",
        [
            "1751",
            "2ia∫"
        ]
    ],
    [
        "S S S S S S S L S L",
        "κὸς ἄβατος ὄρεσι μαινάδων.",
        [
            "1752",
            "2ia"
        ]
    ],
    [
        "L L L L S S L",
        "Καδμείαν ᾧ νεβρίδα",
        [
            "1753",
            "?"
        ]
    ],
    [
        "S S L S S L S S L S S L",
        "στολιδωσαμένα ποτ᾽ ἐγὼ Σεμέλας",
        [
            "1754-5",
            "A"
        ]
    ],
    [
        "S S S S S S S S S S S S L S",
        "θίασον ἱερὸν ὄρεσιν ἀνεχόρευσα,",
        [
            "1756",
            "tr+ith",
            "",
            "B"
        ]
    ],
    [
        "S S S S S S L S L S L S",
        "χάριν ἀχάριτον ἐς θεοὺς διδοῦσα.",
        [
            "1757",
            "tr+ith",
            "",
            "B"
        ]
    ],
    [
        "L S S L L L L S S L",
        "ΧΟ. ὦ μέγα ϲεμνὴ Νίκη, τὸν ἐμὸν",
        [
            "1764",
            "an2"
        ]
    ],
    [
        "S S L S S L",
        "βίοτον κατέχοιϲ",
        [
            "1765",
            "an"
        ]
    ]
]