[
    [
        "L S S L S S L S S L S S L S S L L",
        "ὦ Διὸς ἁδυεπὲς Φάτι, τίς ποτε τᾶς πολυχρύσου",
        [
            "151",
            "dactylic",
            "hexameter"
        ]
    ],
    [
        "L L S L S L S L",
        "Πυθῶνος ἀγλαὰς ἔβας",
        [
            "152",
            "iambic",
            "dimeter"
        ]
    ],
    [
        "L L L S S L S S L S S L S S L L",
        "Θήβας; ἐκτέταμαι φοβερὰν φρένα, δείματι πάλλων,",
        [
            "153",
            "dactylic",
            "hexameter"
        ]
    ],
    [
        "L L S S L S S L L",
        "ἰήιε Δάλιε Παιών,",
        [
            "154",
            "‒D‒"
        ]
    ],
    [
        "L S S L S S L S S L S S",
        "ἀμφὶ σοὶ ἁζόμενος τί μοι ἢ νέον",
        [
            "155",
            "dactylic",
            "tetrameter"
        ]
    ],
    [
        "L S S L S S L L L S S L S S L S S",
        "ἢ περιτελλομέναις ὥραις πάλιν ἐξανύσεις χρέος;",
        [
            "156-7",
            "dactylic",
            "hexameter"
        ]
    ],
    [
        "L S S L S S L S S L S S L S S L L",
        "εἰπέ μοι, ὦ χρυσέας τέκνον Ἐλπίδος, ἄμβροτε Φάμα.",
        [
            "158",
            "dactylic",
            "hexameter"
        ]
    ],
    [
        "L S S L S S L S S L S S L S S L L",
        "πρῶτα σὲ κεκλόμενος, θύγατερ Διός, ἄμβροτ᾽ Ἀθάνα",
        [
            "159",
            "dactylic",
            "hexameter"
        ]
    ],
    [
        "L L S L S L S L",
        "γαιάοχόν τ᾽ ἀδελφεὰν",
        [
            "160",
            "iambic",
            "dimeter"
        ]
    ],
    [
        "L S S L S S L S S L S S L S S L L",
        "Ἄρτεμιν, ἃ κυκλόεντ᾽ ἀγορᾶς θρόνον εὐκλέα θάσσει,",
        [
            "161",
            "dactylic",
            "hexameter"
        ]
    ],
    [
        "L L S S L S S L L",
        "καὶ Φοῖβον ἑκαβόλον, ἰὼ",
        [
            "162",
            "‒D‒"
        ]
    ],
    [
        "L S S L S S L S S L S S",
        "τρισσοὶ ἀλεξίμοροι προφάνητέ μοι,",
        [
            "163",
            "dactylic",
            "tetrameter"
        ]
    ],
    [
        "L S S L S S L L L S S L S S L S S",
        "εἴ ποτε καὶ προτέρας ἄτας ὕπερ ὀρνυμένας πόλῃ",
        [
            "164/5",
            "dactylic",
            "hexameter"
        ]
    ],
    [
        "L S S L S S L S S L S S L S S L L",
        "ἠνύσατ᾽ ἐκτοπίαν φλόγα πήματος, ἔλθετε καὶ νῦν.",
        [
            "166",
            "dactylic",
            "hexameter"
        ]
    ],
    [
        "L S S S S S S L S L",
        "ὦ πόποι, ἀνάριθμα γὰρ φέρω",
        [
            "167/8",
            "iambic",
            "dimeter"
        ]
    ],
    [
        "L S S S L S L S L",
        "πήματα· νοσεῖ δέ μοι πρόπας",
        [
            "169",
            "iambic",
            "dimeter"
        ]
    ],
    [
        "S S L S S L S S L L",
        "στόλος, οὐδ᾽ ἔνι φροντίδος ἔγχος",
        [
            "170",
            "anapestic,",
            "anapestic",
            "~\\^~"
        ]
    ],
    [
        "L S S L S S L S S L S S",
        "ᾧ τις ἀλέξεται. οὔτε γὰρ ἔκγονα",
        [
            "171/2",
            "dactylic",
            "tetrameter"
        ]
    ],
    [
        "S L S S L S S L S S L L",
        "κλυτᾶς χθονὸς αὔξεται οὔτε τόκοισιν",
        [
            "172/3",
            "⏑D^2^‒"
        ]
    ],
    [
        "L L S L S S L S S L S S L L",
        "ἰηίων καμάτων ἀνέχουσι γυναῖκες·",
        [
            "174",
            "iambic,",
            "anapestic,",
            "anapestic\\^"
        ]
    ],
    [
        "L L S L L S S L S S L S S L L",
        "ἄλλον δ᾽ ἂν ἄλλῳ προσίδοις ἅπερ εὔπτερον ὄρνιν",
        [
            "175/6",
            "iambic,",
            "dactylic"
        ]
    ],
    [
        "L S S L S S L S S L S S",
        "κρεῖσσον ἀμαιμακέτου πυρὸς ὄρμενον",
        [
            "177",
            "dactylic",
            "tetrameter"
        ]
    ],
    [
        "L L S L S L L",
        "ἀκτὰν πρὸς ἑσπέρου θεοῦ.",
        [
            "177/8",
            "iambic,",
            "iambic\\^"
        ]
    ],
    [
        "L S S S S S S L S L",
        "ὧν πόλις ἀνάριθμος ὄλλυται·",
        [
            "179",
            "iambic",
            "dimeter"
        ]
    ],
    [
        "L S S S S S S L S L",
        "νηλέα δὲ γένεθλα πρὸς πέδῳ",
        [
            "180/1",
            "iambic",
            "dimeter"
        ]
    ],
    [
        "S S L S S L S S L L",
        "θαναταφόρα κεῖται ἀνοίκτως·",
        [
            "181/2",
            "anapestic,",
            "anapestic",
            "\\^"
        ]
    ],
    [
        "L S S L S S L S S L S S",
        "ἐν δ᾽ ἄλοχοι πολιαί τ᾽ ἔπι ματέρες",
        [
            "183",
            "dactylic",
            "tetrameter"
        ]
    ],
    [
        "L L S S L S S L S S L L",
        "ἀχὰν παραβώμιον ἄλλοθεν ἄλλαι",
        [
            "184/5",
            "‒",
            "D^2^‒"
        ]
    ],
    [
        "L L S L S S L S S L S S L L",
        "λυγρῶν πόνων ἱκετῆρες ἐπιστενάχουσιν.",
        [
            "185/6",
            "iambic,",
            "anapestic,"
        ]
    ],
    [
        "L L S L L S S L S S L S S L L",
        "παιὼν δὲ λάμπει στονόεσσά τε γῆρυς ὅμαυλος",
        [
            "187",
            "iambic,",
            "dactylic"
        ]
    ],
    [
        "L S S L S S L S S L S S",
        "ὧν ὕπερ, ὦ χρυσέα θύγατερ Διός,",
        [
            "188",
            "dactylic",
            "tetrameter"
        ]
    ],
    [
        "L L S L S L L",
        "εὐῶπα πέμψον ἀλκάν.",
        [
            "189",
            "iambic,",
            "iambic\\^"
        ]
    ],
    [
        "L S S S L S S S L",
        "Ἄρεά τε τὸν μαλερόν, ὃς",
        [
            "190/1",
            "iambic,",
            "\\^iambic"
        ]
    ],
    [
        "L S L S L S L",
        "νῦν ἄχαλκος ἀσπίδων",
        [
            "191",
            "lecythion"
        ]
    ],
    [
        "S L S S S S L S L S L L",
        "φλέγει με περιβόατον, ἀντιάζω",
        [
            "192",
            "iambic",
            "dimeter,",
            "iambic\\^"
        ]
    ],
    [
        "S L S L S L S L S L S L",
        "παλίσσυτον δράμημα νωτίσαι πάτρας",
        [
            "193/4",
            "iambic",
            "trimeter"
        ]
    ],
    [
        "S L S L L S L",
        "ἔπουρον, εἴτ᾽ ἐς μέγαν",
        [
            "194",
            "iambic,",
            "\\^iambic"
        ]
    ],
    [
        "S S S L S L L",
        "θάλαμον Ἀμφιτρίτας",
        [
            "195",
            "ithyphallic"
        ]
    ],
    [
        "L L S S L S S L L",
        "εἴτ᾽ ἐς τὸν ἀπόξενον ὅρμων",
        [
            "196",
            "‒D‒"
        ]
    ],
    [
        "S L S L S L S L",
        "τελεῖν γὰρ εἴ τι νὺξ ἀφῇ,",
        [
            "198",
            "iambic",
            "dimeter"
        ]
    ],
    [
        "L S L S L S L",
        "τοῦτ᾽ ἐπ᾽ ἦμαρ ἔρχεται·",
        [
            "199",
            "lecythion"
        ]
    ],
    [
        "S L L L S L",
        "τόν, ὦ τᾶν πυρφόρων",
        [
            "200",
            "iambic\\^,",
            "\\^iambic"
        ]
    ],
    [
        "L S L S L S L",
        "ἀστραπᾶν κράτη νέμων,",
        [
            "200/1",
            "lecythion"
        ]
    ],
    [
        "L L S S S S L S L S L L",
        "ὦ Ζεῦ πάτερ, ὑπὸ σῷ φθίσον κεραυνῷ,",
        [
            "201/2",
            "iambic",
            "dimeter,",
            "iambic\\^"
        ]
    ],
    [
        "L L S L S S S L",
        "Λύκει᾽ ἄναξ, τά τε σὰ χρυ-",
        [
            "203",
            "iambic,",
            "\\^iambic"
        ]
    ],
    [
        "L S L S L S L",
        "σοστρόφων ἀπ᾽ ἀγκυλᾶν",
        [
            "203/4",
            "lecythion"
        ]
    ],
    [
        "S S S S L S S S S L S L L",
        "βέλεα θέλοιμ᾽ ἂν ἀδάματ᾽ ἐνδατεῖσθαι",
        [
            "204/5",
            "iambic",
            "dimeter,",
            "iambic\\^"
        ]
    ],
    [
        "S L S L S L S L S L S L",
        "ἀρωγὰ προσταχθέντα τάς τε πυρφόρους",
        [
            "206/7",
            "iambic",
            "trimeter"
        ]
    ],
    [
        "L S S S L L S L",
        "Ἀρτέμιδος αἴγλας, ξὺν αἷς",
        [
            "207/8",
            "iambic,",
            "\\^iambic"
        ]
    ],
    [
        "S S S S S S L L",
        "Λύκι᾽ ὄρεα διᾴσσει·",
        [
            "208/9",
            "ithyphallic"
        ]
    ],
    [
        "L L S S L S S L L",
        "τὸν χρυσομίτραν τε κικλήσκω,",
        [
            "209/10",
            "‒D‒"
        ]
    ],
    [
        "L S L S L L",
        "τᾶσδ᾽ ἐπώνυμον γᾶς,",
        [
            "210/11",
            "ithyphallic"
        ]
    ],
    [
        "L L S L S L S L",
        "οἰνῶπα Βάκχον εὔιον,",
        [
            "211",
            "iambic",
            "dimeter"
        ]
    ],
    [
        "L S L S L S L",
        "Μαινάδων ὁμόστολον,",
        [
            "212",
            "lecythion"
        ]
    ],
    [
        "S L L L S L",
        "πελασθῆναι φλέγοντ᾽",
        [
            "213",
            "iambic\\^,",
            "\\^iambic"
        ]
    ],
    [
        "L L S S S S L S L S L L",
        "πεύκᾳ 'πὶ τὸν ἀπότιμον ἐν θεοῖς θεόν.",
        [
            "215",
            "iambic",
            "dimeter,",
            "iambic\\^"
        ]
    ],
    [
        "S L S L L S S L",
        "τίς ὅντιν᾽ ἁ θεσπιέπει-",
        [
            "463",
            "ia",
            "cho"
        ]
    ],
    [
        "L L L L L S S L",
        "ἄρρητ᾽ ἀρρήτων τελέσαν-",
        [
            "465",
            "wil"
        ]
    ],
    [
        "S L S L S L L",
        "τα φοινίαισι χερσίν;",
        [
            "465/6",
            "ia",
            "ia\\^"
        ]
    ],
    [
        "L L S S L S L",
        "ὥρα νιν ἀελλάδων",
        [
            "467",
            "tel"
        ]
    ],
    [
        "L L S S L S L",
        "ἵππων σθεναρώτερον",
        [
            "467/8",
            "tel"
        ]
    ],
    [
        "S L S S L L",
        "φυγᾷ πόδα νωμᾶν.",
        [
            "468",
            "reiz"
        ]
    ],
    [
        "S S L S S L S S L L L",
        "ἔνοπλος γὰρ ἐπ᾽ αὐτὸν ἐπενθρῴσκει",
        [
            "469",
            "enopl"
        ]
    ],
    [
        "S S L S S L S S L S S L",
        "πυρὶ καὶ στεροπαῖς ὁ Διὸς γενέτας,",
        [
            "470",
            "enopl"
        ]
    ],
    [
        "L L S S L L",
        "δειναὶ δ᾽ ἅμ᾽ ἕπονται",
        [
            "471",
            "reiz"
        ]
    ],
    [
        "L S S S S L L",
        "κῆρες ἀναπλάκητοι",
        [
            "472",
            "\\^ia",
            "ia\\^"
        ]
    ],
    [
        "S L S L L S S L",
        "ἔλαμψε γὰρ τοῦ νιφόεν-",
        [
            "473",
            "ia",
            "cho"
        ]
    ],
    [
        "L L L L L S S L",
        "φάμα Παρνασοῦ τὸν ἄδη-",
        [
            "475",
            "wil"
        ]
    ],
    [
        "S L S L S L L",
        "λον ἄνδρα πάντ᾽ ἰχνεύειν.",
        [
            "475/6",
            "ia",
            "ia\\^"
        ]
    ],
    [
        "L L S S L S L",
        "φοιτᾷ γὰρ ὑπ᾽ ἀγρίαν",
        [
            "477",
            "tel"
        ]
    ],
    [
        "L L S S L S L",
        "ὕλαν ἀνά τ᾽ ἄντρα καὶ",
        [
            "477/8",
            "tel"
        ]
    ],
    [
        "L L S S L L",
        "πέτραῖος ὁ ταῦρος,",
        [
            "478",
            "reiz"
        ]
    ],
    [
        "S S L S S L S S L L L",
        "μέλεος μελέῳ ποδὶ χηρεύων,",
        [
            "479",
            "enopl"
        ]
    ],
    [
        "S S L S S L S S L L L",
        "τὰ μεσόμφαλα γᾶς ἀπονοσφίζων",
        [
            "480",
            "enopl"
        ]
    ],
    [
        "L L S S L L",
        "μαντεῖα· τὰ δ᾽ ἀεὶ",
        [
            "481",
            "reiz"
        ]
    ],
    [
        "L S S S S L L",
        "ζῶντα περιποτᾶται.",
        [
            "482",
            "\\^ia",
            "ia\\^"
        ]
    ],
    [
        "L S S L L S S L L S S L L S S L",
        "δεινὰ μὲν οὖν, δεινὰ ταράσσει σοφὸς οἰωνοθέτας",
        [
            "483/4"
        ]
    ],
    [
        "L S S L L S S L L S S L L S S L",
        "οὔτε δοκοῦντ᾽ οὔτ᾽ ἀποφάσκονθ᾽· ὅ τι λέξω δ᾽ ἀπορῶ.",
        [
            "485/6",
            "—7io",
            "io\\^"
        ]
    ],
    [
        "S S L L S S L L",
        "πέτομαι δ᾽ ἐλπίσιν οὔτ᾽, ἐν-",
        [
            "487/8",
            "2io"
        ]
    ],
    [
        "S S L L S S L",
        "θάδ᾽ ὁρῶν οὔτ᾽ ὀπίσω.",
        [
            "488",
            "io",
            "io\\^"
        ]
    ],
    [
        "S S L L S S L",
        "τί γὰρ ἢ Λαβδακίδαις",
        [
            "489",
            "io",
            "io\\^"
        ]
    ],
    [
        "L L S S L L",
        "ἢ τῷ Πολύβου νεῖ-",
        [
            "489/90",
            "\\^\\^io",
            "io"
        ]
    ],
    [
        "S S L L S S L L",
        "κος ἔκειτ᾽, οὔτε πάροιθέν",
        [
            "490/1",
            "2io"
        ]
    ],
    [
        "S S L L S S L L",
        "ποτ᾽ ἔγωγ᾽ οὔτε τανῦν πω",
        [
            "491/2",
            "2io"
        ]
    ],
    [
        "S S L S S L L",
        "ἔμαθον, πρὸς ὅτου δὴ",
        [
            "492/3",
            "io\\^",
            "io"
        ]
    ],
    [
        "S S L S S L L",
        "ἐπὶ τὰν ἐπίδαμον",
        [
            "494",
            "io\\^",
            "io"
        ]
    ],
    [
        "S S L L S S L L S S L",
        "φάτιν εἶμ᾽ Οἰδιπόδα Λαβδακίδαις",
        [
            "495/6",
            "2io",
            "io\\^"
        ]
    ],
    [
        "S S L S S L L S S L",
        "ἐπίκουρος ἀδήλων θανάτων.",
        [
            "496/7",
            "io\\^",
            "io",
            "io\\^"
        ]
    ],
    [
        "L S S L L S S L L S S L L S S L",
        "ἀλλ᾽ ὁ μὲν οὖν Ζεὺς ὅ τ᾽ Ἀπόλλων ξυνετοὶ καὶ τὰ βροτῶν",
        [
            "498/9"
        ]
    ],
    [
        "L S S L L S S L L S S L L S S L",
        "εἰδότες· ἀνδρῶν δ᾽ ὅτι μάντις πλέον ἢ 'γὼ φέρεται,",
        [
            "500/1",
            "—7io",
            "io\\^"
        ]
    ],
    [
        "S S L L S S L L",
        "κρίσις οὔκ ἔστιν ἀλαθής·",
        [
            "502/3",
            "2io"
        ]
    ],
    [
        "S S L L S S L",
        "σοφίᾳ δ᾽ ἂν σοφίαν",
        [
            "503",
            "io",
            "io\\^"
        ]
    ],
    [
        "S S L L S S L",
        "παραμείψειεν ἀνήρ.",
        [
            "504",
            "io",
            "io\\^"
        ]
    ],
    [
        "L L S S L L",
        "ἀλλ᾽ οὔποτ᾽ ἔγωγ᾽ ἄν,",
        [
            "504/5",
            "\\^\\^io",
            "io"
        ]
    ],
    [
        "S S L L S S L L",
        "πρὶν ἴδοιμ᾽ ὀρθὸν ἔπος, μεμ-",
        [
            "505/6",
            "2io"
        ]
    ],
    [
        "S S L L S S L L",
        "φομένων ἂν καταφαίην.",
        [
            "506/7",
            "2io"
        ]
    ],
    [
        "S S L S S L L",
        "φανερὰ γὰρ ἐπ᾽ αὐτῷ,",
        [
            "507/8",
            "io\\^",
            "io"
        ]
    ],
    [
        "S S L L S S L",
        "πτερόεσσ᾽ ἦλθε κόρα",
        [
            "508",
            "io",
            "io\\^"
        ]
    ],
    [
        "S S L S S L L",
        "ποτέ, καὶ σοφὸς ὤφθη",
        [
            "509",
            "io\\^",
            "io"
        ]
    ],
    [
        "S S L L S S L L S S L",
        "βασάνῳ θ᾽ ἁδύπολις τῷ ἀπ᾽ ἐμᾶς",
        [
            "510/11",
            "2io",
            "io\\^"
        ]
    ],
    [
        "S S L S S L L S S L",
        "φρενὸς οὔποτ᾽ ὀφλήσει κακίαν.",
        [
            "511/12",
            "io\\^",
            "io",
            "io\\^"
        ]
    ],
    [
        "S L S L L S L",
        "πιθοῦ θελήσας φρονή-",
        [
            "649",
            "ia",
            "\\^ia"
        ]
    ],
    [
        "L S L L S L",
        "σας τ᾽, ἄναξ, λίσσομαι.",
        [
            "649/50",
            "\\^ia",
            "\\^ia"
        ]
    ],
    [
        "S L S L L L S L",
        "τί σοι θέλεις δῆτ᾽ εἰκάθω;",
        [
            "651",
            "2ia"
        ]
    ],
    [
        "S L S L L S L",
        "τὸν οὔτε πρὶν νήπιον",
        [
            "652",
            "ia",
            "\\^ia"
        ]
    ],
    [
        "L S L L S L S L S L",
        "νῦν τ᾽ ἐν ὅρκῳ μέγαν καταίδεσαι.",
        [
            "653/4",
            "\\^ia",
            "\\^ia",
            "ia"
        ]
    ],
    [
        "S S S L S L L S S L S L",
        "τὸν ἐναγῆ φίλον μήποτ᾽ ἐν αἰτίᾳ",
        [
            "656",
            "2doc"
        ]
    ],
    [
        "S S S L S L S L L S L",
        "σὺν ἀφανεῖ λόγῳ σ᾽ ἄτιμον βαλεῖν.",
        [
            "657",
            "2doc"
        ]
    ],
    [
        "L L S L L L S L L L S L",
        "εὖ νυν ἐπίστω, ταῦθ᾽ ὅταν ζητῇς, ἐμοὶ",
        [
            "658",
            "3ia"
        ]
    ],
    [
        "L L S L S L S L L L S L",
        "ζητῶν ὄλεθρον ἢ φυγὴν ἐκ τῆσδε γῆς.",
        [
            "659",
            "3ia"
        ]
    ],
    [
        "L L L L S L S L S L",
        "οὐ τὸν πάντων θεῶν θεὸν πρόμον",
        [
            "660/1",
            "mol",
            "\\^ia",
            "ia"
        ]
    ],
    [
        "L S S S S S S S S S S S S S S S",
        "Ἅλιον· ἐπεὶ ἄθεος ἄφιλος ὅ τι πύματον",
        [
            "661/3",
            "2doc"
        ]
    ],
    [
        "S L L S L S L L S L",
        "ὀλοίμαν, φρόνησιν εἰ τάνδ᾽ ἔχω.",
        [
            "663/4",
            "2doc"
        ]
    ],
    [
        "L S L L S L L S L",
        "ἀλλά μοι δυσμόρῳ γᾶ φθίνου-",
        [
            "665/6",
            "\\^ia",
            "\\^ia",
            "\\^ia"
        ]
    ],
    [
        "S L L L S L S L S L",
        "σα τρύχει κάρδιαν, τάδ᾽ εἰ κακοῖς",
        [
            "666/7",
            "ia\\^",
            "\\^ia",
            "ia"
        ]
    ],
    [
        "S L L L S L S L L",
        "προσάψει τοῖς πάλαι τὰ πρὸς σφῷν.",
        [
            "668",
            "ia\\^",
            "\\^ia",
            "ia\\^"
        ]
    ],
    [
        "S L S L L S L",
        "γύναι, τί μέλλεις κομί-",
        [
            "678",
            "ia",
            "\\^ia"
        ]
    ],
    [
        "L S L L S L",
        "ζειν δόμων τόνδ᾽ ἔσω;",
        [
            "678/9",
            "\\^ia",
            "\\^ia"
        ]
    ],
    [
        "S L S L S L S L",
        "μαθοῦσά γ᾽ ἥτις ἡ τύχη.",
        [
            "680",
            "2ia"
        ]
    ],
    [
        "S L S L L S L",
        "δόκησις ἀγνὼς λόγων",
        [
            "681",
            "ia",
            "\\^ia"
        ]
    ],
    [
        "L S L L S L S L S L",
        "ἦλθε, δάπτει δὲ καὶ τὸ μὴ 'νδικον.",
        [
            "682/3",
            "\\^ia",
            "\\^ia",
            "ia"
        ]
    ],
    [
        "S S S L S L L S S L S L",
        "ἅλις ἔμοιγ᾽, ἅλις, γᾶς προπονουμένῳ,",
        [
            "685",
            "2doc"
        ]
    ],
    [
        "L S S L S L S L L S L",
        "φαίνεται ἔνθ᾽ ἔληξεν αὐτοῦ μένειν.",
        [
            "686",
            "2doc"
        ]
    ],
    [
        "S L S L L S S S L L L S L",
        "ὁρᾷς ἵν᾽ ἥκεις, ἀγαθὸς ὢν γνώμην ἀνήρ,",
        [
            "687",
            "3ia"
        ]
    ],
    [
        "L L S L L L S L L L S L",
        "τοὐμὸν παριεὶς καὶ καταμβλύνων κέαρ;",
        [
            "688",
            "3ia"
        ]
    ],
    [
        "L L L L S L S L S L",
        "ὦναξ, εἶπον μὲν οὐχ ἅπαξ μόνον,",
        [
            "689/90",
            "mol",
            "\\^ia",
            "ia"
        ]
    ],
    [
        "L S S S S S S S S S S S S S S S",
        "ἴσθι δὲ παραφρόνιμον, ἄπορον ἐπὶ φρόνιμα",
        [
            "690/2",
            "2doc"
        ]
    ],
    [
        "S L L S L S L L S L",
        "πεφάνθαι μ᾽ ἄν, εἴ σ᾽ ἐνοσφιζόμαν,",
        [
            "692/3",
            "2doc"
        ]
    ],
    [
        "L S L L S L L S L",
        "ὅς γ᾽ ἐμὰν γᾶν φίλαν ἐν πόνοις",
        [
            "694/5",
            "\\^ia",
            "\\^ia",
            "\\^ia"
        ]
    ],
    [
        "S L L L S L S L S L",
        "ἀλύουσαν κατ᾽ ὀρθὸν οὔρισας,",
        [
            "695/6",
            "ia\\^",
            "\\^ia",
            "ia"
        ]
    ],
    [
        "L L S L L S L S L S L",
        "εἴ μοι ξυνείη φέροντι μοῖρα τὰν",
        [
            "863/4",
            "ia",
            "\\^ia",
            "ia"
        ]
    ],
    [
        "L L S L L L S L",
        "εὔσεπτον ἁγνείαν λόγων",
        [
            "864",
            "2ia"
        ]
    ],
    [
        "L L S L L L S L S L L",
        "ἔργων τε πάντων, ὧν νόμοι πρόκεινται",
        [
            "865",
            "2",
            "ia",
            "ia\\^"
        ]
    ],
    [
        "L S S S L S S L",
        "ὑψίποδες, οὐρανίᾳ ᾽ν",
        [
            "866",
            "ia\\^",
            "cho"
        ]
    ],
    [
        "L S S S L L S L S L L",
        "αἰθέρα τεκνωθέντες, ὧν Ὄλυμπος",
        [
            "866/7",
            "ia",
            "\\^ia",
            "ia\\^"
        ]
    ],
    [
        "S L S S L S L",
        "πατὴρ μόνος, οὐδέ νιν",
        [
            "868",
            "tel"
        ]
    ],
    [
        "L L S S L S L",
        "θνατὰ φύσις ἀνέρων",
        [
            "868/9",
            "tel"
        ]
    ],
    [
        "S L S L S L S S L L S S L L L",
        "ἔτικτεν οὐδὲ μή ποτε λάθα κατακοιμάσῃ·",
        [
            "869/70",
            "unnamed",
            "aeolic"
        ]
    ],
    [
        "S S L L L S S L S L L L",
        "μέγας ἐν τούτοις θεὸς οὐδὲ γηράσκει.",
        [
            "871/2",
            "unnamed",
            "aeolic"
        ]
    ],
    [
        "S L S L L S L S L S L",
        "ὕβρις φυτεύει τύραννον· ὕβρις, εἰ",
        [
            "873/4",
            "ia",
            "\\^ia",
            "ia"
        ]
    ],
    [
        "L L S L L L S L",
        "πολλῶν ὑπερπλησθῇ μάταν,",
        [
            "874",
            "2ia"
        ]
    ],
    [
        "L S S S L S S L",
        "ἀκρότατα γεῖσ᾽άναβᾶσ᾽",
        [
            "876",
            "ia\\^",
            "cho"
        ]
    ],
    [
        "S S S S L L S L S L L",
        "ἀπότομον ὤρουσεν εἰς ἀνάγκαν,",
        [
            "876/7",
            "ia",
            "\\^ia",
            "ia\\^"
        ]
    ],
    [
        "L L S S L S L",
        "ἔνθ᾽ οὐ ποδὶ χρησίμῳ",
        [
            "878",
            "tel"
        ]
    ],
    [
        "L L S S L S L",
        "χρῆται. τὸ καλῶς δ᾽ ἔχον",
        [
            "878/9",
            "tel"
        ]
    ],
    [
        "S L S L S L S S L L S S L L L",
        "πόλει πάλαισμα μήποτε λῦσαι θεὸν αἰτοῦμαι.",
        [
            "879/80",
            "unnamed",
            "aeolic"
        ]
    ],
    [
        "S S L L L S S L S L L L",
        "θεὸν οὐ λήξω ποτὲ προστάταν ἴσχων.",
        [
            "881/2",
            "unnamed",
            "aeolic"
        ]
    ],
    [
        "L S S S S L S L S",
        "εἰ δέ τις ὑπέροπτα χερσὶν",
        [
            "883",
            "2tr"
        ]
    ],
    [
        "L S L S L S L",
        "ἢ λόγῳ πορεύεται,",
        [
            "884",
            "\\^ia",
            "ia"
        ]
    ],
    [
        "S L S S L S L S",
        "Δίκας ἀφόβητος οὐδὲ",
        [
            "885",
            "enopl"
        ]
    ],
    [
        "L S L S L S L",
        "δαιμόνων ἕδη σέβων,",
        [
            "886",
            "\\^ia",
            "ia"
        ]
    ],
    [
        "L S L S L S L",
        "δυσπότμου χάριν χλιδᾶς,",
        [
            "888",
            "\\^ia",
            "ia"
        ]
    ],
    [
        "L L S L L L S L S L L",
        "εἰ μὴ τὸ κέρδος κερδανεῖ δικαίως",
        [
            "889",
            "2ia",
            "ia\\^"
        ]
    ],
    [
        "L L S L L L S L",
        "καὶ τῶν ἀσέπτων εἴρξεται,",
        [
            "890",
            "2ia"
        ]
    ],
    [
        "L L S L L L S L S L L",
        "ἢ τῶν ἀθίκτων θίξεται ματᾴζων.",
        [
            "891",
            "2ia",
            "ia\\^"
        ]
    ],
    [
        "S S S S L L S L",
        "τίς ἔτι ποτ᾽ ἐν τοῖσδ᾽ ἀνὴρ",
        [
            "892",
            "ia",
            "\\^ia"
        ]
    ],
    [
        "L S L L L S L L",
        "θεῶν βέλη ψυχᾶς ἀμύνοι;",
        [
            "893/4",
            "2tr"
        ]
    ],
    [
        "L S L L L S L L L S L",
        "εἰ γὰρ αἱ τοιαίδε πράξεις τίμιαι,",
        [
            "894/5",
            "2tr",
            "tr\\^"
        ]
    ],
    [
        "S L S S L L",
        "τί δεῖ με χορεύειν;",
        [
            "896",
            "reiz"
        ]
    ],
    [
        "L S S S S L S L S",
        "οὐκέτι τὸν ἄθικτον εἶμι",
        [
            "897",
            "2tr"
        ]
    ],
    [
        "L S L S L S L",
        "γᾶς ἐπ᾽ ὀμφαλὸν σέβων,",
        [
            "898",
            "\\^ia",
            "ia"
        ]
    ],
    [
        "L L S S L S L S",
        "οὐδ᾽ ἐς τὸν Ἀβαῖσι ναὸν",
        [
            "899",
            "enopl"
        ]
    ],
    [
        "L S L S L S L",
        "οὐδὲ τὰν Ὀλυμπίαν,",
        [
            "900",
            "\\^ia",
            "ia"
        ]
    ],
    [
        "L S L S L S L",
        "πᾶσιν ἁρμόσει βροτοῖς.",
        [
            "902",
            "\\^ia",
            "ia"
        ]
    ],
    [
        "L L S L L L S L S L L",
        "ἀλλ᾽, ὦ κρατύνων, εἴπερ ὄρθ᾽ ἀκούεις,",
        [
            "903",
            "2ia",
            "ia\\^"
        ]
    ],
    [
        "L L S L L L S L",
        "Ζεῦ, πάντ᾽ ἀνάσσων, μὴ λάθοι",
        [
            "904",
            "2ia"
        ]
    ],
    [
        "S L S L L S S S L S L L",
        "σὲ τάν τε σὰν ἀθάνατον αἰὲν ἀρχάν.",
        [
            "905",
            "2ia",
            "ia\\^"
        ]
    ],
    [
        "S L S L L S L",
        "φθίνοντα γὰρ Λαΐου",
        [
            "906",
            "ia",
            "\\^ia"
        ]
    ],
    [
        "L S L L L S L L",
        "θέσφατ᾽ ἐξαιροῦσιν ἤδη,",
        [
            "907/8",
            "2tr"
        ]
    ],
    [
        "L S L L L S L L L S L",
        "κοὐδαμοῦ τιμαῖς Ἀπόλλων ἐμφανής·",
        [
            "908/9",
            "2tr",
            "tr\\^"
        ]
    ],
    [
        "L S S L L S L",
        "εἴπερ ἐγὼ μάντις εἰ-",
        [
            "1086",
            "d",
            "e"
        ]
    ],
    [
        "S L S L L L S L",
        "μὶ καὶ κατὰ γνώμαν ἴδρις,",
        [
            "1086/7",
            "⏑",
            "e",
            "‒",
            "e"
        ]
    ],
    [
        "L S S L S S L L",
        "οὐ τὸν Ὄλυμπον ἀπείρων,",
        [
            "1088",
            "D",
            "‒"
        ]
    ],
    [
        "L S L L L S L L L S L",
        "ὦ Κιθαιρών, οὐκ ἔσει τὰν αὔριον",
        [
            "1089/90",
            "e",
            "‒",
            "e",
            "‒",
            "e"
        ]
    ],
    [
        "L S L L L S S L S S L L L S L",
        "πανσέληνον, μὴ οὐ σέ γε καὶ πατριώταν Οἰδίπου",
        [
            "1090/1",
            "e",
            "‒",
            "D",
            "‒",
            "e"
        ]
    ],
    [
        "L S L L L S L L",
        "καὶ τροφὸν καὶ ματέρ᾽ αὔξειν,",
        [
            "1092",
            "e",
            "‒",
            "e",
            "‒"
        ]
    ],
    [
        "L S L L L S L L",
        "καὶ χορεύεσθαι πρὸς ἡμῶν",
        [
            "1093",
            "e",
            "‒",
            "e",
            "‒"
        ]
    ],
    [
        "L S S L S S L S",
        "ὡς ἐπίηρα φέροντα",
        [
            "1094/5",
            "D⏑"
        ]
    ],
    [
        "L S L S L L",
        "τοῖς ἐμοῖς τυράννοις.",
        [
            "1095",
            "e",
            "⏑",
            "e\\^"
        ]
    ],
    [
        "L S L L L",
        "ταῦτ᾽ ἀρέστ᾽ εἴη.",
        [
            "1097",
            "e",
            "e\\^"
        ]
    ],
    [
        "L S S L L S L",
        "τίς σε, τέκνον, τίς σ᾽ ἔτικ-",
        [
            "1098",
            "d",
            "e"
        ]
    ],
    [
        "S L S L L L S L",
        "τε τᾶν μακραιώνων ἄρα",
        [
            "1098/9",
            "⏑",
            "e",
            "‒",
            "e"
        ]
    ],
    [
        "L S S L S S L L",
        "Πανὸς ὀρεσσιβάτα πατ-",
        [
            "1100/1",
            "D",
            "‒"
        ]
    ],
    [
        "L S L L L S L L L S L",
        "ρὸς πελασθεῖσ᾽; ἢ σέ γ᾽ εὐνάτειρά τις",
        [
            "1101/2",
            "e",
            "‒",
            "e",
            "‒",
            "e"
        ]
    ],
    [
        "L S L L L S S L S S L L L S L",
        "Λοξίου; τῷ γὰρ πλάκες ἀγρόνομοι πᾶσαι φίλαι·",
        [
            "1102/3",
            "e",
            "‒",
            "D",
            "‒",
            "e"
        ]
    ],
    [
        "L S L L L S L L",
        "εἴθ᾽ ὁ Κυλλάνας ἀνάσσων,",
        [
            "1104",
            "e",
            "‒",
            "e",
            "‒"
        ]
    ],
    [
        "L S L L L S L L",
        "εἴθ᾽ ὁ Βακχεῖος θεὸς ναί-",
        [
            "1105",
            "e",
            "‒",
            "e",
            "‒"
        ]
    ],
    [
        "L S S L S S L L",
        "ων ἐπ᾽ ἄκρων ὀρέων σ᾽ εὕ-",
        [
            "1106/7",
            "D",
            "‒"
        ]
    ],
    [
        "L S L S L L",
        "ρημα δέξατ᾽ ἔκ του",
        [
            "1107",
            "e",
            "⏑",
            "e\\^"
        ]
    ],
    [
        "L L S S L S L L",
        "Νυμφᾶν Ἑλικωνίδων, αἷς",
        [
            "1107/9",
            "‒",
            "d",
            "⏑e\\^"
        ]
    ],
    [
        "L S L L L",
        "πλεῖστα συμπαίζει.",
        [
            "1109",
            "e",
            "e\\^"
        ]
    ],
    [
        "S L S S L S L",
        "ἰὼ γενεαὶ βροτῶν,",
        [
            "1186",
            "tel"
        ]
    ],
    [
        "L L L S S L S L",
        "ὡς ὑμᾶς ἴσα καὶ τὸ μη-",
        [
            "1187",
            "gly"
        ]
    ],
    [
        "L L L S S L L",
        "δὲν ζώσας ἐναριθμῶ.",
        [
            "1187/8",
            "ph"
        ]
    ],
    [
        "L L S S L S L",
        "τίς γάρ, τίς ἀνὴρ πλέον",
        [
            "1189",
            "tel"
        ]
    ],
    [
        "L L L S S L S L",
        "τᾶς εὐδαιμονίας φέρει",
        [
            "1190",
            "gly"
        ]
    ],
    [
        "L S L S S L S L",
        "ἢ τοσοῦτον ὅσον δοκεῖν",
        [
            "1191",
            "gly"
        ]
    ],
    [
        "L L L S S L L",
        "καὶ δόξαντ᾽ ἀποκλῖναι;",
        [
            "1192",
            "ph"
        ]
    ],
    [
        "L L L S S L S L",
        "τὸν σόν τοι παράδειγμ᾽ ἔχων,",
        [
            "1193",
            "gly"
        ]
    ],
    [
        "L L L S S L S L",
        "τὸν σὸν δαίμονα, τὸν σόν, ὦ",
        [
            "1194",
            "gly"
        ]
    ],
    [
        "L S L S S L S L",
        "τλᾶμον Οἰδιπόδα, βροτῶν",
        [
            "1194/5",
            "gly"
        ]
    ],
    [
        "L L S S L L",
        "οὐδὲν μακαρίζω·",
        [
            "1195",
            "reiz"
        ]
    ],
    [
        "L L S S L S L",
        "ὅστις καθ᾽ ὑπερβολὰν",
        [
            "1196",
            "tel"
        ]
    ],
    [
        "L L L S S L S L",
        "τοξεύσας ἐκράτησε τοῦ",
        [
            "1196/7",
            "gly"
        ]
    ],
    [
        "L L L S S L L",
        "πάντ᾽ εὐδαίμονος ὄλβου,",
        [
            "1198",
            "ph"
        ]
    ],
    [
        "L L S S L S L",
        "ὦ Ζεῦ, κατὰ μὲν φθίσας",
        [
            "1196/7",
            "tel"
        ]
    ],
    [
        "L L L S S L S L",
        "τὰν γαμψώνυχα παρθένον",
        [
            "1198/9",
            "gly"
        ]
    ],
    [
        "L L L S S L S L",
        "χρησμῳδόν, θανάτων δ᾽ ἐμᾷ",
        [
            "1199/1200",
            "gly"
        ]
    ],
    [
        "L L L S S L L",
        "χώρᾳ πύργος ἀνέστας·",
        [
            "1200",
            "ph"
        ]
    ],
    [
        "L L L S S L S L",
        "ἐξ οὗ καὶ βασιλεὺς καλῇ",
        [
            "1201",
            "gly"
        ]
    ],
    [
        "S L L S S L S L",
        "ἐμὸς καὶ τὰ μέγιστ᾽ ἐτι-",
        [
            "1201/2",
            "gly"
        ]
    ],
    [
        "L L L S S L S L",
        "μάθης, ταῖς μεγάλαισιν ἐν",
        [
            "1202/3",
            "gly"
        ]
    ],
    [
        "L L S S L L",
        "Θήβαισιν ἀνάσσων.",
        [
            "1203",
            "reiz"
        ]
    ],
    [
        "S L S L L S L S L S L",
        "τανῦν δ᾽ ἀκούειν τίς ἀθλιώτερος;",
        [
            "1204",
            "ia",
            "\\^ia",
            "ia"
        ]
    ],
    [
        "S L S L S L L L S L",
        "τίς †ἐν πόνοις τίς ἄταις ἀγρίαις†,",
        [
            "1205",
            "ia\\^",
            "\\^ia",
            "ia(to",
            "match"
        ]
    ],
    [
        "S L S L S L S L",
        "ξύνοικος ἀλλαγᾷ βίου;",
        [
            "1206",
            "2ia"
        ]
    ],
    [
        "S L L S L S L S L",
        "ἰὼ κλεινὸν Οἰδίπου κάρα,",
        [
            "1207",
            "doc",
            "ia"
        ]
    ],
    [
        "L S L S L",
        "ἦ στέγας λιμὴν",
        [
            "1208a",
            "hypodoc"
        ]
    ],
    [
        "L S L S L",
        "αὑτὸς ἤρκεσεν",
        [
            "1208b",
            "hypodoc"
        ]
    ],
    [
        "L S L S L",
        "παιδὶ καὶ πατρὶ",
        [
            "1209a",
            "hypodoc"
        ]
    ],
    [
        "S S L S L S L",
        "θαλαμηπόλῳ πεσεῖν;",
        [
            "1209b",
            "K"
        ]
    ],
    [
        "L S S L S L S L",
        "πῶς ποτε πῶς ποθ᾽ αἱ πατρῷ-",
        [
            "1210",
            "cho",
            "ia"
        ]
    ],
    [
        "L S S L S L S L",
        "αί σ᾽ ἄλοκες φέρειν, τάλας,",
        [
            "1210/11cho",
            "ia"
        ]
    ],
    [
        "S L S L L S L S L S L",
        "ἐφηῦρέ σ᾽ ἄκονθ᾽ ὁ πάνθ᾽ ὁρῶν Χρόνος,",
        [
            "1213",
            "ia",
            "\\^ia",
            "ia"
        ]
    ],
    [
        "S L L L S L S L S L",
        "δικάζει τ᾽ ἄγαμον γάμον πάλαι",
        [
            "1214",
            "ia\\^",
            "\\^ia",
            "ia"
        ]
    ],
    [
        "S L S L S L S L",
        "τεκνοῦντα καὶ τεκνούμενον.",
        [
            "1215",
            "2ia"
        ]
    ],
    [
        "L S L S L",
        "μήποτ᾽ εἰδόμαν.",
        [
            "1217b",
            "hypodoc"
        ]
    ],
    [
        "L S L S L",
        "ὡς σ᾽ ὀδύρομαι",
        [
            "1218",
            "hypodoc"
        ]
    ],
    [
        "S S L S L S L",
        "περίαλλ᾽ ἰὰν χέων",
        [
            "1218/19",
            "K"
        ]
    ],
    [
        "L S S L S L S L",
        "ἐκ στομάτων. τὸ δ᾽ ὀρθὸν εἰ-",
        [
            "1219/20",
            "cho",
            "ia"
        ]
    ],
    [
        "L S S L S L S L",
        "πεῖν, ἀνέπνευσά τ᾽ ἐκ σέθεν",
        [
            "1220/1",
            "cho",
            "ia"
        ]
    ],
    [
        "L L S S L S S L L L",
        "ὦ δεινὸν ἰδεῖν πάθος ἀνθρώποις,",
        [
            "1297",
            "2an"
        ]
    ],
    [
        "L L S S L L L S S L",
        "ὦ δεινότατον πάντων ὅσ᾽ ἐγὼ",
        [
            "1298",
            "2an"
        ]
    ],
    [
        "S S L L L L L L L",
        "προσέκυρσ᾽ ἤδη. τίς σ᾽, ὦ τλῆμον,",
        [
            "1299",
            "2an"
        ]
    ],
    [
        "S S L S S L S S L L L",
        "προσέβη μανία; τίς ὁ πηδήσας",
        [
            "1300",
            "2an"
        ]
    ],
    [
        "L S S L L L L L L",
        "μείζονα δαίμων τῶν μακίστων",
        [
            "1301",
            "2an"
        ]
    ],
    [
        "L L L L S S L L",
        "πρὸς σῇ δυσδαίμονι μοίρᾳ;",
        [
            "1302",
            "2an\\^",
            "(paroemiac)"
        ]
    ],
    [
        "L L L L L L S S L",
        "φεῦ φεῦ, δύστην᾽, ἀλλ᾽ οὐδ᾽ ἐσιδεῖν",
        [
            "1303",
            "2an"
        ]
    ],
    [
        "S S L S S L L S S L L",
        "δύναμαί σ’ ἐθέλων πόλλ᾽ ἀνερέσθαι,",
        [
            "1304",
            "2an"
        ]
    ],
    [
        "L S S L L L S S L L",
        "πολλὰ πυθέσθαι, πολλὰ δ᾽ ἀθρῆσαι·",
        [
            "1305",
            "2an"
        ]
    ],
    [
        "L L L L S S L L",
        "τοίαν φρίκην παρέχεις μοι.",
        [
            "1306",
            "2an\\^",
            "(paroemiac)"
        ]
    ],
    [
        "L L L L L L S S L",
        "αἰαῖ αἰαῖ, δύστανος ἐγώ,",
        [
            "1307/8",
            "2an"
        ]
    ],
    [
        "L L S S L L L L L",
        "ποῖ γᾶς φέρομαι τλάμων; πᾷ μοι",
        [
            "1308/10",
            "2an"
        ]
    ],
    [
        "L L S S L L L S S L",
        "φθογγὰ διαπωτᾶται φοράδαν;",
        [
            "1310",
            "2an"
        ]
    ],
    [
        "L L L S S L L L",
        "ἰὼ δαῖμον, ἵν᾽ ἐξήλου.",
        [
            "1311",
            "2an\\^",
            "(paroemiac)"
        ]
    ],
    [
        "S L S L",
        "ἰὼ σκότου",
        [
            "1313",
            "2ia"
        ]
    ],
    [
        "S S S S S S S S S S S S S S S S",
        "νέφος ἐμὸν ἀπότροπον, ἐπιπλόμενον ἄφατον,",
        [
            "1313/14",
            "2doc"
        ]
    ],
    [
        "S L S L",
        "ἰὼ φίλος,",
        [
            "1321",
            "2ia"
        ]
    ],
    [
        "S S S S S S S S S S S S S S S S",
        "σὺ μὲν ἐμὸς ἐπίπολος ἔτι μόνιμος· ἔτι γὰρ",
        [
            "1321/2",
            "2doc"
        ]
    ],
    [
        "S S S L S L S L L L L",
        "ὑπομένεις με τὸν τυφλὸν κηδεύων.",
        [
            "1323/4",
            "2doc"
        ]
    ],
    [
        "S L L S L S L L S L",
        "Ἀπόλλων τάδ᾽ ἦν, Ἀπόλλων, φίλοι,",
        [
            "1329",
            "2doc"
        ]
    ],
    [
        "S S S S S S L S S S S S S L",
        "ὁ κακὰ κακὰ τελῶν ἐμὰ τάδ᾽ ἐμὰ πάθεα.",
        [
            "1330/1",
            "2doc"
        ]
    ],
    [
        "S L S L S L S L",
        "ἔπαισε δ᾽ αὐτόχειρ νιν οὔ-",
        [
            "1332/3",
            "2ia"
        ]
    ],
    [
        "S L S L L L",
        "τις, ἀλλ᾽ ἐγὼ τλάμων.",
        [
            "1333",
            "ia",
            "\\^ia\\^"
        ]
    ],
    [
        "S S S L S L",
        "τί γὰρ ἔδει μ᾽ ὁρᾶν,",
        [
            "1334",
            "doc"
        ]
    ],
    [
        "S L S L S L S L S L S L",
        "ὅτῳ γ᾽ ὁρῶντι μηδὲν ἦν ἰδεῖν γλυκύ;",
        [
            "1335",
            "3ia"
        ]
    ],
    [
        "L L S L L L S L",
        "ἦν τᾷδ᾽ ὅπωσπερ καὶ σύ φῄς.",
        [
            "1336",
            "2ia"
        ]
    ],
    [
        "S L S L L S L",
        "τί δῆτ᾽ ἐμοὶ βλεπτὸν ἢ",
        [
            "1337",
            "ia",
            "\\^ia"
        ]
    ],
    [
        "L S L S L S L",
        "στερκτὸν ἢ προσήγορον",
        [
            "1338",
            "\\^ia",
            "ia"
        ]
    ],
    [
        "S L S L L L S L S L",
        "ἔτ᾽ ἔστ᾽ ἀκούειν ἡδονᾷ φίλοι;",
        [
            "1339",
            "ia",
            "\\^ia\\^",
            "ia"
        ]
    ],
    [
        "S S S L S L L S S L S L",
        "ἀπάγετ᾽, ὦ φίλοι, τὸν μέγ᾽ ὀλέθριον",
        [
            "1342/3",
            "2doc"
        ]
    ],
    [
        "L S S L S S S S S S L S L",
        "τὸν καταρατότατον, ἔτι δὲ καὶ θεοῖς",
        [
            "1344/5",
            "2doc"
        ]
    ],
    [
        "L S S L S L",
        "ἐχθρότατον βροτῶν.",
        [
            "1346",
            "doc"
        ]
    ],
    [
        "S L L S L S S S L S L",
        "ὄλοιθ᾽ ὅστις ἦν, ὃς ἀγρίας πέδας",
        [
            "1349",
            "2doc"
        ]
    ],
    [
        "S S S S S S L S S S S S S L",
        "νομὰς ἐπιποδίου λάβε μ᾽ ἀπό τε φόνου",
        [
            "1350/1",
            "2doc"
        ]
    ],
    [
        "S L S L S L S L",
        "ἔρυτο κἀνέσωσεν, οὐ-",
        [
            "1352/3",
            "2ia"
        ]
    ],
    [
        "S L S L L L",
        "δὲν εἰς χάριν πράσσων.",
        [
            "1353",
            "ia",
            "\\^ia\\^"
        ]
    ],
    [
        "S S S L S L",
        "τότε γὰρ ἂν θανὼν",
        [
            "1354",
            "doc"
        ]
    ],
    [
        "L L S L S L S L S L S L",
        "οὐκ ἦ φίλοισιν οὐδ᾽ ἐμοὶ τοσόνδ᾽ ἄχος.",
        [
            "1355",
            "3ia"
        ]
    ],
    [
        "S L S L L L S L",
        "θέλοντι κἀμοὶ τοῦτ᾽ ἂν ἦν.",
        [
            "1356",
            "2ia"
        ]
    ],
    [
        "L L S L L S L",
        "οὔκουν πατρός γ᾽ ἂν φονεὺς",
        [
            "1357",
            "ia",
            "\\^ia"
        ]
    ],
    [
        "L S L S L S L",
        "ἦλθον οὐδὲ νυμφίος",
        [
            "1358",
            "\\^ia",
            "ia"
        ]
    ],
    [
        "L S S L S L S S S L S L",
        "νῦν δ᾽ ἄθεος μέν εἰμ᾽, ἀνοσίων δὲ παῖς,",
        [
            "1360/1",
            "2doc"
        ]
    ],
    [
        "S S S L S L L S S L S L",
        "ὁμογενὴς δ᾽ ἀφ᾽ ὧν αὐτὸς ἔφυν τάλας.",
        [
            "1362/3",
            "2doc"
        ]
    ],
    [
        "L S S L S S S S S S L S L",
        "εἰ δέ τι πρεσβύτερον ἔτι κακοῦ κακόν,",
        [
            "1364/5",
            "2doc"
        ]
    ],
    [
        "L S S L S L",
        "τοῦτ᾽ ἔλαχ᾽ Οἰδίπους.",
        [
            "1366",
            "doc"
        ]
    ]
]